<svg width="351" height="590" viewBox="0 0 351 590" fill="none" xmlns="http://www.w3.org/2000/svg">
<path d="M174 323L174 30" stroke="#424242" stroke-linecap="round" stroke-linejoin="round"/>
<path d="M253 211L253 97" stroke="#424242" stroke-linecap="round" stroke-linejoin="round"/>
<path d="M174 155H341" stroke="#424242" stroke-linecap="round" stroke-linejoin="round"/>
<path d="M19 197L109 197" stroke="#424242" stroke-linecap="round" stroke-linejoin="round"/>
<rect x="102" y="166" width="145" height="60" rx="5" fill="#002154"/>
<path d="M165.617 190.828H161.984V191.555H160.547V190.828H159.016V189.742H160.547V188.898H161.984V189.742H165.617V190.828ZM158.273 190.828H156.789V191.664H155.328V190.828H151.648V189.742H155.328V188.898H156.789V189.742H158.273V190.828ZM165.617 202.656H151.688V201.664H157.938V200.93H152.422V200H157.938V199.328H152.898V195.328H157.938V194.688H151.812V193.695H157.938V193.07C157.24 193.086 156.531 193.094 155.812 193.094C154.865 193.094 153.99 193.081 153.188 193.055L152.914 192.094C155.065 192.12 156.318 192.133 156.672 192.133C159.161 192.133 161.521 191.951 163.75 191.586L164.422 192.531C162.661 192.786 160.977 192.951 159.367 193.023V193.695H165.461V194.688H159.367V195.328H164.422V199.328H159.367V200H164.914V200.93H159.367V201.664H165.617V202.656ZM163.031 196.914V196.258H159.367V196.914H163.031ZM157.938 196.914V196.258H154.289V196.914H157.938ZM163.062 198.414V197.742H159.367V198.414H163.062ZM157.938 198.414V197.742H154.289V198.414H157.938ZM181.555 198.562H180.438V200.594H175.281V201.586C175.281 201.898 175.18 202.161 174.977 202.375C174.779 202.594 174.547 202.724 174.281 202.766C174.021 202.807 173.224 202.828 171.891 202.828L171.461 201.617L173.602 201.57C173.659 201.57 173.719 201.539 173.781 201.477C173.844 201.409 173.875 201.344 173.875 201.281V200.594H168.609V199.523H173.875V198.562H167.633V197.484H173.875V196.609H168.609V195.539H173.875V194.688H168.883V191.695H173.875V190.828H167.766V189.727H173.875V188.828H175.281V189.727H181.367V190.828H175.281V191.695H180.289V194.688H175.281V195.539H180.438V197.484H181.555V198.562ZM178.836 193.648V192.719H175.281V193.648H178.836ZM173.875 193.648V192.719H170.32V193.648H173.875ZM179.031 197.484V196.609H175.281V197.484H179.031ZM179.031 199.523V198.562H175.281V199.523H179.031ZM197.508 196.961H186.914V200.961C187.893 200.753 189.008 200.417 190.258 199.953L190.359 201.391C188.646 201.979 187.029 202.443 185.508 202.781L185.109 201.602C185.344 201.461 185.461 201.268 185.461 201.023V196.961H183.586V195.633H185.812V189.117H196.562V190.398H187.281V191.328H195.719V192.562H187.281V193.508H195.719V194.688H187.281V195.633H197.508V196.961ZM197.633 201.539L196.945 202.867C195.029 202.414 193.531 201.831 192.453 201.117C191.375 200.404 190.367 199.365 189.43 198L190.68 197.312C191.112 198 191.648 198.667 192.289 199.312C193.445 198.672 194.401 197.995 195.156 197.281L196.242 198.211C195.258 199.049 194.346 199.698 193.508 200.156C194.477 200.755 195.852 201.216 197.633 201.539Z" fill="white"/>
<rect x="102" y="83" width="145" height="60" rx="5" fill="#002154"/>
<path d="M165.617 107.828H161.984V108.555H160.547V107.828H159.016V106.742H160.547V105.898H161.984V106.742H165.617V107.828ZM158.273 107.828H156.789V108.664H155.328V107.828H151.648V106.742H155.328V105.898H156.789V106.742H158.273V107.828ZM165.617 119.656H151.688V118.664H157.938V117.93H152.422V117H157.938V116.328H152.898V112.328H157.938V111.688H151.812V110.695H157.938V110.07C157.24 110.086 156.531 110.094 155.812 110.094C154.865 110.094 153.99 110.081 153.188 110.055L152.914 109.094C155.065 109.12 156.318 109.133 156.672 109.133C159.161 109.133 161.521 108.951 163.75 108.586L164.422 109.531C162.661 109.786 160.977 109.951 159.367 110.023V110.695H165.461V111.688H159.367V112.328H164.422V116.328H159.367V117H164.914V117.93H159.367V118.664H165.617V119.656ZM163.031 113.914V113.258H159.367V113.914H163.031ZM157.938 113.914V113.258H154.289V113.914H157.938ZM163.062 115.414V114.742H159.367V115.414H163.062ZM157.938 115.414V114.742H154.289V115.414H157.938ZM181.555 115.562H180.438V117.594H175.281V118.586C175.281 118.898 175.18 119.161 174.977 119.375C174.779 119.594 174.547 119.724 174.281 119.766C174.021 119.807 173.224 119.828 171.891 119.828L171.461 118.617L173.602 118.57C173.659 118.57 173.719 118.539 173.781 118.477C173.844 118.409 173.875 118.344 173.875 118.281V117.594H168.609V116.523H173.875V115.562H167.633V114.484H173.875V113.609H168.609V112.539H173.875V111.688H168.883V108.695H173.875V107.828H167.766V106.727H173.875V105.828H175.281V106.727H181.367V107.828H175.281V108.695H180.289V111.688H175.281V112.539H180.438V114.484H181.555V115.562ZM178.836 110.648V109.719H175.281V110.648H178.836ZM173.875 110.648V109.719H170.32V110.648H173.875ZM179.031 114.484V113.609H175.281V114.484H179.031ZM179.031 116.523V115.562H175.281V116.523H179.031ZM197.766 108.633L197.203 109.898C195.896 109.576 194.573 109.138 193.234 108.586V109.18H188.008V108.555C186.773 109.102 185.466 109.56 184.086 109.93L183.383 108.773C186.534 107.961 188.859 106.922 190.359 105.656L191.922 106.039C191.812 106.174 191.716 106.276 191.633 106.344C193.117 107.281 195.161 108.044 197.766 108.633ZM192.117 108.07C191.258 107.591 190.734 107.294 190.547 107.18C190.109 107.508 189.609 107.805 189.047 108.07H192.117ZM196.305 113.961H184.883V109.828H196.305V113.961ZM194.898 112.844V110.969H191.281V112.844H194.898ZM194.289 111.719C193.935 112.016 193.487 112.326 192.945 112.648L191.953 111.977C192.578 111.581 193.016 111.292 193.266 111.109L194.289 111.719ZM189.875 112.844V110.969H186.273V112.844H189.875ZM189.172 112.055L188.164 112.695C187.779 112.372 187.336 112.057 186.836 111.75L187.828 111.078C188.156 111.26 188.604 111.586 189.172 112.055ZM195.617 119.781H194.211V119.211H187.047V119.781H185.586V114.664H195.617V119.781ZM194.211 116.406V115.75H187.047V116.406H194.211ZM194.211 118.102V117.398H187.047V118.102H194.211Z" fill="white"/>
<rect x="102" width="145" height="60" rx="5" fill="#002154"/>
<path d="M156.867 35.4688C156.867 36.3698 156.344 36.8203 155.297 36.8203C155.068 36.8203 154.828 36.8073 154.578 36.7812L154.055 35.375C154.247 35.3854 154.656 35.3906 155.281 35.3906C155.432 35.3906 155.508 35.3177 155.508 35.1719V31.3125C155.018 31.9271 154.581 32.4401 154.195 32.8516L153.719 32.0469C153.557 34.2865 153.216 35.8932 152.695 36.8672L151.539 35.9688C152.096 34.7344 152.375 32.9688 152.375 30.6719V23.1016H156.867V35.4688ZM155.508 27.7422V24.4922H153.734V26.3047L154.547 25.7109C154.969 26.4557 155.289 27.1328 155.508 27.7422ZM155.508 29.0547V28.1406L154.562 28.8516C154.422 28.2422 154.146 27.5469 153.734 26.7656V31.25C154.396 30.5573 154.987 29.8255 155.508 29.0547ZM165.523 28.5781H163.25C162.938 28.5781 162.682 28.4661 162.484 28.2422C162.292 28.0182 162.195 27.7604 162.195 27.4688V24.5781H159.969V25.2969C159.969 26.8958 159.453 28.1432 158.422 29.0391L157.25 28.125C158.115 27.4792 158.547 26.5208 158.547 25.25V23.2188H163.586V27.0078C163.586 27.1797 163.672 27.2656 163.844 27.2656H165.523V28.5781ZM165.688 35.6484L164.977 36.8672C163.648 36.5339 162.411 35.9401 161.266 35.0859C160.344 35.7734 159.203 36.3672 157.844 36.8672L157.062 35.6484C158.214 35.3099 159.247 34.8203 160.164 34.1797C159.378 33.3464 158.727 32.2188 158.211 30.7969H157.508V29.4531H164.609V30.7969C163.932 32.2135 163.188 33.3177 162.375 34.1094C163.286 34.7604 164.391 35.2734 165.688 35.6484ZM162.992 30.7969H159.719C160.156 31.8646 160.693 32.6823 161.328 33.25C162.047 32.4479 162.602 31.6302 162.992 30.7969ZM181.617 35.2031L180.93 36.3984C178.414 35.4609 176.531 34.2448 175.281 32.75V36.7812H173.859V32.7656C172.568 34.1979 170.659 35.4245 168.133 36.4453L167.445 35.2031C169.898 34.3125 171.727 33.1849 172.93 31.8203H168.898V26.2578H173.859V25.3281H167.75V24.0312H173.859V22.8281H175.281V24.0312H181.367V25.3281H175.281V26.2578H180.242V31.8203H176.18C177.315 33.0859 179.128 34.2135 181.617 35.2031ZM178.82 28.4922V27.4531H175.281V28.4922H178.82ZM173.859 28.4922V27.4531H170.32V28.4922H173.859ZM178.82 30.6406V29.6484H175.281V30.6406H178.82ZM173.859 30.6406V29.6484H170.32V30.6406H173.859ZM197.766 25.6328L197.203 26.8984C195.896 26.5755 194.573 26.138 193.234 25.5859V26.1797H188.008V25.5547C186.773 26.1016 185.466 26.5599 184.086 26.9297L183.383 25.7734C186.534 24.9609 188.859 23.9219 190.359 22.6562L191.922 23.0391C191.812 23.1745 191.716 23.276 191.633 23.3438C193.117 24.2812 195.161 25.0443 197.766 25.6328ZM192.117 25.0703C191.258 24.5911 190.734 24.2943 190.547 24.1797C190.109 24.5078 189.609 24.8047 189.047 25.0703H192.117ZM196.305 30.9609H184.883V26.8281H196.305V30.9609ZM194.898 29.8438V27.9688H191.281V29.8438H194.898ZM194.289 28.7188C193.935 29.0156 193.487 29.3255 192.945 29.6484L191.953 28.9766C192.578 28.5807 193.016 28.2917 193.266 28.1094L194.289 28.7188ZM189.875 29.8438V27.9688H186.273V29.8438H189.875ZM189.172 29.0547L188.164 29.6953C187.779 29.3724 187.336 29.0573 186.836 28.75L187.828 28.0781C188.156 28.2604 188.604 28.5859 189.172 29.0547ZM195.617 36.7812H194.211V36.2109H187.047V36.7812H185.586V31.6641H195.617V36.7812ZM194.211 33.4062V32.75H187.047V33.4062H194.211ZM194.211 35.1016V34.3984H187.047V35.1016H194.211Z" fill="white"/>
<rect x="102" y="249" width="145" height="60" rx="5" fill="#002154"/>
<path d="M164.82 280.422H157.445V272.891H159.398C159.591 272.568 159.771 272.182 159.938 271.734L161.398 272.008C161.357 272.164 161.221 272.458 160.992 272.891H164.82V280.422ZM163.43 279.195V274.102H158.852V279.195H163.43ZM163.297 277.93L162.516 278.789C162.135 278.388 161.846 278.091 161.648 277.898C161.263 278.388 160.917 278.776 160.609 279.062L159.797 278.344C160.13 278.036 160.471 277.641 160.82 277.156C160.654 276.99 160.531 276.872 160.453 276.805C160.271 277.034 159.997 277.344 159.633 277.734L158.898 276.969C159.117 276.76 159.357 276.495 159.617 276.172C159.451 276.042 159.237 275.885 158.977 275.703L159.703 274.844C159.812 274.906 159.992 275.034 160.242 275.227C160.367 274.997 160.505 274.703 160.656 274.344L161.602 274.844L161.078 275.852C161.281 276.008 161.409 276.115 161.461 276.172C161.727 275.802 161.966 275.346 162.18 274.805L163.109 275.305C162.875 275.883 162.607 276.411 162.305 276.891L163.297 277.93ZM157.141 280.984L155.984 281.492C155.932 281.211 155.875 280.956 155.812 280.727C154.255 281.122 152.953 281.391 151.906 281.531L151.555 280.422C152.404 279.682 153.253 278.583 154.102 277.125C153.326 277.271 152.599 277.372 151.922 277.43L151.75 276.172C152.667 275.078 153.44 273.609 154.07 271.766L155.328 272.344C154.781 273.818 154.143 274.997 153.414 275.883C153.898 275.846 154.393 275.771 154.898 275.656C155.055 275.365 155.354 274.74 155.797 273.781L157.094 274.375C155.865 276.896 154.669 278.768 153.508 279.992C154.076 279.898 154.721 279.745 155.445 279.531C155.393 279.312 155.292 279.029 155.141 278.68L156.227 278.219C156.727 279.438 157.031 280.359 157.141 280.984ZM162.836 282.555L161.688 283.078C161.464 282.344 161.211 281.711 160.93 281.18L162.07 280.742C162.31 281.169 162.565 281.773 162.836 282.555ZM163.75 283.516C163.688 284.203 163.594 284.685 163.469 284.961C163.344 285.237 163.159 285.432 162.914 285.547C162.669 285.661 162.188 285.719 161.469 285.719C161.016 285.719 160.643 285.708 160.352 285.688C160.06 285.667 159.805 285.549 159.586 285.336C159.372 285.128 159.266 284.857 159.266 284.523V281.109H160.625V284.086C160.625 284.253 160.68 284.362 160.789 284.414C160.898 284.466 161.201 284.492 161.695 284.492C161.961 284.492 162.138 284.453 162.227 284.375C162.315 284.297 162.383 284.143 162.43 283.914C162.477 283.685 162.5 283.406 162.5 283.078L163.75 283.516ZM158.898 281.594C158.763 282.974 158.432 284.247 157.906 285.414L156.773 284.789C157.211 283.82 157.531 282.599 157.734 281.125L158.898 281.594ZM165.703 284.312L164.578 285C164.323 283.969 163.93 282.911 163.398 281.828L164.516 281.156C165.161 282.542 165.557 283.594 165.703 284.312ZM156.992 283.852L155.953 284.219C155.87 283.526 155.721 282.773 155.508 281.961L156.5 281.703C156.771 282.469 156.935 283.185 156.992 283.852ZM153.508 282.203C153.372 283.51 153.112 284.714 152.727 285.812L151.508 285.242C151.904 284.138 152.164 282.995 152.289 281.812L153.508 282.203ZM155.414 285.094L154.18 285.336C154.128 283.93 154.021 282.891 153.859 282.219L155.016 281.961C155.245 283.174 155.378 284.219 155.414 285.094ZM173.141 274.375C172.172 276.479 170.997 278.305 169.617 279.852C170.242 279.753 170.846 279.612 171.43 279.43C171.372 279.148 171.281 278.888 171.156 278.648L172.258 278.219C172.633 279.062 172.896 279.974 173.047 280.953L171.938 281.352C171.896 281.128 171.849 280.898 171.797 280.664C170.391 281.018 169.094 281.289 167.906 281.477L167.57 280.312C168.466 279.526 169.352 278.406 170.227 276.953C169.456 277.109 168.703 277.232 167.969 277.32L167.633 276.086C168.617 274.966 169.409 273.51 170.008 271.719L171.352 272.219C170.789 273.646 170.133 274.839 169.383 275.797C169.805 275.755 170.37 275.638 171.078 275.445C171.292 275.091 171.568 274.536 171.906 273.781L173.141 274.375ZM181.312 273.445H173.219V272.086H181.312V273.445ZM178.656 279.398L177.398 279.961C176.846 278.815 176.211 277.747 175.492 276.758C176.107 275.987 176.672 275.044 177.188 273.93L178.5 274.438C178.026 275.318 177.562 276.086 177.109 276.742C177.922 278.034 178.438 278.919 178.656 279.398ZM181.383 279.367L180.117 279.961C179.628 278.951 179.008 277.911 178.258 276.844C178.977 275.802 179.547 274.836 179.969 273.945L181.188 274.484C180.979 275.026 180.542 275.812 179.875 276.844C180.469 277.724 180.971 278.565 181.383 279.367ZM175.906 279.383L174.695 279.93C174.195 278.956 173.56 277.909 172.789 276.789C173.513 275.784 174.083 274.836 174.5 273.945L175.797 274.438C175.521 275.078 175.047 275.872 174.375 276.82C175.146 277.997 175.656 278.852 175.906 279.383ZM181.539 285.492H172.992V284.133H176.578V281.656H173.461V280.312H181.078V281.656H178.023V284.133H181.539V285.492ZM172.977 283.672L171.891 283.945C171.75 283.076 171.612 282.419 171.477 281.977L172.547 281.703C172.729 282.245 172.872 282.901 172.977 283.672ZM169.461 282.172C169.32 283.396 169.06 284.628 168.68 285.867L167.492 285.289C167.904 283.898 168.159 282.763 168.258 281.883L169.461 282.172ZM171.352 285.047L170.117 285.352C170.128 284.654 170.021 283.599 169.797 282.188L170.945 281.914C171.201 283.029 171.336 284.073 171.352 285.047ZM197.523 285.445H188.359V284.148H192.289V282.57H188.914V281.305H192.289V279.93H189.016V272.25H196.914V279.93H193.688V281.305H197.141V282.57H193.688V284.148H197.523V285.445ZM195.523 275.43V273.516H193.688V275.43H195.523ZM192.289 275.43V273.516H190.422V275.43H192.289ZM195.523 278.664V276.586H193.688V278.664H195.523ZM192.289 278.664V276.586H190.422V278.664H192.289ZM188.422 282.391C187.198 283.146 185.714 283.914 183.969 284.695L183.477 283.336C183.862 283.185 184.497 282.896 185.383 282.469V278.484H183.844V277.156H185.383V273.992H183.602V272.711H188.391V273.992H186.758V277.156H188.148V278.484H186.758V281.734C187.305 281.505 187.844 281.224 188.375 280.891L188.422 282.391Z" fill="white"/>
<path d="M253 97L342 97" stroke="#424242" stroke-linecap="round" stroke-linejoin="round"/>
<path d="M253 211L342 211" stroke="#424242" stroke-linecap="round" stroke-linejoin="round"/>
<path d="M313 323L313 338" stroke="#424242" stroke-linecap="round" stroke-linejoin="round"/>
<path d="M220 323L220 338" stroke="#424242" stroke-linecap="round" stroke-linejoin="round"/>
<path d="M128 323L128 338" stroke="#424242" stroke-linecap="round" stroke-linejoin="round"/>
<path d="M36 323L36 338" stroke="#424242" stroke-linecap="round" stroke-linejoin="round"/>
<path d="M83 323L83 484" stroke="#424242" stroke-linecap="round" stroke-linejoin="round"/>
<path d="M266 323L266 484" stroke="#424242" stroke-linecap="round" stroke-linejoin="round"/>
<path d="M313 323L36 323" stroke="#424242" stroke-linecap="round" stroke-linejoin="round"/>
<rect x="261.5" y="77.5" width="89" height="40" rx="4.5" fill="white"/>
<path d="M283.797 95.0361H282.594V93.4229H273.447V95.0361H272.23V92.3428H277.289C277.234 92.1377 277.13 91.8734 276.975 91.5498L278.294 91.3789C278.458 91.748 278.574 92.0693 278.643 92.3428H283.797V95.0361ZM284.159 98.8984L283.729 99.9785C283.396 99.8418 282.961 99.6868 282.423 99.5137V103.684H281.165V103.212H274.931V103.684H273.673V99.7256C273.377 99.8258 272.966 99.9466 272.442 100.088L271.841 99.0352C273.554 98.6478 275.029 98.1077 276.264 97.415H272.258V96.3896H274.808C274.657 96.221 274.42 96.0342 274.097 95.8291L275.115 95.2754C275.512 95.5534 275.833 95.8223 276.079 96.082L275.525 96.3896H277.426V95.0498L274.124 95.1592L273.728 94.127C274.047 94.1361 274.379 94.1406 274.726 94.1406C276.681 94.1406 278.996 93.9993 281.671 93.7168L282.102 94.6807C281.122 94.79 279.973 94.888 278.656 94.9746V96.3896H280.591L279.818 96C280.247 95.6855 280.611 95.3643 280.912 95.0361L281.992 95.5352C281.76 95.804 281.47 96.0889 281.124 96.3896H283.838V97.415H278.759C280.878 97.9072 282.678 98.4017 284.159 98.8984ZM277.426 99.083V97.9619C276.82 98.3538 276.116 98.7275 275.313 99.083H277.426ZM281.165 99.083C280.427 98.8369 279.59 98.5885 278.656 98.3379V99.083H281.165ZM281.165 100.676V100.061H278.656V100.676H281.165ZM277.426 100.676V100.061H274.931V100.676H277.426ZM281.165 102.241V101.599H278.656V102.241H281.165ZM277.426 102.241V101.599H274.931V102.241H277.426ZM291.761 93.8604H285.937V92.7529H288.247C288.097 92.361 287.924 91.9827 287.728 91.6182L289.033 91.3789C289.247 91.7572 289.452 92.2152 289.648 92.7529H291.761V93.8604ZM298.159 96.5742H295.609V103.697H294.338V96.5742H291.843V95.3438H294.338V91.4951H295.609V95.3438H298.159V96.5742ZM291.104 95.9453H286.442V94.8242H291.104V95.9453ZM291.104 97.9619H286.442V96.8545H291.104V97.9619ZM291.132 103.52H289.915V102.815H287.741V103.697H286.511V98.8848H291.132V103.52ZM289.915 101.701V100.033H287.741V101.701H289.915ZM312.146 97.415L311.387 98.3516C310.015 97.6042 308.429 96.9639 306.629 96.4307V97.6406H305.439V95.877C304.136 96.8796 302.507 97.7272 300.552 98.4199L299.854 97.4014C301.778 96.7542 303.323 96.016 304.489 95.1865H300.107V94.0244H305.439V93.2451C304.013 93.318 302.678 93.3545 301.434 93.3545L301.03 92.2061C301.477 92.2152 301.914 92.2197 302.343 92.2197C305.382 92.2197 308.062 91.9668 310.382 91.4609L311.113 92.4727C310.193 92.7005 308.698 92.9238 306.629 93.1426V94.0244H312.009L311.995 95.1865H306.629V95.3438C308.794 95.8952 310.632 96.5856 312.146 97.415ZM312.022 100.047H308.803C308.461 100.589 308.083 101.056 307.668 101.448C309.878 102.059 311.314 102.496 311.975 102.761L311.387 103.827C310.202 103.335 308.584 102.831 306.533 102.316C305.102 103.173 303.01 103.643 300.258 103.725L299.827 102.569C301.828 102.588 303.462 102.367 304.729 101.906C303.74 101.706 302.81 101.549 301.939 101.435C302.281 101.079 302.646 100.617 303.033 100.047H300.053V98.8984H303.771C304.027 98.5111 304.271 98.1009 304.503 97.668L305.774 97.9346C305.624 98.2354 305.437 98.5566 305.214 98.8984H308.058L308.447 98.085L309.568 98.4199C309.541 98.5384 309.477 98.6979 309.377 98.8984H312.022V100.047ZM307.299 100.047H304.503C304.412 100.211 304.248 100.439 304.011 100.73L306.226 101.113C306.576 100.867 306.934 100.512 307.299 100.047ZM324.58 94.5576H315.577V91.8438H324.58V94.5576ZM323.343 93.6211V92.8213H316.862V93.6211H323.343ZM324.888 101.476H318.373L318.838 101.879C317.767 102.649 316.359 103.294 314.613 103.813L313.923 102.815C315.304 102.424 316.425 101.977 317.286 101.476H315.27V95.3574H324.888V101.476ZM323.657 97.1074V96.3213H316.527V97.1074H323.657ZM323.657 98.8027V98.0029H316.527V98.8027H323.657ZM323.657 100.525V99.7119H316.527V100.525H323.657ZM326.255 102.815L325.64 103.854C324.405 103.353 323.042 102.975 321.552 102.72L322.126 101.681C323.698 101.936 325.075 102.314 326.255 102.815ZM340.357 93.9287L339.865 95.0361C338.721 94.7536 337.564 94.3708 336.393 93.8877V94.4072H331.819V93.8604C330.739 94.3389 329.595 94.7399 328.388 95.0635L327.772 94.0518C330.53 93.3408 332.564 92.4316 333.877 91.3242L335.244 91.6592C335.148 91.7777 335.064 91.8665 334.991 91.9258C336.29 92.7461 338.079 93.4137 340.357 93.9287ZM335.415 93.4365C334.663 93.0173 334.205 92.7575 334.041 92.6572C333.658 92.9443 333.221 93.2041 332.729 93.4365H335.415ZM339.079 98.5908H329.085V94.9746H339.079V98.5908ZM337.849 97.6133V95.9727H334.684V97.6133H337.849ZM337.315 96.6289C337.006 96.8887 336.614 97.1598 336.14 97.4424L335.271 96.8545C335.818 96.5081 336.201 96.2552 336.42 96.0957L337.315 96.6289ZM333.453 97.6133V95.9727H330.302V97.6133H333.453ZM332.838 96.9229L331.956 97.4834C331.619 97.2008 331.231 96.9251 330.794 96.6562L331.662 96.0684C331.949 96.2279 332.341 96.5127 332.838 96.9229ZM338.478 103.684H337.247V103.185H330.979V103.684H329.7V99.2061H338.478V103.684ZM337.247 100.73V100.156H330.979V100.73H337.247ZM337.247 102.214V101.599H330.979V102.214H337.247Z" fill="#002154"/>
<rect x="261.5" y="77.5" width="89" height="40" rx="4.5" stroke="#002154"/>
<rect x="261.5" y="134.5" width="89" height="40" rx="4.5" fill="white"/>
<path d="M284.118 150.525H281.165V151.305H279.948V150.525H278.349V149.459H279.948V148.461H281.165V149.459H284.118V150.525ZM278.506 157.437H275.97V160.745H274.767V157.437H271.978V156.329H274.767V155.536H272.285V154.483H273.604C273.39 153.987 273.199 153.581 273.03 153.267H272.319V152.187H274.302C274.256 152.041 274.131 151.774 273.926 151.387L275.156 151.065V150.525H271.923V149.459H275.156V148.495H276.387V149.459H277.761V150.525H276.387V151.291H275.341C275.391 151.4 275.507 151.699 275.689 152.187H278.321V153.267H277.569C277.455 153.54 277.269 153.946 277.009 154.483H278.308V155.536H275.97V156.329H278.506V157.437ZM276.318 153.267H274.377C274.555 153.618 274.721 154.023 274.876 154.483H275.717C275.808 154.369 276.008 153.964 276.318 153.267ZM284.173 156.049H282.929V160.725H281.712V156.049H280.229C280.274 157.99 279.9 159.588 279.107 160.841L278.041 160.212C278.715 159.177 279.053 158.034 279.053 156.78V152.33C280.675 152.18 282.127 151.877 283.407 151.421L284.091 152.412C283.143 152.79 281.855 153.089 280.229 153.308V154.907H284.173V156.049ZM278.137 159.303L277.2 159.843C277.009 159.264 276.729 158.715 276.359 158.195L277.255 157.703C277.683 158.255 277.977 158.788 278.137 159.303ZM274.363 158.223C273.93 159.148 273.424 159.918 272.846 160.533L271.937 159.843C272.479 159.269 272.96 158.56 273.379 157.717L274.363 158.223ZM297.893 160.711H296.833V155.365L296.102 155.673C296.042 154.729 295.903 153.852 295.685 153.041V160.561H294.632V155.283L293.887 155.646C293.841 154.734 293.72 153.898 293.524 153.137V154.935C293.524 156.397 293.429 157.582 293.237 158.489C293.046 159.396 292.704 160.148 292.212 160.745L291.303 160.027C292.055 159.025 292.431 157.466 292.431 155.352L291.624 155.577C291.533 154.579 291.36 153.533 291.104 152.439L291.863 152.187C292.082 152.925 292.271 153.802 292.431 154.818V148.536H293.524V152.439L294.099 152.228C294.276 152.838 294.454 153.725 294.632 154.887V148.728H295.685V152.439L296.272 152.187C296.496 152.916 296.683 153.747 296.833 154.682V148.536H297.893V160.711ZM291.2 150.033H289.58V151.435H290.947V160.711H289.983V159.986H287.201V160.711H286.176V151.435H287.563V150.033H285.95V148.926H291.2V150.033ZM288.753 151.435V150.033H288.377V151.435H288.753ZM289.983 154.723V152.521H289.58V154.524C289.58 154.657 289.639 154.723 289.758 154.723H289.983ZM287.563 152.521H287.201V155.283C287.443 154.659 287.563 153.738 287.563 152.521ZM289.983 158.893V155.789H289.464C289.268 155.789 289.099 155.707 288.958 155.543C288.821 155.379 288.753 155.172 288.753 154.921V152.521H288.377C288.404 154.076 288.197 155.326 287.755 156.274L287.201 155.673V158.893H289.983ZM289.635 157.819H287.577V156.794H289.635V157.819ZM312.146 154.415L311.387 155.352C310.015 154.604 308.429 153.964 306.629 153.431V154.641H305.439V152.877C304.136 153.88 302.507 154.727 300.552 155.42L299.854 154.401C301.778 153.754 303.323 153.016 304.489 152.187H300.107V151.024H305.439V150.245C304.013 150.318 302.678 150.354 301.434 150.354L301.03 149.206C301.477 149.215 301.914 149.22 302.343 149.22C305.382 149.22 308.062 148.967 310.382 148.461L311.113 149.473C310.193 149.701 308.698 149.924 306.629 150.143V151.024H312.009L311.995 152.187H306.629V152.344C308.794 152.895 310.632 153.586 312.146 154.415ZM312.022 157.047H308.803C308.461 157.589 308.083 158.056 307.668 158.448C309.878 159.059 311.314 159.496 311.975 159.761L311.387 160.827C310.202 160.335 308.584 159.831 306.533 159.316C305.102 160.173 303.01 160.643 300.258 160.725L299.827 159.569C301.828 159.588 303.462 159.367 304.729 158.906C303.74 158.706 302.81 158.549 301.939 158.435C302.281 158.079 302.646 157.617 303.033 157.047H300.053V155.898H303.771C304.027 155.511 304.271 155.101 304.503 154.668L305.774 154.935C305.624 155.235 305.437 155.557 305.214 155.898H308.058L308.447 155.085L309.568 155.42C309.541 155.538 309.477 155.698 309.377 155.898H312.022V157.047ZM307.299 157.047H304.503C304.412 157.211 304.248 157.439 304.011 157.73L306.226 158.113C306.576 157.867 306.934 157.512 307.299 157.047ZM324.58 151.558H315.577V148.844H324.58V151.558ZM323.343 150.621V149.821H316.862V150.621H323.343ZM324.888 158.476H318.373L318.838 158.879C317.767 159.649 316.359 160.294 314.613 160.813L313.923 159.815C315.304 159.424 316.425 158.977 317.286 158.476H315.27V152.357H324.888V158.476ZM323.657 154.107V153.321H316.527V154.107H323.657ZM323.657 155.803V155.003H316.527V155.803H323.657ZM323.657 157.525V156.712H316.527V157.525H323.657ZM326.255 159.815L325.64 160.854C324.405 160.353 323.042 159.975 321.552 159.72L322.126 158.681C323.698 158.936 325.075 159.314 326.255 159.815ZM340.357 150.929L339.865 152.036C338.721 151.754 337.564 151.371 336.393 150.888V151.407H331.819V150.86C330.739 151.339 329.595 151.74 328.388 152.063L327.772 151.052C330.53 150.341 332.564 149.432 333.877 148.324L335.244 148.659C335.148 148.778 335.064 148.867 334.991 148.926C336.29 149.746 338.079 150.414 340.357 150.929ZM335.415 150.437C334.663 150.017 334.205 149.757 334.041 149.657C333.658 149.944 333.221 150.204 332.729 150.437H335.415ZM339.079 155.591H329.085V151.975H339.079V155.591ZM337.849 154.613V152.973H334.684V154.613H337.849ZM337.315 153.629C337.006 153.889 336.614 154.16 336.14 154.442L335.271 153.854C335.818 153.508 336.201 153.255 336.42 153.096L337.315 153.629ZM333.453 154.613V152.973H330.302V154.613H333.453ZM332.838 153.923L331.956 154.483C331.619 154.201 331.231 153.925 330.794 153.656L331.662 153.068C331.949 153.228 332.341 153.513 332.838 153.923ZM338.478 160.684H337.247V160.185H330.979V160.684H329.7V156.206H338.478V160.684ZM337.247 157.73V157.156H330.979V157.73H337.247ZM337.247 159.214V158.599H330.979V159.214H337.247Z" fill="#002154"/>
<rect x="261.5" y="134.5" width="89" height="40" rx="4.5" stroke="#002154"/>
<rect x="261.5" y="191.5" width="89" height="40" rx="4.5" fill="white"/>
<path d="M290.852 212.434L289.997 213.274C289.601 212.582 289.311 212.115 289.129 211.873V217.711H287.912V212.044C287.507 213.206 287.049 214.124 286.538 214.799L285.868 213.527C286.62 212.616 287.27 211.431 287.816 209.973H285.937V208.824H287.912V207.061C287.32 207.179 286.825 207.263 286.429 207.313L285.882 206.233C287.381 206.033 288.673 205.721 289.758 205.297L290.373 206.315C289.967 206.479 289.553 206.621 289.129 206.739V208.824H290.154V209.973H289.129V210.267C289.844 211.009 290.419 211.732 290.852 212.434ZM298.228 208.373C298.177 208.669 298.079 208.922 297.934 209.132C297.792 209.337 297.635 209.476 297.462 209.549C297.289 209.622 296.79 209.658 295.965 209.658C295.172 209.658 294.668 209.599 294.454 209.48C294.244 209.357 294.14 209.143 294.14 208.838V207.662H293.456C293.082 208.437 292.463 209.118 291.597 209.706H292.506V210.226H297.407V211.148H292.506V211.524C292.506 211.684 292.579 211.764 292.725 211.764H297.879V212.687H292.239C291.961 212.687 291.733 212.595 291.556 212.413C291.378 212.226 291.289 212.001 291.289 211.736V209.877C291.189 209.941 291.091 209.991 290.995 210.027L290.373 209.022C291.116 208.681 291.699 208.227 292.123 207.662H290.448V206.609H292.643C292.729 206.354 292.818 205.967 292.909 205.447L294.058 205.563C294.03 205.851 293.96 206.199 293.846 206.609H296.061C295.773 206.445 295.4 206.279 294.939 206.11L295.596 205.338C296.042 205.456 296.562 205.705 297.154 206.083L296.662 206.609H298.05V207.662H295.302V208.435C295.302 208.585 295.377 208.658 295.527 208.653L296.662 208.64C296.867 208.64 296.997 208.435 297.052 208.024L298.228 208.373ZM297.53 217.711H296.3V217.335H292.171V217.711H290.961V213.363H297.53V217.711ZM296.3 214.901V214.3H292.171V214.901H296.3ZM296.3 216.398V215.742H292.171V216.398H296.3ZM312.077 208.113H308.434C307.937 209.007 307.335 209.799 306.629 210.492C307.358 210.46 308.101 210.381 308.857 210.253C309.186 209.793 309.475 209.321 309.726 208.838L310.819 209.275C309.584 211.8 307.577 213.703 304.797 214.983L304.065 214.006C305.551 213.327 306.793 212.5 307.791 211.524C306.925 211.634 306.021 211.718 305.077 211.777L304.797 210.772C305.512 210.371 306.248 209.485 307.005 208.113H304.715V206.917H307.709C307.527 206.511 307.283 206.11 306.978 205.714L308.256 205.379C308.52 205.739 308.823 206.252 309.165 206.917H312.077V208.113ZM304.585 211.627L303.635 212.475C303.466 212.028 303.275 211.632 303.061 211.285V217.697H301.857V211.641C301.493 212.652 301.026 213.534 300.456 214.286L299.8 212.939C300.561 212.01 301.229 210.754 301.803 209.173H299.964V207.997H301.857V205.522H303.061V207.997H304.264V209.173H303.061V209.412C303.667 210.137 304.175 210.875 304.585 211.627ZM312.228 216.959L311.346 217.772C310.507 216.879 309.612 216.109 308.659 215.462C307.342 216.455 305.929 217.21 304.421 217.725L303.689 216.679C306.993 215.676 309.416 213.757 310.956 210.923L312.05 211.442C311.343 212.632 310.507 213.71 309.541 214.676C310.48 215.346 311.375 216.107 312.228 216.959ZM325.811 209.316H324.58V207.662H315.536V209.371H314.285V206.541H319.357C319.139 206.176 318.947 205.882 318.783 205.659L320.041 205.352C320.228 205.63 320.472 206.026 320.772 206.541H325.811V209.316ZM326.159 217.321H313.991V216.228H319.439V214.929H314.805V213.821H319.439V212.687C318.305 212.769 316.91 212.803 315.256 212.789L315.017 211.736C315.996 211.481 317.013 210.823 318.065 209.761H315.953V208.667H324.143V209.761H319.788C318.981 210.604 318.202 211.244 317.45 211.682C318.822 211.673 320.522 211.556 322.55 211.333C322.422 211.21 322.11 210.98 321.613 210.643L322.577 209.959C323.953 210.852 324.974 211.668 325.64 212.406L324.744 213.233C324.452 212.914 324.127 212.598 323.767 212.283C322.764 212.388 321.741 212.481 320.697 212.563V213.821H325.387V214.929H320.697V216.228H326.159V217.321Z" fill="#002154"/>
<rect x="261.5" y="191.5" width="89" height="40" rx="4.5" stroke="#002154"/>
<rect x="0.5" y="175.5" width="89" height="40" rx="4.5" fill="white"/>
<path d="M30.2275 191.225H27.0488V191.86H25.791V191.225H24.4512V190.274H25.791V189.536H27.0488V190.274H30.2275V191.225ZM23.8018 191.225H22.5029V191.956H21.2246V191.225H18.0049V190.274H21.2246V189.536H22.5029V190.274H23.8018V191.225ZM30.2275 201.574H18.0391V200.706H23.5078V200.063H18.6816V199.25H23.5078V198.662H19.0986V195.162H23.5078V194.602H18.1484V193.733H23.5078V193.187C22.8971 193.2 22.2773 193.207 21.6484 193.207C20.819 193.207 20.0534 193.196 19.3516 193.173L19.1123 192.332C20.9945 192.355 22.0905 192.366 22.4004 192.366C24.5788 192.366 26.6432 192.207 28.5938 191.888L29.1816 192.715C27.6413 192.938 26.167 193.082 24.7588 193.146V193.733H30.0908V194.602H24.7588V195.162H29.1816V198.662H24.7588V199.25H29.6123V200.063H24.7588V200.706H30.2275V201.574ZM27.9648 196.55V195.976H24.7588V196.55H27.9648ZM23.5078 196.55V195.976H20.3154V196.55H23.5078ZM27.9922 197.862V197.274H24.7588V197.862H27.9922ZM23.5078 197.862V197.274H20.3154V197.862H23.5078ZM44.1729 197.992H43.1953V199.77H38.6836V200.638C38.6836 200.911 38.5947 201.141 38.417 201.328C38.2438 201.52 38.041 201.633 37.8086 201.67C37.5807 201.706 36.8835 201.725 35.7168 201.725L35.3408 200.665L37.2139 200.624C37.264 200.624 37.3164 200.597 37.3711 200.542C37.4258 200.483 37.4531 200.426 37.4531 200.371V199.77H32.8457V198.833H37.4531V197.992H31.9912V197.049H37.4531V196.283H32.8457V195.347H37.4531V194.602H33.085V191.983H37.4531V191.225H32.1074V190.261H37.4531V189.475H38.6836V190.261H44.0088V191.225H38.6836V191.983H43.0654V194.602H38.6836V195.347H43.1953V197.049H44.1729V197.992ZM41.7939 193.692V192.879H38.6836V193.692H41.7939ZM37.4531 193.692V192.879H34.3428V193.692H37.4531ZM41.9648 197.049V196.283H38.6836V197.049H41.9648ZM41.9648 198.833V197.992H38.6836V198.833H41.9648ZM58.1318 196.591H48.8623V200.091C49.7191 199.909 50.6943 199.615 51.7881 199.209L51.877 200.467C50.3776 200.982 48.9626 201.387 47.6318 201.684L47.2832 200.651C47.4883 200.528 47.5908 200.36 47.5908 200.146V196.591H45.9502V195.429H47.8984V189.728H57.3047V190.849H49.1836V191.662H56.5664V192.742H49.1836V193.569H56.5664V194.602H49.1836V195.429H58.1318V196.591ZM58.2412 200.597L57.6396 201.759C55.9626 201.362 54.6523 200.852 53.709 200.228C52.7656 199.603 51.8838 198.694 51.0635 197.5L52.1572 196.898C52.5355 197.5 53.0049 198.083 53.5654 198.648C54.5771 198.088 55.4134 197.495 56.0742 196.871L57.0244 197.685C56.1631 198.418 55.3656 198.986 54.6318 199.387C55.4795 199.911 56.6826 200.314 58.2412 200.597ZM71.8105 193.316H70.5801V191.662H61.5361V193.371H60.2852V190.541H65.3574C65.1387 190.176 64.9473 189.882 64.7832 189.659L66.041 189.352C66.2279 189.63 66.4717 190.026 66.7725 190.541H71.8105V193.316ZM72.1592 201.321H59.9912V200.228H65.4395V198.929H60.8047V197.821H65.4395V196.687C64.3047 196.769 62.9102 196.803 61.2559 196.789L61.0166 195.736C61.9964 195.481 63.0127 194.823 64.0654 193.761H61.9531V192.667H70.1426V193.761H65.7881C64.9814 194.604 64.2021 195.244 63.4502 195.682C64.8219 195.673 66.5218 195.556 68.5498 195.333C68.4222 195.21 68.11 194.98 67.6133 194.643L68.5771 193.959C69.9535 194.852 70.9743 195.668 71.6396 196.406L70.7441 197.233C70.4525 196.914 70.1266 196.598 69.7666 196.283C68.764 196.388 67.7409 196.481 66.6973 196.563V197.821H71.3867V198.929H66.6973V200.228H72.1592V201.321Z" fill="#002154"/>
<rect x="0.5" y="175.5" width="89" height="40" rx="4.5" stroke="#002154"/>
<rect x="1.5" y="338.5" width="72" height="118" rx="4.5" fill="white"/>
<path d="M2 343C2 340.239 4.23858 338 7 338H68C70.7614 338 73 340.239 73 343V373H2V343Z" fill="#002154"/>
<path d="M21.2578 349.562C20.487 349.979 19.6458 350.32 18.7344 350.586L18.6875 350.719C19.625 351.083 20.4766 351.497 21.2422 351.961L20.5234 352.953C19.862 352.531 19.0677 352.133 18.1406 351.758C17.526 352.388 16.6979 352.836 15.6562 353.102L14.9219 351.93C15.9844 351.727 16.7214 351.396 17.1328 350.938C17.5495 350.474 17.7578 349.599 17.7578 348.312H19.0703C19.0495 348.724 19.0208 349.06 18.9844 349.32C19.5625 349.133 20.0911 348.893 20.5703 348.602L21.2578 349.562ZM28.3516 352.141L27.5938 353.148C26.8646 352.716 25.9219 352.284 24.7656 351.852C24.1042 352.503 23.2031 352.919 22.0625 353.102L21.5 351.93C22.6198 351.747 23.3698 351.438 23.75 351C24.1354 350.557 24.3281 349.68 24.3281 348.367L25.625 348.398C25.6406 348.638 25.625 348.979 25.5781 349.422C26.125 349.245 26.7135 348.956 27.3438 348.555L28.0625 349.5C27.026 350.089 26.1354 350.484 25.3906 350.688L25.3047 350.828C26.4714 351.219 27.487 351.656 28.3516 352.141ZM17.1797 350.352L16.0938 350.922C15.8125 350.297 15.4427 349.716 14.9844 349.18L16.0625 348.586C16.5469 349.169 16.9193 349.758 17.1797 350.352ZM23.7891 350.477L22.6719 350.984C22.4583 350.365 22.138 349.763 21.7109 349.18L22.8281 348.688C23.25 349.25 23.5703 349.846 23.7891 350.477ZM28.2656 355.711H26.8438V354.477H16.1562V355.711H14.7812V353.289H28.2656V355.711ZM27.5156 362.328H26.125V361.836H16.8906V362.328H15.4844V358.586H20.1562C20.2969 358.383 20.4193 358.154 20.5234 357.898H16.8906V355.164H25.9609V357.898H22.1719C22.0729 358.133 21.9505 358.362 21.8047 358.586H27.5156V362.328ZM24.6328 356.859V356.219H18.2344V356.859H24.6328ZM26.125 360.766V359.68H16.8906V360.766H26.125ZM44.5547 350.445H39.625C39.3802 350.82 39.0781 351.198 38.7188 351.578L37.4219 350.891C38.3021 349.958 38.9245 349.052 39.2891 348.172L40.7344 348.586C40.599 348.862 40.4818 349.081 40.3828 349.242H44.5547V350.445ZM37.4219 350.445H33.1953C32.7109 351.003 32.1198 351.552 31.4219 352.094L30.4922 350.938C31.7214 350.115 32.5312 349.208 32.9219 348.219L34.3672 348.602C34.2943 348.799 34.1875 349.013 34.0469 349.242H37.4219V350.445ZM35.9453 351.82L34.3828 352.109C34.2422 351.807 34.0182 351.432 33.7109 350.984L35.2266 350.672C35.4245 350.906 35.6641 351.289 35.9453 351.82ZM42.4141 351.914L40.875 352.156C40.75 351.786 40.5469 351.37 40.2656 350.906L41.8203 350.734C42.0286 351.073 42.2266 351.466 42.4141 351.914ZM44.1562 355.195H42.75V353.656H32.3672V355.195H30.9531V352.477H36.7188C36.6615 352.326 36.5312 352.086 36.3281 351.758L37.9609 351.5C38.1068 351.714 38.2786 352.039 38.4766 352.477H44.1562V355.195ZM42.7031 361.641H34.2031V362.281H32.8125V354.461H42.1719V357.516H34.2031V358.367H42.7031V361.641ZM40.75 356.477V355.547H34.2031V356.477H40.75ZM41.2734 360.555V359.438H34.2031V360.555H41.2734ZM60.1406 352.719H58.7344V350.828H48.3984V352.781H46.9688V349.547H52.7656C52.5156 349.13 52.2969 348.794 52.1094 348.539L53.5469 348.188C53.7604 348.505 54.0391 348.958 54.3828 349.547H60.1406V352.719ZM60.5391 361.867H46.6328V360.617H52.8594V359.133H47.5625V357.867H52.8594V356.57C51.5625 356.664 49.9688 356.703 48.0781 356.688L47.8047 355.484C48.9245 355.193 50.0859 354.44 51.2891 353.227H48.875V351.977H58.2344V353.227H53.2578C52.3359 354.19 51.4453 354.922 50.5859 355.422C52.1536 355.411 54.0964 355.279 56.4141 355.023C56.2682 354.883 55.9115 354.62 55.3438 354.234L56.4453 353.453C58.0182 354.474 59.1849 355.406 59.9453 356.25L58.9219 357.195C58.5885 356.831 58.2161 356.469 57.8047 356.109C56.6589 356.229 55.4896 356.336 54.2969 356.43V357.867H59.6562V359.133H54.2969V360.617H60.5391V361.867Z" fill="white"/>
<path d="M22.6045 384.184H18.8516L19.3984 384.635C19.2116 385.159 18.9541 385.724 18.626 386.33H21.75V393.679C21.75 393.975 21.6497 394.223 21.4492 394.424C21.2487 394.624 20.8158 394.725 20.1504 394.725C19.9727 394.725 19.7721 394.715 19.5488 394.697L19.3027 393.973L20.7109 393.945C20.9297 393.945 21.0391 393.834 21.0391 393.61V387H18.2227V388.23C18.2227 388.463 18.348 388.579 18.5986 388.579H20.4033V389.242H18.332C18.1361 389.242 17.9469 389.169 17.7646 389.023C17.5824 388.873 17.4912 388.707 17.4912 388.524V387H15.6045C15.5589 387.693 15.2969 388.299 14.8184 388.818C14.3444 389.333 13.7292 389.684 12.9727 389.871L12.624 389.201C14.0231 388.864 14.7682 388.13 14.8594 387H12.0771V394.711H11.3457V386.33H14.3877C14.1553 385.656 13.9023 385.086 13.6289 384.621L14.0801 384.184H10.4775V383.5H16.1787C16.0648 383.195 15.9098 382.869 15.7139 382.522L16.459 382.311C16.6777 382.707 16.8418 383.104 16.9512 383.5H22.6045V384.184ZM18.7285 384.184H14.2988C14.6771 385.045 14.9665 385.76 15.167 386.33H17.8604C18.1794 385.688 18.4688 384.972 18.7285 384.184ZM19.3711 393.104H13.7588V390.179H19.3711V393.104ZM18.6123 392.421V390.849H14.4834V392.421H18.6123ZM34.8682 386.973H26.624V382.816H34.8682V386.973ZM34.1367 386.275V383.527H27.3623V386.275H34.1367ZM35.9893 394.697H35.2441V393.706H32.127V394.697H31.3818V388.565H35.9893V394.697ZM35.2441 392.995V389.297H32.127V392.995H35.2441ZM29.7275 394.697H29.0029V393.706H25.9062V394.697H25.1543V388.565H29.7275V394.697ZM28.9893 392.995V389.297H25.9062V392.995H28.9893ZM44.4453 384.088H40.5215C40.0612 384.662 39.5485 385.188 38.9834 385.667L38.4229 385.223C39.4163 384.411 40.1911 383.459 40.7471 382.365L41.4307 382.646C41.3304 382.86 41.1777 383.131 40.9727 383.459H44.4453V384.088ZM50.6318 384.102H46.1543C45.849 384.471 45.4935 384.835 45.0879 385.195L44.5137 384.785C45.5208 383.819 46.1611 383.021 46.4346 382.393L47.1182 382.659C47.0042 382.896 46.8493 383.158 46.6533 383.445H50.6318V384.102ZM48.5879 385.558L47.9727 385.797C47.6536 385.191 47.4144 384.785 47.2549 384.58L47.918 384.341C48.2005 384.756 48.4238 385.161 48.5879 385.558ZM42.9893 385.476L42.3467 385.756C42.1781 385.419 41.916 385.031 41.5605 384.594L42.1895 384.341C42.5267 384.728 42.7933 385.106 42.9893 385.476ZM50.2969 388.777H49.5928V386.829H39.5439V388.764H38.833V386.159H44.1104C44.0648 385.968 43.9531 385.71 43.7754 385.387L44.4043 385.154C44.5957 385.46 44.7438 385.795 44.8486 386.159H50.2969V388.777ZM49.0254 394.096H41.1572V394.67H40.4258V387.882H48.6152V390.288H41.1572V391.396H49.0254V394.096ZM47.8906 389.618V388.538H41.1572V389.618H47.8906ZM48.3076 393.426V392.065H41.1572V393.426H48.3076ZM64.6592 394.431H56.5928V393.747H60.25V391.744H57.126V391.047H60.25V389.324H57.2422V382.816H64.0166V389.324H60.9609V391.047H64.1807V391.744H60.9609V393.747H64.6592V394.431ZM63.2988 385.701V383.5H60.9609V385.701H63.2988ZM60.25 385.701V383.5H57.9531V385.701H60.25ZM63.2988 388.613V386.385H60.9609V388.613H63.2988ZM60.25 388.613V386.385H57.9531V388.613H60.25ZM56.6133 391.382C55.6016 391.961 54.2799 392.66 52.6484 393.48L52.3408 392.865C53.1976 392.455 53.847 392.12 54.2891 391.86V387.991H52.6621V387.308H54.2891V384.102H52.4365V383.445H56.6133V384.102H54.9863V387.308H56.4424V387.991H54.9863V391.478C55.4648 391.241 55.973 390.956 56.5107 390.623L56.6133 391.382ZM36.6318 405.771H33.665V407.973H36.3379V408.656H30.2471V407.973H32.9199V405.771H29.9258V405.102H32.9199V403.495H33.6514V405.102H36.6318V405.771ZM29.2832 409.654H28.5654V407.467H26.9043C26.6354 408.656 26.125 409.493 25.373 409.976L24.833 409.456C25.5212 409.046 25.9632 408.383 26.1592 407.467H24.5049V406.797H28.5654V405.771H25.5029V403.816H26.2412V405.088H28.5654V403.509H29.2832V409.654ZM36.6318 410.939H30.3428C29.8369 411.55 29.1898 412.102 28.4014 412.594V414.843C29.3174 414.651 30.2357 414.396 31.1562 414.077L31.4092 414.692C30.0511 415.162 28.8047 415.506 27.6699 415.725L27.3896 415.096C27.5856 415.009 27.6836 414.893 27.6836 414.747V412.956C26.8268 413.439 25.8721 413.826 24.8193 414.118L24.4092 413.462C26.6012 412.879 28.2487 412.038 29.3516 410.939H24.4912V410.242H30.459C30.3314 409.914 30.1855 409.634 30.0215 409.401L30.7529 409.176C30.9215 409.472 31.0993 409.827 31.2861 410.242H36.6318V410.939ZM36.7139 415.123L36.2969 415.8C33.7266 414.843 32.0563 413.578 31.2861 412.006L31.9424 411.712C32.307 412.345 32.7308 412.872 33.2139 413.291C33.9476 412.949 34.6859 412.432 35.4287 411.739L35.9482 412.211C35.4469 412.717 34.7451 413.232 33.8428 413.756C34.5765 414.298 35.5335 414.754 36.7139 415.123ZM41.6426 405.717L41.1094 406.277C40.5443 405.516 39.8083 404.76 38.9014 404.008L39.4072 403.461C40.223 404.14 40.9681 404.892 41.6426 405.717ZM50.085 405.313H48.6152V407.091H43.5361V405.313H41.9502V404.623H43.5361V403.475H44.2471V404.623H47.9043V403.475H48.6152V404.623H50.085V405.313ZM47.9043 406.421V405.313H44.2471V406.421H47.9043ZM41.3213 408.978L40.8291 409.538C40.2275 408.9 39.4163 408.262 38.3955 407.624L38.8877 407.05C39.6989 407.528 40.5101 408.171 41.3213 408.978ZM50.6592 408.629H41.5059V407.945H50.6592V408.629ZM49.7773 413.53H42.3193V409.511H49.7773V413.53ZM49.0938 411.179V410.153H46.373V411.179H49.0938ZM45.6758 411.179V410.153H42.9893V411.179H45.6758ZM49.0938 412.888V411.821H46.373V412.888H49.0938ZM45.6758 412.888V411.821H42.9893V412.888H45.6758ZM41.3896 411.288C40.6924 413.024 39.8721 414.499 38.9287 415.711L38.3818 415.226C39.234 414.127 40.0407 412.676 40.8018 410.871L41.3896 411.288ZM50.6318 415.171L50.2148 415.786C49.0892 415.166 47.9453 414.681 46.7832 414.33L47.2549 413.729C48.5902 414.175 49.7158 414.656 50.6318 415.171ZM45.1836 414.214C44.1901 414.825 43.0439 415.328 41.7451 415.725L41.3076 415.109C42.529 414.722 43.6068 414.271 44.541 413.756L45.1836 414.214ZM15.2832 432.363L14.6406 432.609C14.5905 432.345 14.5426 432.131 14.4971 431.967C13.1162 432.35 11.8652 432.644 10.7441 432.849L10.4912 432.247C11.5622 431.285 12.4919 430.167 13.2803 428.891C12.5055 429.036 11.6738 429.171 10.7852 429.294L10.6211 428.651C11.6602 427.439 12.4714 426.042 13.0547 424.461L13.7451 424.646C13.2848 425.908 12.5876 427.191 11.6533 428.494C12.2321 428.426 12.918 428.319 13.7109 428.173C14.0026 427.735 14.3034 427.195 14.6133 426.553L15.2969 426.819C14.1348 428.975 12.959 430.682 11.7695 431.939C12.5853 431.78 13.4193 431.579 14.2715 431.338C14.194 431.055 14.0596 430.729 13.8682 430.36L14.5107 430.107C14.9163 430.996 15.1738 431.748 15.2832 432.363ZM22.4609 425.541H15.4199V424.844H22.4609V425.541ZM17.6211 431.311L17.0059 431.604C16.4772 430.588 15.8939 429.679 15.2559 428.877C15.9167 427.929 16.4339 427.07 16.8076 426.3L17.4639 426.553C17.0537 427.405 16.5934 428.18 16.083 428.877C16.6572 429.611 17.1699 430.422 17.6211 431.311ZM22.5908 431.256L21.9756 431.591C21.5107 430.707 20.9365 429.834 20.2529 428.973C20.8727 428.075 21.3763 427.211 21.7637 426.382L22.4473 426.635C22.0098 427.487 21.5632 428.248 21.1074 428.918C21.7637 429.843 22.2581 430.622 22.5908 431.256ZM20.1094 431.229L19.4941 431.577C19.0247 430.675 18.4596 429.793 17.7988 428.932C18.4551 427.984 18.9473 427.147 19.2754 426.423L19.9863 426.648C19.6035 427.396 19.141 428.152 18.5986 428.918C19.1683 429.679 19.6719 430.449 20.1094 431.229ZM22.6318 436.403H15.4062V435.706H18.6396V432.849H15.7891V432.138H22.2832V432.849H19.3848V435.706H22.6318V436.403ZM15.6045 435.05L14.9893 435.289C14.8389 434.574 14.6383 433.91 14.3877 433.3L14.9756 433.061C15.2581 433.694 15.4678 434.357 15.6045 435.05ZM11.9951 433.382C11.7673 434.672 11.4619 435.736 11.0791 436.574L10.4365 436.253C10.7692 435.474 11.0677 434.464 11.332 433.225L11.9951 433.382ZM13.7109 436.185L13.0273 436.321C13.041 435.424 12.9521 434.444 12.7607 433.382L13.3896 433.259C13.6403 434.425 13.7474 435.401 13.7109 436.185ZM36.2012 428.104L35.8184 428.733C34.9023 428.182 34.0592 427.763 33.2891 427.476C32.7103 428.009 31.9059 428.414 30.876 428.692L30.4727 428.077C31.5938 427.804 32.3503 427.446 32.7422 427.004C33.1387 426.557 33.321 425.714 33.2891 424.475H33.9863C33.9863 424.812 33.9635 425.252 33.918 425.794C34.6152 425.493 35.2168 425.154 35.7227 424.775L36.1533 425.302C35.5381 425.735 34.7497 426.147 33.7881 426.539C33.7562 426.667 33.7106 426.792 33.6514 426.915C34.4215 427.211 35.2715 427.608 36.2012 428.104ZM30.3154 425.418C29.6911 425.828 28.9163 426.211 27.9912 426.566L27.9092 426.86C28.8799 427.325 29.6318 427.717 30.165 428.036L29.7549 428.638C29.3447 428.351 28.627 427.945 27.6016 427.421C27.0137 428.059 26.3096 428.487 25.4893 428.706L25.0654 428.118C25.7217 427.954 26.2503 427.713 26.6514 427.394C27.0524 427.075 27.2985 426.678 27.3896 426.204C27.4854 425.726 27.5332 425.149 27.5332 424.475H28.2168C28.1986 425.058 28.1758 425.489 28.1484 425.767C28.6543 425.589 29.2331 425.299 29.8848 424.898L30.3154 425.418ZM32.4072 426.464L31.7715 426.758C31.5892 426.361 31.2679 425.858 30.8076 425.247L31.3818 424.898C31.8102 425.386 32.152 425.908 32.4072 426.464ZM26.665 426.58L26.0498 426.915C25.7035 426.295 25.3434 425.778 24.9697 425.363L25.5576 424.967C26.0726 425.605 26.4417 426.143 26.665 426.58ZM36.2285 430.907H35.4834V429.629H25.5986V430.887H24.9014V428.973H36.2285V430.907ZM35.6406 436.711H34.9092V436.185H26.1865V436.697H25.4756V433.607H29.6318C29.8232 433.243 29.9577 432.931 30.0352 432.671H26.624V430.47H34.4922V432.671H30.8486C30.6846 433.049 30.5456 433.361 30.4316 433.607H35.6406V436.711ZM33.7607 432.008V431.14H27.3486V432.008H33.7607ZM34.9092 435.521V434.291H26.1865V435.521H34.9092ZM43.3789 424.755C42.2578 427.325 40.7699 429.248 38.915 430.524L38.4092 429.95C40.2093 428.747 41.6198 426.942 42.6406 424.536L43.3789 424.755ZM50.7275 429.854L50.2285 430.483C48.3828 429.171 47.1022 427.453 46.3867 425.329H45.3408V424.577H46.9062C47.6035 426.901 48.8773 428.66 50.7275 429.854ZM48.4648 429.67C48.4421 431.169 48.3532 432.516 48.1982 433.71C48.0433 434.904 47.8906 435.645 47.7402 435.932C47.5898 436.219 47.3802 436.424 47.1113 436.547C46.847 436.67 46.3844 436.731 45.7236 436.731C45.4365 436.731 45.0651 436.72 44.6094 436.697L44.4453 435.945C44.9557 435.991 45.4274 436.014 45.8604 436.014C46.2796 436.014 46.5485 435.986 46.667 435.932C46.79 435.877 46.8949 435.799 46.9814 435.699C47.0726 435.594 47.1729 435.289 47.2822 434.783C47.3916 434.273 47.4782 433.644 47.542 432.896C47.6104 432.145 47.6559 431.317 47.6787 430.415H44.083C43.7686 433.163 42.2282 435.323 39.4619 436.896L39.0107 436.308C41.5765 434.868 43.0007 432.903 43.2832 430.415H40.6377V429.67H48.4648ZM57.8438 431.003L57.3516 431.591C56.873 430.912 56.3079 430.276 55.6562 429.684V436.697H54.9316V429.335C54.3255 430.752 53.5827 432.026 52.7031 433.156L52.3271 432.418C53.2477 431.265 54.0977 429.72 54.877 427.783H52.5938V427.065H54.9316V424.475H55.6562V427.065H57.6865V427.783H55.6562V428.747C56.6042 429.59 57.3333 430.342 57.8438 431.003ZM64.6455 429.67H62.4512V436.725H61.7061V429.67H59.0332C58.9421 431.447 58.7438 432.855 58.4385 433.895C58.1377 434.929 57.682 435.897 57.0713 436.8L56.4834 436.308C57.6956 434.585 58.3018 432.233 58.3018 429.253V425.89C60.6442 425.653 62.5173 425.211 63.9209 424.563L64.4199 425.165C63.0391 425.753 61.2435 426.2 59.0332 426.505V428.959H64.6455V429.67Z" fill="#424242"/>
<rect x="1.5" y="338.5" width="72" height="118" rx="4.5" stroke="#002154"/>
<rect x="93.5" y="338.5" width="72" height="118" rx="4.5" fill="white"/>
<path d="M93 343C93 340.239 95.2386 338 98 338H161C163.761 338 166 340.239 166 343V373H93V343Z" fill="#002154"/>
<path d="M111.422 348.844C110.255 350.401 108.831 351.669 107.148 352.648L106.461 351.273C107.732 350.612 108.922 349.589 110.031 348.203L111.422 348.844ZM120.109 350.203H112.062V348.812H120.109V350.203ZM111.758 351.805C111.263 352.643 110.734 353.432 110.172 354.172V362.312H108.688V355.883C108.115 356.451 107.581 356.893 107.086 357.211L106.461 355.789C107.815 354.904 109.122 353.388 110.383 351.242L111.758 351.805ZM120.508 354.25H118.352V360.734C118.352 361.797 117.773 362.328 116.617 362.328C115.878 362.328 115.154 362.312 114.445 362.281L113.914 360.828C114.362 360.839 115.19 360.844 116.398 360.844C116.503 360.844 116.602 360.802 116.695 360.719C116.794 360.63 116.844 360.523 116.844 360.398V354.25H111.625V352.844H120.508V354.25ZM128.555 351.18L127.656 352.25C127.021 351.484 126.328 350.792 125.578 350.172C125.203 350.802 124.766 351.432 124.266 352.062H127.18V353.359H126.047V354.555H128.031V355.852H126.047V359.977C126.719 359.815 127.32 359.641 127.852 359.453L127.945 360.719C126.076 361.349 124.38 361.828 122.859 362.156L122.492 360.875C123.414 360.698 124.146 360.534 124.688 360.383V355.852H122.766V354.555H124.688V353.359H123.695V352.688C123.513 352.839 123.336 352.977 123.164 353.102L122.352 351.914C123.43 351.06 124.336 349.828 125.07 348.219L126.398 348.586C126.357 348.747 126.286 348.893 126.188 349.023C127.156 349.784 127.945 350.503 128.555 351.18ZM136.156 360.984C136.156 361.312 136.047 361.604 135.828 361.859C135.615 362.115 135.294 362.255 134.867 362.281C134.445 362.312 134.112 362.328 133.867 362.328C133.622 362.328 133.388 362.318 133.164 362.297L132.75 360.938C132.943 360.958 133.159 360.969 133.398 360.969C134.049 360.969 134.44 360.935 134.57 360.867C134.701 360.794 134.766 360.674 134.766 360.508V358.586C133.427 359.122 132.055 359.591 130.648 359.992L130.188 358.953C130.078 360.25 129.651 361.451 128.906 362.555L127.742 361.531C128.487 360.599 128.859 359.372 128.859 357.852V353.102H131.758V348.367H133.195V353.102H136.156V360.984ZM134.766 357.289V354.414H130.25V355.227C131.854 355.424 133.081 355.659 133.93 355.93L133.531 357.18C132.422 356.815 131.339 356.565 130.281 356.43C130.255 357.492 130.229 358.271 130.203 358.766C131.604 358.453 133.125 357.961 134.766 357.289ZM136.602 349.391C136.273 350.365 135.768 351.451 135.086 352.648L133.852 351.961C134.43 350.987 134.909 349.964 135.289 348.891L136.602 349.391ZM131.07 351.992L129.867 352.633C129.367 351.44 128.812 350.401 128.203 349.516L129.438 348.891C130.151 349.953 130.695 350.987 131.07 351.992ZM128.016 356.508C127.974 357.352 127.833 358.279 127.594 359.289L126.461 359.008C126.674 358.294 126.807 357.37 126.859 356.234L128.016 356.508ZM124.312 359.594L123.133 359.867C123.049 358.82 122.883 357.742 122.633 356.633L123.789 356.352C124.065 357.471 124.24 358.552 124.312 359.594ZM152.141 352.719H150.734V350.828H140.398V352.781H138.969V349.547H144.766C144.516 349.13 144.297 348.794 144.109 348.539L145.547 348.188C145.76 348.505 146.039 348.958 146.383 349.547H152.141V352.719ZM152.539 361.867H138.633V360.617H144.859V359.133H139.562V357.867H144.859V356.57C143.562 356.664 141.969 356.703 140.078 356.688L139.805 355.484C140.924 355.193 142.086 354.44 143.289 353.227H140.875V351.977H150.234V353.227H145.258C144.336 354.19 143.445 354.922 142.586 355.422C144.154 355.411 146.096 355.279 148.414 355.023C148.268 354.883 147.911 354.62 147.344 354.234L148.445 353.453C150.018 354.474 151.185 355.406 151.945 356.25L150.922 357.195C150.589 356.831 150.216 356.469 149.805 356.109C148.659 356.229 147.49 356.336 146.297 356.43V357.867H151.656V359.133H146.297V360.617H152.539V361.867Z" fill="white"/>
<path d="M114.577 386.692L114.181 387.349C111.51 386.173 109.612 384.89 108.486 383.5C107.379 385.013 105.456 386.296 102.717 387.349L102.341 386.651C104.738 385.804 106.479 384.735 107.563 383.445H106.203V382.728H108.862C109.892 384.241 111.797 385.562 114.577 386.692ZM114.242 394.403H102.689V393.706H108.11V391.02H104.255V390.315H108.11V387.725H104.275V387.041H112.656V387.725H108.835V390.315H112.643V391.02H108.835V393.706H114.242V394.403ZM128.017 394.725H127.319V393.747H117.824V394.697H117.093V382.755H128.017V394.725ZM127.319 393.05V383.445H117.824V393.05H127.319ZM125.932 384.833L125.316 385.127C125.125 384.794 124.886 384.475 124.599 384.17L125.2 383.835C125.506 384.145 125.749 384.478 125.932 384.833ZM126.854 390.527C126.736 391.02 126.581 391.448 126.39 391.812C126.198 392.173 126.041 392.396 125.918 392.482C125.799 392.564 125.635 392.605 125.426 392.605C124.997 392.605 124.564 392.122 124.127 391.156C123.658 391.712 123.147 392.202 122.596 392.626L122.035 392.127C122.623 391.74 123.206 391.165 123.785 390.404C123.329 389.087 123.051 387.622 122.951 386.009H118.398V385.346H122.89C122.867 384.908 122.862 384.418 122.876 383.876H123.58C123.566 384.277 123.576 384.767 123.607 385.346H126.697V386.009H123.635C123.749 387.517 123.958 388.743 124.264 389.687C124.774 388.875 125.237 387.927 125.651 386.843L126.294 387.123C125.825 388.326 125.25 389.447 124.571 390.486C124.726 390.883 124.888 391.206 125.057 391.457C125.225 391.708 125.344 391.833 125.412 391.833C125.631 391.833 125.902 391.277 126.226 390.165L126.854 390.527ZM122.083 389.816H119.041V387.109H122.083V389.816ZM121.379 389.112V387.786H119.745V389.112H121.379ZM122.698 390.903C120.935 391.409 119.529 391.733 118.48 391.874L118.385 391.184C119.506 391.051 120.923 390.739 122.637 390.247L122.698 390.903ZM142.604 388.374H132.187C132.159 391.241 131.781 393.339 131.052 394.67L130.478 394.185C131.143 392.799 131.476 390.885 131.476 388.442L131.489 383.404H136.473C136.4 383.231 136.274 382.951 136.097 382.563L136.753 382.324C136.944 382.725 137.092 383.085 137.197 383.404H142.495V384.088H132.214L132.173 387.711H142.604V388.374ZM142.297 385.742H140.403V387.055H134.921V385.742H132.863V385.079H134.921V384.464H135.632V385.079H139.679V384.464H140.403V385.079H142.297V385.742ZM139.679 386.398V385.742H135.632V386.398H139.679ZM141.709 392.729H133.629V389.085H141.709V392.729ZM140.991 390.555V389.714H138.052V390.555H140.991ZM137.313 390.555V389.714H134.36V390.555H137.313ZM140.991 392.093V391.156H138.052V392.093H140.991ZM137.313 392.093V391.156H134.36V392.093H137.313ZM142.495 394.055L142.14 394.684C140.882 394.178 139.613 393.834 138.332 393.651L138.612 393.009C140.194 393.319 141.488 393.667 142.495 394.055ZM136.739 393.549C135.7 394.059 134.388 394.433 132.802 394.67L132.508 393.986C133.898 393.827 135.192 393.501 136.391 393.009L136.739 393.549ZM156.673 388.23H144.464V387.533H150.247V385.195H146.761C146.328 385.701 145.779 386.191 145.113 386.665L144.607 386.104C145.701 385.38 146.761 384.204 147.786 382.577L148.497 382.857C148.16 383.404 147.782 383.953 147.362 384.505H150.247V382.475H150.979V384.505H155.846V385.195H150.979V387.533H156.673V388.23ZM155.08 394.697H154.321V393.904H146.863V394.697H146.091V389.789H155.08V394.697ZM154.321 393.187V390.514H146.863V393.187H154.321ZM114.673 413.038C114.627 413.972 114.488 414.606 114.256 414.938C114.023 415.271 113.796 415.453 113.572 415.485C113.354 415.522 112.613 415.54 111.351 415.54C109.637 415.54 108.623 415.526 108.309 415.499C107.994 415.472 107.762 415.355 107.611 415.15C107.465 414.945 107.393 414.704 107.393 414.426V408.725L106.148 409.148L106.039 408.431L107.393 407.973V405.061H108.083V407.747L110.291 406.995V403.509H111.009V406.742L114.058 405.689C114.035 407.531 113.789 409.499 113.319 411.596L112.615 411.391C113.007 409.7 113.242 408.13 113.319 406.681L111.009 407.467V412.929H110.291V407.72L108.083 408.492V414.467C108.083 414.508 108.113 414.562 108.172 414.631C108.231 414.695 108.284 414.738 108.329 414.761C108.375 414.779 108.653 414.797 109.163 414.815C109.674 414.829 110.191 414.836 110.715 414.836C112.301 414.836 113.219 414.793 113.47 414.706C113.72 414.619 113.889 413.991 113.976 412.819L114.673 413.038ZM106.627 412.874C105.196 413.621 103.874 414.205 102.662 414.624L102.464 413.92C103.034 413.733 103.617 413.501 104.214 413.223V407.692H102.607V406.975H104.214V403.646H104.945V406.975H106.47V407.692H104.945V412.915C105.725 412.528 106.246 412.261 106.511 412.115L106.627 412.874ZM128.618 406.503H120.989C120.989 407.237 120.966 408.048 120.921 408.937H126.909C126.9 410.304 126.818 411.573 126.663 412.744C126.508 413.911 126.358 414.642 126.212 414.938C126.066 415.23 125.859 415.44 125.59 415.567C125.326 415.695 124.742 415.759 123.84 415.759C123.53 415.759 123.227 415.754 122.931 415.745L122.712 414.959C123.149 414.986 123.585 415 124.018 415C124.692 415 125.098 414.964 125.234 414.891C125.376 414.818 125.487 414.695 125.569 414.521C125.651 414.344 125.758 413.74 125.891 412.71C126.027 411.68 126.109 410.666 126.137 409.668H120.846C120.668 412.106 119.358 414.116 116.915 415.697L116.313 415.109C117.161 414.631 117.927 413.991 118.61 413.188C119.299 412.382 119.738 411.525 119.93 410.618C120.121 409.707 120.217 408.335 120.217 406.503H116.525V405.744H122.377C122.003 405.015 121.554 404.347 121.03 403.741L121.741 403.406C122.265 404.008 122.76 404.787 123.225 405.744H128.618V406.503ZM142.604 409.374H132.187C132.159 412.241 131.781 414.339 131.052 415.67L130.478 415.185C131.143 413.799 131.476 411.885 131.476 409.442L131.489 404.404H136.473C136.4 404.231 136.274 403.951 136.097 403.563L136.753 403.324C136.944 403.725 137.092 404.085 137.197 404.404H142.495V405.088H132.214L132.173 408.711H142.604V409.374ZM142.297 406.742H140.403V408.055H134.921V406.742H132.863V406.079H134.921V405.464H135.632V406.079H139.679V405.464H140.403V406.079H142.297V406.742ZM139.679 407.398V406.742H135.632V407.398H139.679ZM141.709 413.729H133.629V410.085H141.709V413.729ZM140.991 411.555V410.714H138.052V411.555H140.991ZM137.313 411.555V410.714H134.36V411.555H137.313ZM140.991 413.093V412.156H138.052V413.093H140.991ZM137.313 413.093V412.156H134.36V413.093H137.313ZM142.495 415.055L142.14 415.684C140.882 415.178 139.613 414.834 138.332 414.651L138.612 414.009C140.194 414.319 141.488 414.667 142.495 415.055ZM136.739 414.549C135.7 415.059 134.388 415.433 132.802 415.67L132.508 414.986C133.898 414.827 135.192 414.501 136.391 414.009L136.739 414.549ZM156.673 409.23H144.464V408.533H150.247V406.195H146.761C146.328 406.701 145.779 407.191 145.113 407.665L144.607 407.104C145.701 406.38 146.761 405.204 147.786 403.577L148.497 403.857C148.16 404.404 147.782 404.953 147.362 405.505H150.247V403.475H150.979V405.505H155.846V406.195H150.979V408.533H156.673V409.23ZM155.08 415.697H154.321V414.904H146.863V415.697H146.091V410.789H155.08V415.697ZM154.321 414.187V411.514H146.863V414.187H154.321ZM121.406 426.607H116.45V425.876H118.638C118.515 425.47 118.328 425.06 118.077 424.646L118.72 424.352C118.998 424.803 119.226 425.311 119.403 425.876H121.406V426.607ZM128.577 429.547H127.217C126.547 429.547 126.212 429.226 126.212 428.583V425.568H123.744C123.721 426.858 123.548 427.817 123.225 428.446C122.906 429.071 122.464 429.563 121.898 429.923L121.352 429.417C121.908 429.066 122.334 428.585 122.63 427.975C122.931 427.359 123.07 426.325 123.047 424.871H126.909V428.371C126.909 428.686 127.064 428.843 127.374 428.843H128.577V429.547ZM121.03 428.638H116.73V427.934H121.03V428.638ZM121.017 430.695H116.717V429.991H121.017V430.695ZM128.632 436.157L128.215 436.759C126.798 436.289 125.704 435.752 124.934 435.146C124.036 435.784 122.917 436.296 121.577 436.684L121.14 436.082C122.548 435.667 123.607 435.191 124.318 434.653C123.352 433.765 122.648 432.575 122.206 431.085H121.728V430.374H127.593V431.085C126.991 432.721 126.292 433.915 125.494 434.667C126.287 435.237 127.333 435.733 128.632 436.157ZM126.8 431.085H122.951C123.434 432.461 124.09 433.498 124.92 434.195C125.754 433.425 126.381 432.388 126.8 431.085ZM120.818 436.417H120.094V435.651H117.558V436.684H116.833V432.021H120.818V436.417ZM120.094 434.934V432.767H117.558V434.934H120.094ZM136.261 426.874H130.464V426.143H133.109C132.904 425.669 132.626 425.17 132.275 424.646L132.973 424.365C133.283 424.794 133.599 425.386 133.923 426.143H136.261V426.874ZM142.673 429.226H139.877V436.725H139.118V429.226H136.329V428.48H139.118V424.495H139.877V428.48H142.673V429.226ZM135.55 428.877H131.113V428.173H135.55V428.877ZM135.55 430.846H131.113V430.162H135.55V430.846ZM135.55 436.588H134.832V435.904H131.838V436.697H131.113V432.192H135.55V436.588ZM134.832 435.159V432.89H131.838V435.159H134.832Z" fill="#424242"/>
<rect x="93.5" y="338.5" width="72" height="118" rx="4.5" stroke="#002154"/>
<rect x="185.5" y="338.5" width="72" height="118" rx="4.5" fill="white"/>
<path d="M185 343C185 340.239 187.239 338 190 338H253C255.761 338 258 340.239 258 343V373H185V343Z" fill="#002154"/>
<path d="M212.617 361.242L211.695 362.414C208.581 360.055 206.531 357.578 205.547 354.984C204.776 357.891 202.734 360.339 199.422 362.328L198.461 361.164C202.664 358.544 204.766 355.125 204.766 350.906V348.352H206.281V351.641C206.281 353.38 206.862 355.086 208.023 356.758C209.19 358.424 210.721 359.919 212.617 361.242ZM228.367 350.398C227.872 351.107 227.406 351.703 226.969 352.188L225.758 351.469C225.893 351.312 226.18 350.956 226.617 350.398H221.578C221.089 350.961 220.62 351.43 220.172 351.805L219.086 350.875C219.914 350.276 220.708 349.37 221.469 348.156L222.781 348.602C222.734 348.784 222.633 348.971 222.477 349.164H228.367V350.398ZM219.148 350.219H214.844V348.938H219.148V350.219ZM228.648 353.211L227.977 354.492C227.565 354.409 227.102 354.276 226.586 354.094V360.109H219.836L220.523 360.906C219.018 361.599 217.242 362.112 215.195 362.445L214.508 361.164C216.029 360.982 217.484 360.63 218.875 360.109H216.523V354.062H219.547L218.938 353.18C220.807 352.706 222.201 351.875 223.117 350.688L224.57 351.008C224.414 351.294 224.297 351.474 224.219 351.547C225.354 352.281 226.831 352.836 228.648 353.211ZM226.43 354.062C225.357 353.714 224.315 353.201 223.305 352.523C222.638 353.128 221.771 353.641 220.703 354.062H226.43ZM225.148 355.758V355.195H218.016V355.758H225.148ZM225.148 357.391V356.797H218.016V357.391H225.148ZM225.148 359.055V358.43H218.016V359.055H225.148ZM219.289 352.766H214.633V351.453H219.289V352.766ZM228.555 361.273L227.789 362.508C226.393 362.06 224.831 361.734 223.102 361.531L223.836 360.328C225.523 360.474 227.096 360.789 228.555 361.273ZM244.141 352.719H242.734V350.828H232.398V352.781H230.969V349.547H236.766C236.516 349.13 236.297 348.794 236.109 348.539L237.547 348.188C237.76 348.505 238.039 348.958 238.383 349.547H244.141V352.719ZM244.539 361.867H230.633V360.617H236.859V359.133H231.562V357.867H236.859V356.57C235.562 356.664 233.969 356.703 232.078 356.688L231.805 355.484C232.924 355.193 234.086 354.44 235.289 353.227H232.875V351.977H242.234V353.227H237.258C236.336 354.19 235.445 354.922 234.586 355.422C236.154 355.411 238.096 355.279 240.414 355.023C240.268 354.883 239.911 354.62 239.344 354.234L240.445 353.453C242.018 354.474 243.185 355.406 243.945 356.25L242.922 357.195C242.589 356.831 242.216 356.469 241.805 356.109C240.659 356.229 239.49 356.336 238.297 356.43V357.867H243.656V359.133H238.297V360.617H244.539V361.867Z" fill="white"/>
<path d="M220.673 403.209C220.527 404.859 220.149 405.684 219.538 405.684C219 405.684 218.554 405.064 218.198 403.824C217.496 404.59 216.829 405.15 216.195 405.506L215.819 404.986C216.599 404.449 217.321 403.781 217.986 402.983C217.786 401.694 217.67 400.108 217.638 398.226H212.579V397.549H213.912C213.794 396.833 213.643 396.134 213.461 395.45H212.976V394.808H214.739C214.666 394.562 214.489 394.211 214.206 393.755L214.821 393.42C215.063 393.812 215.286 394.274 215.491 394.808H217.118V395.45H216.558C216.485 396.198 216.368 396.897 216.209 397.549H217.61V393.522H218.294C218.276 395.272 218.267 396.621 218.267 397.569H220.591V398.226H218.308C218.308 399.789 218.387 401.058 218.547 402.033C218.948 401.313 219.317 400.342 219.654 399.121L220.256 399.347C219.85 400.878 219.335 402.127 218.711 403.093C218.793 403.59 218.925 404.016 219.107 404.371C219.294 404.722 219.44 404.897 219.545 404.897C219.622 404.897 219.716 404.706 219.825 404.323C219.935 403.94 220.012 403.444 220.058 402.833L220.673 403.209ZM215.86 395.45H214.165C214.366 396.243 214.509 396.943 214.596 397.549H215.525C215.644 396.997 215.756 396.298 215.86 395.45ZM212.538 394.671H211.978V405.745H211.321V403.435C210.209 403.931 209.305 404.294 208.607 404.521L208.382 403.906C208.769 403.77 209.036 403.672 209.182 403.612V394.671H208.58V393.994H212.538V394.671ZM211.321 396.852V394.671H209.852V396.852H211.321ZM211.321 399.935V397.521H209.852V399.935H211.321ZM211.321 402.73V400.591H209.852V403.346C210.107 403.259 210.597 403.054 211.321 402.73ZM220.338 396.503L219.709 396.77C219.531 396.09 219.278 395.409 218.95 394.726L219.565 394.459C219.935 395.234 220.192 395.915 220.338 396.503ZM216.626 403.824H213.242V399.189H216.626V403.824ZM215.956 401.124V399.832H213.912V401.124H215.956ZM215.956 403.182V401.767H213.912V403.182H215.956ZM234.755 405.096L234.311 405.759C233.171 405.016 232.285 404.232 231.651 403.407C230.626 404.428 229.598 405.207 228.568 405.745L228.097 405.109C229.432 404.408 230.48 403.619 231.241 402.744C230.767 401.906 230.371 400.712 230.052 399.162L230.756 398.909C231.011 400.345 231.332 401.418 231.72 402.129C232.704 400.561 233.153 398.654 233.066 396.407H230.934C230.378 397.743 229.785 398.839 229.156 399.695L228.596 399.176C229.812 397.599 230.601 395.676 230.961 393.406L231.679 393.591C231.524 394.375 231.351 395.074 231.159 395.689H234.659V396.407H233.791C233.777 399.151 233.221 401.288 232.123 402.819C232.738 403.662 233.616 404.421 234.755 405.096ZM229.491 394.343C228.903 395.336 228.252 396.243 227.536 397.063H229.047V397.747H226.873C226.363 398.276 225.893 398.725 225.465 399.094H228.165V399.723C227.582 400.306 226.976 400.857 226.347 401.377V402.061C227.181 401.924 228.019 401.751 228.862 401.541L228.835 402.272C228.06 402.455 227.231 402.621 226.347 402.771V404.692C226.347 404.993 226.26 405.235 226.087 405.417C225.918 405.599 225.515 405.69 224.877 405.69C224.645 405.69 224.401 405.679 224.146 405.656L223.92 404.918C224.166 404.941 224.462 404.952 224.809 404.952C225.205 404.952 225.444 404.923 225.526 404.863C225.613 404.804 225.656 404.699 225.656 404.549V402.915C224.43 403.111 223.432 403.255 222.662 403.346L222.491 402.676C223.69 402.516 224.745 402.352 225.656 402.184V401.083C226.148 400.673 226.629 400.233 227.099 399.764H224.549C223.947 400.21 223.384 400.593 222.86 400.912L222.382 400.311C223.909 399.426 225.089 398.572 225.923 397.747H222.648V397.063H225.212V395.464H223.065V394.808H225.212V393.447H225.923V394.808H227.563V395.464H225.923V397.063H226.613C227.452 396.193 228.197 395.174 228.849 394.008L229.491 394.343ZM220.687 426.157L220.14 426.711C217.228 424.66 215.357 421.841 214.527 418.255C213.935 421.527 212.078 424.337 208.956 426.684L208.45 426.082C209.512 425.357 210.483 424.451 211.362 423.361C212.242 422.272 212.912 421.074 213.372 419.766C213.832 418.453 214.078 416.68 214.11 414.447H214.89C214.862 417.031 215.377 419.321 216.435 421.317C217.492 423.309 218.909 424.922 220.687 426.157ZM234.632 422.767H233.483V424.558H228.862V425.706C228.862 426.075 228.746 426.328 228.514 426.465C228.286 426.602 227.791 426.67 227.03 426.67C226.78 426.67 226.522 426.661 226.258 426.643L226.025 425.973L227.789 425.959C228.031 425.959 228.151 425.834 228.151 425.583V424.558H223.182V423.929H228.151V422.767H222.423V422.097H228.151V421.058H223.182V420.388H228.151V419.349H223.626V416.983H228.151V416.047H222.525V415.404H228.151V414.42H228.862V415.404H234.461V416.047H228.862V416.983H233.401V419.349H228.862V420.388H233.483V422.097H234.632V422.767ZM232.656 418.679V417.64H228.862V418.679H232.656ZM228.151 418.679V417.64H224.371V418.679H228.151ZM232.745 422.097V421.058H228.862V422.097H232.745ZM232.745 423.929V422.767H228.862V423.929H232.745Z" fill="#424242"/>
<rect x="185.5" y="338.5" width="72" height="118" rx="4.5" stroke="#002154"/>
<rect x="277.5" y="338.5" width="72" height="118" rx="4.5" fill="white"/>
<path d="M277 343C277 340.239 279.239 338 282 338H345C347.761 338 350 340.239 350 343V373H277V343Z" fill="#002154"/>
<path d="M304.555 350.445H299.625C299.38 350.82 299.078 351.198 298.719 351.578L297.422 350.891C298.302 349.958 298.924 349.052 299.289 348.172L300.734 348.586C300.599 348.862 300.482 349.081 300.383 349.242H304.555V350.445ZM297.422 350.445H293.195C292.711 351.003 292.12 351.552 291.422 352.094L290.492 350.938C291.721 350.115 292.531 349.208 292.922 348.219L294.367 348.602C294.294 348.799 294.188 349.013 294.047 349.242H297.422V350.445ZM295.945 351.82L294.383 352.109C294.242 351.807 294.018 351.432 293.711 350.984L295.227 350.672C295.424 350.906 295.664 351.289 295.945 351.82ZM302.414 351.914L300.875 352.156C300.75 351.786 300.547 351.37 300.266 350.906L301.82 350.734C302.029 351.073 302.227 351.466 302.414 351.914ZM304.156 355.195H302.75V353.656H292.367V355.195H290.953V352.477H296.719C296.661 352.326 296.531 352.086 296.328 351.758L297.961 351.5C298.107 351.714 298.279 352.039 298.477 352.477H304.156V355.195ZM302.703 361.641H294.203V362.281H292.812V354.461H302.172V357.516H294.203V358.367H302.703V361.641ZM300.75 356.477V355.547H294.203V356.477H300.75ZM301.273 360.555V359.438H294.203V360.555H301.273ZM320.523 361.945H311.359V360.648H315.289V359.07H311.914V357.805H315.289V356.43H312.016V348.75H319.914V356.43H316.688V357.805H320.141V359.07H316.688V360.648H320.523V361.945ZM318.523 351.93V350.016H316.688V351.93H318.523ZM315.289 351.93V350.016H313.422V351.93H315.289ZM318.523 355.164V353.086H316.688V355.164H318.523ZM315.289 355.164V353.086H313.422V355.164H315.289ZM311.422 358.891C310.198 359.646 308.714 360.414 306.969 361.195L306.477 359.836C306.862 359.685 307.497 359.396 308.383 358.969V354.984H306.844V353.656H308.383V350.492H306.602V349.211H311.391V350.492H309.758V353.656H311.148V354.984H309.758V358.234C310.305 358.005 310.844 357.724 311.375 357.391L311.422 358.891ZM336.141 352.719H334.734V350.828H324.398V352.781H322.969V349.547H328.766C328.516 349.13 328.297 348.794 328.109 348.539L329.547 348.188C329.76 348.505 330.039 348.958 330.383 349.547H336.141V352.719ZM336.539 361.867H322.633V360.617H328.859V359.133H323.562V357.867H328.859V356.57C327.562 356.664 325.969 356.703 324.078 356.688L323.805 355.484C324.924 355.193 326.086 354.44 327.289 353.227H324.875V351.977H334.234V353.227H329.258C328.336 354.19 327.445 354.922 326.586 355.422C328.154 355.411 330.096 355.279 332.414 355.023C332.268 354.883 331.911 354.62 331.344 354.234L332.445 353.453C334.018 354.474 335.185 355.406 335.945 356.25L334.922 357.195C334.589 356.831 334.216 356.469 333.805 356.109C332.659 356.229 331.49 356.336 330.297 356.43V357.867H335.656V359.133H330.297V360.617H336.539V361.867Z" fill="white"/>
<path d="M304.429 392.898C303.59 393.942 302.419 394.913 300.915 395.811L300.491 395.236C302.022 394.293 303.134 393.363 303.827 392.447L304.429 392.898ZM311.989 393.835H305.338V393.097H311.989V393.835ZM304.75 395.681C304.367 396.332 303.914 396.973 303.39 397.602V404.759H302.665V398.456C302.159 398.994 301.553 399.554 300.847 400.138L300.464 399.563C302.205 398.032 303.428 396.604 304.135 395.277L304.75 395.681ZM312.673 397.376H310.465V403.597C310.465 403.902 310.385 404.141 310.226 404.314C310.071 404.492 309.893 404.599 309.692 404.636C309.492 404.677 309.089 404.697 308.482 404.697C307.963 404.697 307.544 404.688 307.225 404.67L306.931 403.918C307.327 403.936 307.744 403.945 308.182 403.945C308.997 403.945 309.451 403.929 309.542 403.897C309.633 403.861 309.679 403.779 309.679 403.651V397.376H304.75V396.638H312.673V397.376ZM326.775 404.123L326.338 404.759C324.975 404.025 323.943 403.207 323.241 402.305C322.257 403.289 321.152 404.112 319.926 404.772L319.447 404.198C320.933 403.405 322.054 402.583 322.811 401.73C322.241 400.828 321.783 399.732 321.437 398.442L322.113 398.189C322.432 399.424 322.82 400.404 323.275 401.129C324.164 399.789 324.677 397.891 324.813 395.435H322.209C321.881 396.515 321.45 397.545 320.917 398.524L320.343 398.025C321.222 396.48 321.806 394.612 322.093 392.42L322.838 392.563C322.71 393.338 322.56 394.056 322.387 394.717H326.406V395.435H325.524C325.338 398.31 324.727 400.427 323.692 401.785C324.463 402.733 325.49 403.512 326.775 404.123ZM320.712 401.799C318.433 402.751 316.435 403.512 314.717 404.082L314.437 403.398C314.86 403.266 315.145 403.164 315.291 403.091V396.2H316.022V402.838C316.264 402.76 316.711 402.601 317.362 402.359V393.808H314.621V393.083H320.527V393.808H318.094V397.335H320.008V398.039H318.094V402.052C318.718 401.833 319.548 401.507 320.582 401.074L320.712 401.799ZM305.311 421.363L304.723 421.582C304.686 421.423 304.62 421.217 304.524 420.967C303.226 421.368 301.961 421.666 300.73 421.862L300.478 421.179C301.448 420.358 302.355 419.258 303.198 417.877C302.323 418.05 301.523 418.175 300.799 418.253L300.58 417.583C301.455 416.585 302.225 415.197 302.891 413.42L303.533 413.618C302.945 415.213 302.25 416.496 301.448 417.467C302.059 417.394 302.79 417.264 303.643 417.077C303.984 416.517 304.301 415.91 304.593 415.259L305.242 415.539C304.076 417.904 302.815 419.736 301.462 421.035C302.264 420.912 303.21 420.675 304.299 420.324C304.253 420.096 304.137 419.784 303.95 419.388L304.538 419.107C304.88 419.859 305.137 420.611 305.311 421.363ZM311.723 420.803H305.728V414.527H307.341C307.546 414.145 307.724 413.785 307.874 413.447L308.503 413.646C308.389 413.978 308.259 414.272 308.113 414.527H311.723V420.803ZM311.025 420.126V415.211H306.445V420.126H311.025ZM310.615 418.991L310.198 419.511C309.843 419.101 309.54 418.775 309.289 418.533C308.943 418.966 308.578 419.376 308.195 419.764L307.703 419.36C308.118 418.927 308.478 418.506 308.783 418.096C308.564 417.868 308.355 417.692 308.154 417.569C307.954 417.843 307.664 418.169 307.286 418.547L306.808 418.096C307.031 417.895 307.302 417.588 307.621 417.173C307.389 416.977 307.17 416.82 306.965 416.701L307.313 416.168C307.537 416.3 307.769 416.448 308.011 416.612C308.225 416.28 308.425 415.926 308.612 415.553L309.187 415.819C309.05 416.134 308.831 416.53 308.53 417.009C308.74 417.168 308.945 417.339 309.146 417.521C309.46 417.038 309.754 416.494 310.027 415.888L310.588 416.141C310.36 416.715 310.048 417.321 309.651 417.959C309.852 418.16 310.173 418.504 310.615 418.991ZM310.198 423.024L309.61 423.305C309.237 422.521 308.877 421.896 308.53 421.432L309.173 421.151C309.629 421.803 309.97 422.427 310.198 423.024ZM311.244 423.585C311.217 424.009 311.144 424.382 311.025 424.706C310.911 425.03 310.743 425.248 310.52 425.362C310.296 425.481 309.866 425.54 309.228 425.54C308.366 425.54 307.826 425.472 307.607 425.335C307.393 425.203 307.286 424.927 307.286 424.508V421.445H307.997V424.583C307.997 424.738 308.081 424.831 308.25 424.863C308.419 424.895 308.699 424.911 309.091 424.911C309.638 424.911 309.982 424.868 310.123 424.781C310.264 424.69 310.369 424.512 310.438 424.248C310.51 423.984 310.556 423.656 310.574 423.264L311.244 423.585ZM312.803 424.549L312.201 424.986C311.919 424.093 311.511 423.145 310.978 422.143L311.552 421.726C312.094 422.769 312.511 423.71 312.803 424.549ZM306.698 421.992C306.402 423.346 306.024 424.433 305.563 425.253L304.948 424.932C305.468 423.975 305.826 422.933 306.021 421.808L306.698 421.992ZM305.126 423.783L304.47 424.009C304.374 423.444 304.226 422.869 304.025 422.286L304.654 422.061C304.855 422.594 305.012 423.168 305.126 423.783ZM301.893 422.382C301.729 423.58 301.457 424.686 301.079 425.697L300.409 425.465C300.81 424.385 301.077 423.305 301.209 422.225L301.893 422.382ZM303.602 425.185L302.918 425.321C302.909 424.478 302.768 423.512 302.494 422.423L303.157 422.272C303.408 423.152 303.556 424.123 303.602 425.185ZM326.632 419.511L326.229 420.14C325.153 419.821 324.148 419.322 323.214 418.643C322.339 419.29 321.443 419.78 320.527 420.112L320.035 419.511C320.915 419.246 321.783 418.804 322.64 418.185C322.065 417.61 321.646 417.091 321.382 416.626L321.997 416.277C322.316 416.829 322.713 417.314 323.187 417.733C323.825 417.187 324.319 416.435 324.67 415.478H321.676C321.079 416.234 320.532 416.808 320.035 417.2L319.495 416.701C320.534 415.881 321.411 414.783 322.127 413.406L322.824 413.673C322.656 414.019 322.437 414.388 322.168 414.78H326.42V415.478H325.429C325.064 416.562 324.513 417.46 323.774 418.171C324.636 418.777 325.588 419.224 326.632 419.511ZM319.789 418C319.725 419.194 319.361 420.267 318.695 421.22L318.162 420.714C318.563 420.108 318.843 419.436 319.003 418.697H317.697V424.843C317.697 425.025 317.622 425.214 317.472 425.41C317.326 425.611 316.95 425.711 316.344 425.711C316.111 425.711 315.897 425.697 315.701 425.67L315.291 424.918C315.883 424.964 316.346 424.986 316.679 424.986C316.747 424.986 316.82 424.952 316.897 424.884C316.975 424.815 317.014 424.747 317.014 424.679V419.627C316.335 421.34 315.626 422.678 314.888 423.64L314.409 423.079C315.229 422.013 315.972 420.552 316.638 418.697H314.464V418H317.561C316.977 417.33 316.259 416.701 315.407 416.113L315.92 415.648C316.253 415.876 316.674 416.202 317.185 416.626C317.832 415.888 318.344 415.184 318.723 414.514H314.956V413.816H319.522V414.514C319.062 415.361 318.463 416.22 317.725 417.091L318.203 417.624L317.772 418H319.789ZM325.805 421.206C325.777 422.159 325.702 423.018 325.579 423.783C325.456 424.549 325.331 425.011 325.203 425.171C325.08 425.33 324.923 425.467 324.731 425.581C324.545 425.7 323.945 425.743 322.934 425.711L322.599 424.959C322.886 424.982 323.198 424.993 323.535 424.993C324.046 424.993 324.349 424.968 324.444 424.918C324.545 424.868 324.622 424.795 324.677 424.699C324.731 424.599 324.795 424.289 324.868 423.77C324.941 423.25 325.007 422.628 325.066 421.903H322.729C322.337 423.703 321.179 424.989 319.256 425.759L318.723 425.185C319.493 424.948 320.19 424.524 320.814 423.913C321.439 423.298 321.838 422.628 322.011 421.903H319.789V421.206H322.182C322.25 420.837 322.291 420.37 322.305 419.805L323.009 419.832C323.009 420.174 322.97 420.632 322.893 421.206H325.805Z" fill="#424242"/>
<rect x="277.5" y="338.5" width="72" height="118" rx="4.5" stroke="#002154"/>
<rect x="45.5" y="471.5" width="72" height="118" rx="4.5" fill="white"/>
<path d="M45 476C45 473.239 47.2386 471 50 471H113C115.761 471 118 473.239 118 476V506H45V476Z" fill="#002154"/>
<path d="M72.4922 485.797H71.1953V494.039C71.1953 494.424 71.0755 494.721 70.8359 494.93C70.6016 495.143 70.3203 495.263 69.9922 495.289C69.6693 495.315 69.0312 495.318 68.0781 495.297L67.5 493.844C67.9219 493.885 68.3438 493.906 68.7656 493.906C69.2708 493.906 69.5703 493.87 69.6641 493.797C69.7578 493.724 69.8047 493.617 69.8047 493.477V487.281C68.9557 489.375 67.6484 491.273 65.8828 492.977L64.9688 491.812C66.8698 490.115 68.2474 488.109 69.1016 485.797H65.4375V484.422H69.8047V481.383H71.1953V484.422H72.4922V485.797ZM64.7031 491.461H60.3828L61.4844 491.938C61.1042 493.078 60.4792 494.247 59.6094 495.445L58.4766 494.547C59.2682 493.464 59.8281 492.435 60.1562 491.461H59.2266V481.734H64.7031V491.461ZM63.3047 484.531V483.094H60.6016V484.531H63.3047ZM63.3047 487.328V485.797H60.6016V487.328H63.3047ZM63.3047 490.148V488.578H60.6016V490.148H63.3047ZM65.1328 494.438L63.9297 495.078C63.4714 494.203 62.9062 493.349 62.2344 492.516L63.5312 491.875C64.2604 492.786 64.7943 493.641 65.1328 494.438ZM88.7656 484.133L88.2031 485.398C86.8958 485.076 85.5729 484.638 84.2344 484.086V484.68H79.0078V484.055C77.7734 484.602 76.4661 485.06 75.0859 485.43L74.3828 484.273C77.5339 483.461 79.8594 482.422 81.3594 481.156L82.9219 481.539C82.8125 481.674 82.7161 481.776 82.6328 481.844C84.1172 482.781 86.1615 483.544 88.7656 484.133ZM83.1172 483.57C82.2578 483.091 81.7344 482.794 81.5469 482.68C81.1094 483.008 80.6094 483.305 80.0469 483.57H83.1172ZM87.3047 489.461H75.8828V485.328H87.3047V489.461ZM85.8984 488.344V486.469H82.2812V488.344H85.8984ZM85.2891 487.219C84.9349 487.516 84.487 487.826 83.9453 488.148L82.9531 487.477C83.5781 487.081 84.0156 486.792 84.2656 486.609L85.2891 487.219ZM80.875 488.344V486.469H77.2734V488.344H80.875ZM80.1719 487.555L79.1641 488.195C78.7786 487.872 78.3359 487.557 77.8359 487.25L78.8281 486.578C79.1562 486.76 79.6042 487.086 80.1719 487.555ZM86.6172 495.281H85.2109V494.711H78.0469V495.281H76.5859V490.164H86.6172V495.281ZM85.2109 491.906V491.25H78.0469V491.906H85.2109ZM85.2109 493.602V492.898H78.0469V493.602H85.2109ZM104.141 485.719H102.734V483.828H92.3984V485.781H90.9688V482.547H96.7656C96.5156 482.13 96.2969 481.794 96.1094 481.539L97.5469 481.188C97.7604 481.505 98.0391 481.958 98.3828 482.547H104.141V485.719ZM104.539 494.867H90.6328V493.617H96.8594V492.133H91.5625V490.867H96.8594V489.57C95.5625 489.664 93.9688 489.703 92.0781 489.688L91.8047 488.484C92.9245 488.193 94.0859 487.44 95.2891 486.227H92.875V484.977H102.234V486.227H97.2578C96.3359 487.19 95.4453 487.922 94.5859 488.422C96.1536 488.411 98.0964 488.279 100.414 488.023C100.268 487.883 99.9115 487.62 99.3438 487.234L100.445 486.453C102.018 487.474 103.185 488.406 103.945 489.25L102.922 490.195C102.589 489.831 102.216 489.469 101.805 489.109C100.659 489.229 99.4896 489.336 98.2969 489.43V490.867H103.656V492.133H98.2969V493.617H104.539V494.867Z" fill="white"/>
<path d="M80.4062 527.17C79.9323 527.84 79.4948 528.368 79.0938 528.756L78.5605 528.25C78.9206 527.885 79.2601 527.489 79.5791 527.061H74.459C74.0807 527.539 73.6546 527.958 73.1807 528.318L72.6953 527.833C73.4974 527.231 74.1742 526.409 74.7256 525.365L75.4092 525.604L74.9648 526.377H80.4062V527.17ZM72.3467 526.767H68.8193V526.097H72.3467V526.767ZM80.7002 529.733L80.3926 530.417C78.6016 530.153 77.207 529.608 76.209 528.783C75.4069 529.553 74.3382 530.084 73.0029 530.376L72.627 529.706C74.3451 529.442 75.5299 528.742 76.1816 527.607L76.9473 527.744C76.9199 527.858 76.8128 528.04 76.626 528.291C77.5693 529.066 78.9274 529.547 80.7002 529.733ZM72.4561 529.289H68.5391V528.585H72.4561V529.289ZM78.6016 535.742H73.0439L73.3926 536.2C71.9479 536.929 70.4167 537.463 68.7988 537.8L68.4365 537.137C69.9359 536.886 71.36 536.421 72.709 535.742H70.5352V530.615H78.6016V535.742ZM77.877 532.071V531.271H71.2803V532.071H77.877ZM77.877 533.568V532.7H71.2803V533.568H77.877ZM77.877 535.079V534.197H71.2803V535.079H77.877ZM80.6182 537.171L80.2832 537.813C78.9206 537.303 77.5671 536.911 76.2227 536.638L76.5713 536.009C78.0251 536.305 79.374 536.692 80.6182 537.171ZM94.6729 529.877L94.2285 530.533C93.3171 530.114 92.5651 529.717 91.9727 529.344V530.014H88.8623V532.003H93.8594V532.714H88.8623V536.638H94.1533V537.349H82.9971V536.638H88.1377V532.714H83.2637V532.003H88.1377V530.014H85.1572V529.289C84.3005 529.799 83.5394 530.191 82.874 530.465L82.3955 529.815C85.0114 528.785 87.028 527.316 88.4453 525.406L89.2246 525.673L89.0332 525.912C90.4915 527.639 92.3714 528.961 94.6729 529.877ZM91.8428 529.255C90.7035 528.576 89.612 527.648 88.5684 526.473C87.7435 527.448 86.6338 528.375 85.2393 529.255H91.8428ZM86.5791 535.742L85.8955 536.022C85.6449 535.398 85.1823 534.623 84.5078 533.698L85.1709 533.391C85.7725 534.188 86.2419 534.972 86.5791 535.742ZM92.7588 533.753C92.2119 534.778 91.6878 535.567 91.1865 536.118L90.5303 535.715C91.0316 535.209 91.5625 534.439 92.123 533.404L92.7588 533.753ZM80.7549 549.209L80.4473 549.879C78.9342 549.514 77.7174 549.1 76.7969 548.635V549.182H72.2715V548.648C71.2826 549.163 70.1068 549.617 68.7441 550.009L68.3682 549.373C70.8747 548.726 72.8867 547.723 74.4043 546.365L75.2109 546.604C75.1107 546.705 75.0378 546.775 74.9922 546.816C76.4596 547.919 78.3805 548.717 80.7549 549.209ZM76.4619 548.505C75.751 548.136 75.0833 547.721 74.459 547.261C73.8483 547.73 73.2217 548.145 72.5791 548.505H76.4619ZM79.374 553.461H69.6533V550.022H79.374V553.461ZM78.6562 552.791V550.692H74.8896V552.791H78.6562ZM77.5967 551.226C77.2731 551.704 76.9222 552.114 76.5439 552.456L75.9971 552.066C76.3753 551.77 76.7126 551.41 77.0088 550.986L77.5967 551.226ZM74.1514 552.791V550.692H70.3711V552.791H74.1514ZM72.9893 552.08L72.4697 552.47C72.1598 552.055 71.8089 551.659 71.417 551.28L71.9502 550.932C72.3376 551.242 72.6839 551.624 72.9893 552.08ZM78.7588 558.697H78.0547V558.109H71.0273V558.697H70.2891V554.274H78.7588V558.697ZM78.0547 555.86V554.951H71.0273V555.86H78.0547ZM78.0547 557.439V556.503H71.0273V557.439H78.0547ZM88.2607 548.874H82.4639V548.143H85.1094C84.9043 547.669 84.6263 547.17 84.2754 546.646L84.9727 546.365C85.2826 546.794 85.5993 547.386 85.9229 548.143H88.2607V548.874ZM94.6729 551.226H91.877V558.725H91.1182V551.226H88.3291V550.48H91.1182V546.495H91.877V550.48H94.6729V551.226ZM87.5498 550.877H83.1133V550.173H87.5498V550.877ZM87.5498 552.846H83.1133V552.162H87.5498V552.846ZM87.5498 558.588H86.832V557.904H83.8379V558.697H83.1133V554.192H87.5498V558.588ZM86.832 557.159V554.89H83.8379V557.159H86.832Z" fill="#424242"/>
<rect x="45.5" y="471.5" width="72" height="118" rx="4.5" stroke="#002154"/>
<rect x="230.5" y="471.5" width="72" height="118" rx="4.5" fill="white"/>
<path d="M230 476C230 473.239 232.239 471 235 471H298C300.761 471 303 473.239 303 476V506H230V476Z" fill="#002154"/>
<path d="M257.367 483.398C256.872 484.107 256.406 484.703 255.969 485.188L254.758 484.469C254.893 484.312 255.18 483.956 255.617 483.398H250.578C250.089 483.961 249.62 484.43 249.172 484.805L248.086 483.875C248.914 483.276 249.708 482.37 250.469 481.156L251.781 481.602C251.734 481.784 251.633 481.971 251.477 482.164H257.367V483.398ZM248.148 483.219H243.844V481.938H248.148V483.219ZM257.648 486.211L256.977 487.492C256.565 487.409 256.102 487.276 255.586 487.094V493.109H248.836L249.523 493.906C248.018 494.599 246.242 495.112 244.195 495.445L243.508 494.164C245.029 493.982 246.484 493.63 247.875 493.109H245.523V487.062H248.547L247.938 486.18C249.807 485.706 251.201 484.875 252.117 483.688L253.57 484.008C253.414 484.294 253.297 484.474 253.219 484.547C254.354 485.281 255.831 485.836 257.648 486.211ZM255.43 487.062C254.357 486.714 253.315 486.201 252.305 485.523C251.638 486.128 250.771 486.641 249.703 487.062H255.43ZM254.148 488.758V488.195H247.016V488.758H254.148ZM254.148 490.391V489.797H247.016V490.391H254.148ZM254.148 492.055V491.43H247.016V492.055H254.148ZM248.289 485.766H243.633V484.453H248.289V485.766ZM257.555 494.273L256.789 495.508C255.393 495.06 253.831 494.734 252.102 494.531L252.836 493.328C254.523 493.474 256.096 493.789 257.555 494.273ZM264.773 483.984H259.586V482.695H261.633C261.549 482.451 261.38 482.12 261.125 481.703L262.531 481.172C262.812 481.698 263.047 482.206 263.234 482.695H264.773V483.984ZM273.703 491.57C273.63 492.398 273.484 493.159 273.266 493.852C273.052 494.539 272.844 494.969 272.641 495.141C272.443 495.312 272.214 495.398 271.953 495.398C271.635 495.398 271.359 495.276 271.125 495.031C270.896 494.792 270.674 494.078 270.461 492.891C270.253 491.703 270.148 490.635 270.148 489.688V483.016H267.984V487.328H269.703V488.711H267.984V495.328H266.609V488.711H265.125V487.328H266.609V483.016H265.312V481.672H271.523V490.008C271.523 491.247 271.695 492.445 272.039 493.602C272.237 492.872 272.365 491.935 272.422 490.789L273.703 491.57ZM264.422 486.359H259.969V485.078H264.422V486.359ZM264.422 488.695H259.969V487.43H264.422V488.695ZM264.438 494.93H263.031V494.211H261.352V495.312H259.969V489.766H264.438V494.93ZM263.031 492.898V491.094H261.352V492.898H263.031ZM289.141 485.719H287.734V483.828H277.398V485.781H275.969V482.547H281.766C281.516 482.13 281.297 481.794 281.109 481.539L282.547 481.188C282.76 481.505 283.039 481.958 283.383 482.547H289.141V485.719ZM289.539 494.867H275.633V493.617H281.859V492.133H276.562V490.867H281.859V489.57C280.562 489.664 278.969 489.703 277.078 489.688L276.805 488.484C277.924 488.193 279.086 487.44 280.289 486.227H277.875V484.977H287.234V486.227H282.258C281.336 487.19 280.445 487.922 279.586 488.422C281.154 488.411 283.096 488.279 285.414 488.023C285.268 487.883 284.911 487.62 284.344 487.234L285.445 486.453C287.018 487.474 288.185 488.406 288.945 489.25L287.922 490.195C287.589 489.831 287.216 489.469 286.805 489.109C285.659 489.229 284.49 489.336 283.297 489.43V490.867H288.656V492.133H283.297V493.617H289.539V494.867Z" fill="white"/>
<path d="M244.311 533.555L243.641 533.78C243.59 533.525 243.52 533.258 243.429 532.98C242.016 533.372 240.774 533.666 239.703 533.862L239.478 533.083C240.507 532.158 241.394 531.098 242.137 529.904C240.906 530.105 240.122 530.226 239.785 530.267L239.594 529.569C240.478 528.494 241.228 527.136 241.843 525.495L242.52 525.714C242.032 527.026 241.378 528.268 240.558 529.439C241.182 529.389 241.854 529.291 242.574 529.146C242.943 528.558 243.269 527.961 243.552 527.354L244.215 527.621C243.035 529.95 241.825 531.727 240.585 532.953C241.351 532.835 242.223 532.63 243.203 532.338C243.089 531.992 242.964 531.675 242.827 531.388L243.456 531.162C243.812 531.896 244.096 532.693 244.311 533.555ZM251.352 536.692C251.352 536.929 251.272 537.141 251.112 537.328C250.953 537.52 250.766 537.636 250.552 537.677C250.338 537.722 249.914 537.734 249.28 537.711L248.973 536.945C249.269 536.954 249.524 536.959 249.738 536.959C250.158 536.959 250.413 536.932 250.504 536.877C250.595 536.822 250.641 536.724 250.641 536.583V526.555H245.329V537.697H244.618V525.871H251.352V536.692ZM250.23 530.041H245.739V529.357H246.86C246.71 528.806 246.48 528.214 246.17 527.58L246.833 527.313C247.12 527.933 247.38 528.615 247.612 529.357H248.398C248.727 528.774 249.039 528.084 249.335 527.286L249.978 527.539C249.85 527.926 249.59 528.533 249.198 529.357H250.23V530.041ZM250.23 532.591H247.236V534.662C247.236 534.904 247.348 535.024 247.571 535.024H250.039V535.681H247.503C246.851 535.681 246.525 535.346 246.525 534.676V532.591H245.739V531.921H247.92C247.811 531.575 247.633 531.148 247.387 530.643L248.077 530.403C248.237 530.75 248.437 531.256 248.679 531.921H250.23V532.591ZM244.283 536.535L243.613 536.774C243.536 536.109 243.333 535.275 243.005 534.272L243.668 534.061C243.973 534.954 244.178 535.779 244.283 536.535ZM242.643 537.185L241.918 537.321C241.877 536.414 241.749 535.444 241.535 534.409L242.212 534.3C242.426 535.193 242.57 536.155 242.643 537.185ZM240.879 534.437C240.719 535.603 240.457 536.711 240.093 537.759L239.396 537.451C239.737 536.617 240.013 535.567 240.223 534.3L240.879 534.437ZM265.714 531.511L265.27 532.167C264.076 531.716 263.011 531.185 262.077 530.574C261.229 531.212 260.086 531.759 258.646 532.215L258.167 531.538C259.539 531.146 260.637 530.679 261.462 530.137C260.856 529.613 260.332 528.979 259.89 528.236C259.42 528.633 259.042 528.918 258.755 529.091L258.181 528.544C259.616 527.692 260.612 526.646 261.168 525.406L261.879 525.632C261.724 525.996 261.537 526.347 261.318 526.685H264.859V527.341C264.226 528.476 263.508 529.389 262.706 530.082C263.558 530.638 264.561 531.114 265.714 531.511ZM263.95 527.354H260.771C260.744 527.4 260.689 527.471 260.607 527.566C260.525 527.658 260.473 527.717 260.45 527.744C260.856 528.528 261.403 529.164 262.091 529.651C262.82 529.05 263.44 528.284 263.95 527.354ZM258.434 536.036C256.902 536.638 255.294 537.169 253.607 537.629L253.409 536.891C253.737 536.813 253.986 536.743 254.154 536.679V530.978H254.852V536.467C255.048 536.43 255.435 536.319 256.014 536.132V529.932H253.997V525.953H258.003V529.932H256.725V532.085H258.27V532.803H256.725V535.879C257.29 535.701 257.859 535.482 258.434 535.223V536.036ZM257.271 529.241V526.657H254.729V529.241H257.271ZM264.709 537.711H263.978V537.068H260.115V537.711H259.377V532.577H264.709V537.711ZM263.978 536.371V533.288H260.115V536.371H263.978ZM272.406 527.607H267.45V526.876H269.638C269.515 526.47 269.328 526.06 269.077 525.646L269.72 525.352C269.998 525.803 270.226 526.311 270.403 526.876H272.406V527.607ZM279.577 530.547H278.217C277.547 530.547 277.212 530.226 277.212 529.583V526.568H274.744C274.721 527.858 274.548 528.817 274.225 529.446C273.906 530.071 273.464 530.563 272.898 530.923L272.352 530.417C272.908 530.066 273.334 529.585 273.63 528.975C273.931 528.359 274.07 527.325 274.047 525.871H277.909V529.371C277.909 529.686 278.064 529.843 278.374 529.843H279.577V530.547ZM272.03 529.638H267.73V528.934H272.03V529.638ZM272.017 531.695H267.717V530.991H272.017V531.695ZM279.632 537.157L279.215 537.759C277.798 537.289 276.704 536.752 275.934 536.146C275.036 536.784 273.917 537.296 272.577 537.684L272.14 537.082C273.548 536.667 274.607 536.191 275.318 535.653C274.352 534.765 273.648 533.575 273.206 532.085H272.728V531.374H278.593V532.085C277.991 533.721 277.292 534.915 276.494 535.667C277.287 536.237 278.333 536.733 279.632 537.157ZM277.8 532.085H273.951C274.434 533.461 275.09 534.498 275.92 535.195C276.754 534.425 277.381 533.388 277.8 532.085ZM271.818 537.417H271.094V536.651H268.558V537.684H267.833V533.021H271.818V537.417ZM271.094 535.934V533.767H268.558V535.934H271.094ZM284.492 525.536L283.72 528.127V537.711H282.995V529.863C282.58 530.711 282.198 531.392 281.847 531.907L281.341 531.333C282.375 529.77 283.196 527.753 283.802 525.283L284.492 525.536ZM293.604 529.61H287.418C287.158 530.075 286.919 530.453 286.7 530.745H292.777V536.651C292.777 536.861 292.718 537.064 292.6 537.26C292.481 537.456 292.322 537.588 292.121 537.656C291.925 537.725 291.524 537.747 290.918 537.725L290.624 537.027C290.934 537.041 291.198 537.048 291.417 537.048C291.868 537.048 292.094 536.888 292.094 536.569V535.141H289.797V537.561H289.093V535.141H286.509C286.208 536.171 285.718 537.052 285.039 537.786L284.533 537.308C285.604 536.123 286.14 534.671 286.14 532.953V531.442C285.647 532.085 285.098 532.664 284.492 533.179L284.014 532.673C285.039 531.798 285.921 530.777 286.659 529.61H284.349V528.92H286.98V527.539H284.656V526.835H286.98V525.475H287.698V526.835H290.371V525.475H291.096V526.835H293.311V527.539H291.096V528.92H293.604V529.61ZM290.371 528.92V527.539H287.698V528.92H290.371ZM292.094 532.577V531.415H289.797V532.577H292.094ZM289.093 532.577V531.415H286.844V532.577H289.093ZM292.094 534.45V533.261H289.797V534.45H292.094ZM289.093 534.45V533.261H286.816C286.798 533.712 286.75 534.108 286.673 534.45H289.093ZM251.406 548.17C250.932 548.84 250.495 549.368 250.094 549.756L249.561 549.25C249.921 548.885 250.26 548.489 250.579 548.061H245.459C245.081 548.539 244.655 548.958 244.181 549.318L243.695 548.833C244.497 548.231 245.174 547.409 245.726 546.365L246.409 546.604L245.965 547.377H251.406V548.17ZM243.347 547.767H239.819V547.097H243.347V547.767ZM251.7 550.733L251.393 551.417C249.602 551.153 248.207 550.608 247.209 549.783C246.407 550.553 245.338 551.084 244.003 551.376L243.627 550.706C245.345 550.442 246.53 549.742 247.182 548.607L247.947 548.744C247.92 548.858 247.813 549.04 247.626 549.291C248.569 550.066 249.927 550.547 251.7 550.733ZM243.456 550.289H239.539V549.585H243.456V550.289ZM249.602 556.742H244.044L244.393 557.2C242.948 557.929 241.417 558.463 239.799 558.8L239.437 558.137C240.936 557.886 242.36 557.421 243.709 556.742H241.535V551.615H249.602V556.742ZM248.877 553.071V552.271H242.28V553.071H248.877ZM248.877 554.568V553.7H242.28V554.568H248.877ZM248.877 556.079V555.197H242.28V556.079H248.877ZM251.618 558.171L251.283 558.813C249.921 558.303 248.567 557.911 247.223 557.638L247.571 557.009C249.025 557.305 250.374 557.692 251.618 558.171ZM258.058 548.594H253.409V547.903H255.583C255.455 547.557 255.253 547.138 254.975 546.646L255.61 546.338C255.888 546.83 256.13 547.352 256.335 547.903H258.058V548.594ZM266.021 555.553C265.921 556.446 265.746 557.184 265.495 557.768C265.249 558.351 264.969 558.643 264.654 558.643C264.167 558.643 263.834 558.155 263.656 557.18C263.479 556.2 263.39 555.386 263.39 554.739V547.527H260.594V551.923H262.802V552.593H260.594V558.745H259.862V552.593H258.242V551.923H259.862V547.527H258.352V546.857H264.107V554.247C264.107 555.45 264.178 556.355 264.319 556.961C264.465 557.567 264.57 557.87 264.634 557.87C264.698 557.87 264.816 557.574 264.989 556.981C265.162 556.389 265.279 555.781 265.338 555.156L266.021 555.553ZM257.654 550.638H253.744V549.947H257.654V550.638ZM257.613 552.641H253.744V551.978H257.613V552.641ZM257.613 558.492H256.868V557.651H254.599V558.711H253.86V554.021H257.613V558.492ZM256.868 556.975V554.712H254.599V556.975H256.868ZM279.406 548.17C278.932 548.84 278.495 549.368 278.094 549.756L277.561 549.25C277.921 548.885 278.26 548.489 278.579 548.061H273.459C273.081 548.539 272.655 548.958 272.181 549.318L271.695 548.833C272.497 548.231 273.174 547.409 273.726 546.365L274.409 546.604L273.965 547.377H279.406V548.17ZM271.347 547.767H267.819V547.097H271.347V547.767ZM279.7 550.733L279.393 551.417C277.602 551.153 276.207 550.608 275.209 549.783C274.407 550.553 273.338 551.084 272.003 551.376L271.627 550.706C273.345 550.442 274.53 549.742 275.182 548.607L275.947 548.744C275.92 548.858 275.813 549.04 275.626 549.291C276.569 550.066 277.927 550.547 279.7 550.733ZM271.456 550.289H267.539V549.585H271.456V550.289ZM277.602 556.742H272.044L272.393 557.2C270.948 557.929 269.417 558.463 267.799 558.8L267.437 558.137C268.936 557.886 270.36 557.421 271.709 556.742H269.535V551.615H277.602V556.742ZM276.877 553.071V552.271H270.28V553.071H276.877ZM276.877 554.568V553.7H270.28V554.568H276.877ZM276.877 556.079V555.197H270.28V556.079H276.877ZM279.618 558.171L279.283 558.813C277.921 558.303 276.567 557.911 275.223 557.638L275.571 557.009C277.025 557.305 278.374 557.692 279.618 558.171ZM287.124 551.711H284.964V558.697H284.239V551.711H281.648V551.041H284.239V546.42H284.964V551.041H287.124V551.711ZM293.687 554.89L292.244 555.17V558.725H291.533V555.313L287.192 556.127L287.097 555.423L291.533 554.582V546.461H292.244V554.445L293.591 554.192L293.687 554.89ZM287.302 547.671C287.001 548.705 286.661 549.578 286.283 550.289L285.613 549.961C286.023 549.273 286.372 548.425 286.659 547.418L287.302 547.671ZM283.412 549.92L282.715 550.2C282.555 549.517 282.214 548.683 281.689 547.698L282.318 547.418C282.847 548.357 283.212 549.191 283.412 549.92ZM290.761 549.407L290.214 549.947C289.649 549.309 288.899 548.671 287.965 548.033L288.45 547.514C289.225 548.006 289.995 548.637 290.761 549.407ZM290.521 553.181L289.975 553.741C289.501 553.035 288.737 552.256 287.685 551.403L288.211 550.891C289.118 551.624 289.888 552.388 290.521 553.181ZM287.192 554.89L286.461 555.129C286.352 554.495 286.062 553.698 285.593 552.736L286.242 552.511C286.712 553.477 287.028 554.27 287.192 554.89ZM283.494 552.723C283.166 554.318 282.733 555.632 282.195 556.667L281.491 556.359C282.038 555.352 282.487 554.069 282.838 552.511L283.494 552.723Z" fill="#424242"/>
<rect x="230.5" y="471.5" width="72" height="118" rx="4.5" stroke="#002154"/>
</svg>
