<svg width="16" height="16" viewBox="0 0 16 16" fill="none" xmlns="http://www.w3.org/2000/svg">
<path d="M10.5 9.56255C9.70703 9.56255 9.57031 9.53325 9.08984 9.69536C8.74805 9.8106 8.38086 9.87505 8 9.87505C7.61914 9.87505 7.25195 9.8106 6.91016 9.69536C6.42969 9.53325 6.29492 9.56255 5.5 9.56255C4.11914 9.56255 3 10.6817 3 12.0626V12.3751C3 12.7208 3.2793 13.0001 3.625 13.0001H12.375C12.7207 13.0001 13 12.7208 13 12.3751V12.0626C13 10.6817 11.8809 9.56255 10.5 9.56255ZM3.9375 12.0626C3.9375 11.6446 4.09961 11.252 4.39453 10.9571C4.68945 10.6622 5.08203 10.5001 5.5 10.5001C6.30273 10.5001 6.30078 10.4786 6.60938 10.5821C7.05859 10.7344 7.52734 10.8126 8 10.8126C8.47266 10.8126 8.94141 10.7344 9.39063 10.5821C9.69922 10.4766 9.69727 10.5001 10.5 10.5001C11.3613 10.5001 12.0625 11.2012 12.0625 12.0626H3.9375Z" fill="#E50012"/>
<path d="M8 3C6.27344 3 4.875 4.39844 4.875 6.125C4.875 7.85156 6.27344 9.25 8 9.25C9.72656 9.25 11.125 7.85156 11.125 6.125C11.125 4.39844 9.72656 3 8 3ZM8 8.3125C6.79297 8.3125 5.8125 7.33203 5.8125 6.125C5.8125 4.91797 6.79297 3.9375 8 3.9375C9.20703 3.9375 10.1875 4.91797 10.1875 6.125C10.1875 7.33203 9.20703 8.3125 8 8.3125Z" fill="#002154"/>
</svg>
