<?xml version="1.0" encoding="utf-8"?>
<!-- Generator: Adobe Illustrator 24.3.0, SVG Export Plug-In . SVG Version: 6.00 Build 0)  -->
<svg version="1.1" id="圖層_1" xmlns="http://www.w3.org/2000/svg" xmlns:xlink="http://www.w3.org/1999/xlink" x="0px" y="0px"
	 viewBox="0 0 34 34" style="enable-background:new 0 0 34 34;" xml:space="preserve">
<style type="text/css">
	.st0{fill:#FFFFFF;}
	.st1{fill:none;stroke:#FFFFFF;stroke-width:2;}
</style>
<path class="st0" d="M26.3,9.8H29V5.2C28.5,5.1,26.9,5,25,5c-3.9,0-6.7,2.4-6.7,6.8v4.1H14V21h4.4v13h5.3V21h4.2l0.7-5.2h-4.8v-3.6
	C23.7,10.8,24.1,9.8,26.3,9.8z"/>
<path class="st1" d="M3,1h28c1.1,0,2,0.9,2,2v28c0,1.1-0.9,2-2,2H3c-1.1,0-2-0.9-2-2V3C1,1.9,1.9,1,3,1z"/>
</svg>
