<svg width="160" height="160" viewBox="0 0 160 160" fill="none" xmlns="http://www.w3.org/2000/svg">
<rect width="160" height="160" rx="80" fill="#85D8E7"/>
<path d="M127.994 95.609C127.899 93.9316 126.447 93.2553 125.674 93.1335C122.01 92.376 117.682 92.1055 113.083 92.3219C113.361 90.9299 113.533 89.5192 113.599 88.1015C113.761 85.2338 113.87 82.9207 113.965 80.8916C114.196 75.819 114.358 72.1668 115.078 64.4834C115.105 64.24 115.145 64.01 115.172 63.753C115.349 62.5626 115.58 60.9394 114.263 59.3026C112.947 57.6659 110.844 56.5837 106.951 55.1904C102.568 53.6213 98.4846 52.8367 94.0751 52.7285C90.2627 52.6338 86.0568 53.0261 80.0057 54.0406C69.5588 55.7721 56.2763 58.9239 56.1406 58.9645H56.1135C55.7607 59.0591 47.4032 61.3046 45.9651 68.0005L45.9379 68.1222V68.2439C45.3681 76.4413 46.8062 93.5664 46.8741 94.4592C46.9012 94.8514 47.2811 99.2612 50.1438 103.536C54.5532 110.11 61.5812 111.706 67.3202 111.706C68.0121 111.706 68.6905 111.679 69.3417 111.638H69.4774C71.7567 111.314 74.0496 110.935 76.3154 110.529C77.8756 111.206 80.6298 111.638 83.3704 111.638C85.6769 111.638 89.0281 111.341 91.8229 109.88C93.3018 109.122 94.4415 107.716 95.2962 106.214C97.6841 105.524 99.9091 104.821 101.917 104.104C102.813 106.295 104.251 108.771 106.381 109.88C109.189 111.341 112.527 111.638 114.847 111.638C117.818 111.638 120.803 111.124 122.268 110.353C125.416 108.703 125.701 107.499 126.854 100.519C126.885 100.281 126.964 100.051 127.085 99.8429C127.133 99.7631 127.193 99.6903 127.261 99.6265C127.56 99.3018 128.007 98.8284 127.98 97.7056V96.9616C127.994 96.4341 128.007 95.9065 127.994 95.609ZM56.9547 62.2515C57.5788 62.1027 70.4271 59.0591 80.562 57.3683C90.6968 55.6774 97.4263 55.3663 105.797 58.3693C108.348 59.2891 110.125 60.1413 111.089 60.9123C107.534 63.3742 99.2715 66.3096 88.7567 68.8121C77.74 71.4228 66.384 73.0595 60.5093 72.8566C54.8788 72.6808 52.1111 71.3551 50.7679 70.2595C49.8047 69.4749 49.4655 68.7444 49.3569 68.3927C50.5644 64.0641 56.6562 62.3327 56.9547 62.2515ZM49.2077 74.9263C49.2077 74.3852 49.1941 73.8441 49.1941 73.3165C51.7312 75.1021 55.4894 76.0896 60.4008 76.2384L61.4998 76.2654C67.9307 76.2654 78.7304 74.6692 89.5436 72.0991C95.3233 70.7329 100.56 69.1908 104.726 67.6623C107.575 66.6072 109.89 65.5656 111.672 64.5376C111.577 65.5385 111.496 66.4719 111.414 67.3512C108.063 69.8672 99.6107 72.9107 88.7567 75.4944C77.9028 78.078 66.384 79.7283 60.5093 79.5389C54.8788 79.3631 52.1111 78.0239 50.7679 76.9418C49.4248 75.8596 49.3162 74.9127 49.3162 74.8721V74.9263H49.2077ZM91.6466 81.3921C91.6466 83.34 90.7783 83.7593 90.6155 83.827H90.5612C90.4798 83.8405 82.9634 86.086 80.0193 86.4647C79.3816 86.5459 79.0967 86.4377 79.0424 86.3836C78.9882 86.3295 78.9746 86.2483 78.961 86.1807V80.9728C82.38 80.3506 85.9618 79.6201 89.5436 78.7679L91.6059 78.2674C91.633 79.079 91.6466 80.1071 91.6466 81.3921V81.3921ZM93.3968 103.225C93.0771 103.971 92.7053 104.694 92.2843 105.389C91.7416 106.309 90.8868 107.08 89.8014 107.661C88.2547 108.514 86.206 109.001 83.886 109.028H83.5739C81.4303 109.028 79.3002 108.622 77.8892 107.932C77.41 107.7 76.9705 107.394 76.5867 107.026C74.7687 105.227 74.4702 102.224 74.4702 100.397C74.4838 99.4236 74.8094 97.8274 75.2843 97.1104C76.0847 95.9065 77.455 95.149 81.8509 95.149C82.8549 95.149 83.9945 95.1896 85.3513 95.2708C92.9355 95.7036 94.0751 97.2728 94.2379 97.6515C94.2787 97.8003 94.8485 99.8158 93.3968 103.225V103.225ZM97.0057 102.17C97.372 100.979 97.5348 100.127 97.562 100.032V100.005C97.5755 99.9646 97.7519 99.4641 99.0951 99.4641H99.2036C100.221 99.4641 100.615 99.7888 100.655 100.059V100.086L100.845 100.884C99.6513 101.317 98.3624 101.737 97.0057 102.17V102.17ZM100.343 95.3519L99.6378 95.5007C99.2826 95.5547 98.9212 95.5547 98.5659 95.5007L97.874 95.3519C97.3178 95.2302 96.2188 94.7973 95.4726 94.4186L94.048 93.7287C91.9315 92.7818 90.1677 92.6601 86.9794 92.4436L86.7216 92.4166C81.5253 92.0514 76.6274 92.2949 72.5572 93.12C71.7839 93.2553 70.3186 93.9316 70.2236 95.609C70.1965 95.893 70.21 96.3935 70.2236 96.9481V97.1104C70.2372 97.3539 70.2372 97.5704 70.2372 97.6921C70.2101 98.8148 70.6578 99.3018 70.9562 99.6129H70.9698L71.1326 99.8158C71.248 100.026 71.326 100.255 71.3633 100.492C71.9738 104.185 72.3401 106.255 73.0185 107.634C71.7025 107.851 70.3728 108.067 69.0568 108.257C61.6761 108.69 56.2899 106.512 53.0472 101.75C51.5321 99.4951 50.5786 96.912 50.2659 94.2157V94.1751C50.2524 94.0669 49.669 87.1952 49.3705 80.1071C51.9076 81.8115 55.5979 82.7448 60.4008 82.9071H61.4998C65.0816 82.9071 70.0201 82.4202 75.5692 81.5274V86.0725C75.5598 86.5909 75.6574 87.1057 75.8557 87.585C76.0541 88.0644 76.3491 88.498 76.7224 88.859C77.2515 89.3325 78.147 89.86 79.5987 89.86C79.889 89.8605 80.179 89.8425 80.467 89.8059C83.6689 89.3866 91.2124 87.1411 91.5245 87.0464C92.1214 86.8705 95.0384 85.7884 95.0384 81.3651C95.0384 79.5795 95.0113 78.2674 94.9842 77.3746C98.6067 76.3872 101.917 75.3456 104.726 74.3175C107.263 73.3707 109.393 72.4373 111.089 71.5175C110.831 74.9127 110.722 77.5369 110.573 80.7023C110.478 82.7313 110.37 85.0309 110.22 87.8851C110.142 89.4532 109.92 91.0109 109.556 92.5383C107.358 92.7142 105.879 92.9441 104.156 93.7017L102.731 94.3915C101.999 94.7973 100.9 95.2302 100.343 95.3519ZM120.328 107.946C118.917 108.635 116.787 109.041 114.643 109.041C110.546 109.041 107.29 107.675 105.92 105.389C105.465 104.629 105.066 103.838 104.726 103.022C104.271 101.967 103.978 100.849 103.857 99.7076C103.735 98.382 103.979 97.6515 103.993 97.6109C104.006 97.5704 104.59 96.4611 108.307 95.7848C109.614 95.5589 110.932 95.4053 112.255 95.3249L112.852 95.2843C114.209 95.2031 115.362 95.1626 116.366 95.1626C120.762 95.1626 122.133 95.9201 122.919 97.124C123.394 97.8544 123.734 99.4371 123.734 100.411C123.747 102.602 123.313 106.498 120.328 107.946V107.946Z" fill="white"/>
<path d="M40.4164 74.0065C40.2401 74.008 40.0651 73.9759 39.9008 73.9119C39.7447 73.8455 39.6033 73.7491 39.4846 73.6281C39.3659 73.5072 39.2724 73.364 39.2094 73.2069C39.1464 73.0498 39.1151 72.8818 39.1173 72.7127C39.1195 72.5435 39.1553 72.3764 39.2225 72.221C39.4395 71.707 39.3853 71.45 39.2903 70.963C39.1953 70.476 38.9647 69.4209 39.5074 68.1764C40.0501 66.932 40.7963 66.4315 41.3525 66.0798C41.9088 65.7281 42.0038 65.674 42.2209 65.1599C42.438 64.6459 42.3837 64.4024 42.2887 63.9019C42.1937 63.4014 41.9766 62.3734 42.5058 61.1154C43.0349 59.8574 43.7947 59.3839 44.351 59.0322C44.9072 58.6805 45.0022 58.6264 45.2193 58.1124C45.4363 57.5984 45.3821 57.3414 45.2871 56.8544C45.1921 56.3674 44.9751 55.3258 45.5042 54.0678C46.0333 52.8098 46.7931 52.3364 47.3493 51.9712C47.9056 51.6059 48.0006 51.5653 48.2177 51.0513C48.2842 50.8957 48.3809 50.7546 48.5022 50.6363C48.6236 50.518 48.7672 50.4248 48.9247 50.3619C49.0823 50.2991 49.2508 50.2679 49.4205 50.2701C49.5902 50.2724 49.7578 50.308 49.9136 50.375C50.0709 50.44 50.2138 50.5355 50.3338 50.6559C50.4539 50.7764 50.5489 50.9193 50.6132 51.0765C50.6776 51.2338 50.71 51.4022 50.7087 51.572C50.7074 51.7418 50.6723 51.9096 50.6055 52.0658C50.0628 53.3103 49.3031 53.7973 48.7468 54.149C48.1905 54.5007 48.1091 54.5683 47.8785 55.0824C47.6478 55.5964 47.7157 55.8399 47.8242 56.3404C47.9327 56.8409 48.1363 57.8689 47.6071 59.1134C47.078 60.3579 46.3047 60.8584 45.7484 61.2101C45.1921 61.5618 45.1107 61.6159 44.8801 62.1299C44.6494 62.6439 44.7173 62.8874 44.8258 63.3879C44.9344 63.8884 45.1379 64.9164 44.6087 66.1744C44.0796 67.4325 43.3063 67.9059 42.75 68.2576C42.1937 68.6093 42.0988 68.6634 41.8817 69.1774C41.6646 69.6915 41.7189 69.9485 41.8274 70.4354C41.9359 70.9224 42.1395 71.9775 41.6103 73.222C41.5084 73.4536 41.3414 73.6508 41.1296 73.79C40.9177 73.9292 40.6701 74.0044 40.4164 74.0065V74.0065Z" fill="white"/>
<path d="M34.293 71.7365C34.121 71.738 33.9505 71.7058 33.7909 71.6418C33.4756 71.5076 33.226 71.2547 33.0965 70.9382C32.967 70.6216 32.9679 70.2669 33.099 69.951C33.3161 69.437 33.2754 69.1799 33.1669 68.693C33.0583 68.206 32.8548 67.1509 33.3839 65.9064C33.913 64.6619 34.6864 64.175 35.2427 63.8097C35.7989 63.4445 35.8803 63.4039 36.0974 62.8899C36.3145 62.3759 36.2738 62.1324 36.1652 61.6319C36.0567 61.1314 35.8532 60.1034 36.3823 58.8454C36.9115 57.5873 37.6848 57.1139 38.2411 56.7622C38.7973 56.4105 38.8787 56.3564 39.0958 55.8424C39.3129 55.3283 39.2722 55.0713 39.1636 54.5844C39.0551 54.0974 38.8516 53.0558 39.3807 51.7978C39.9099 50.5398 40.6832 50.0664 41.2395 49.7011C41.7957 49.3359 41.8771 49.2953 42.0942 48.7813C42.1608 48.6256 42.2575 48.4846 42.3788 48.3663C42.5001 48.248 42.6437 48.1548 42.8013 48.0919C42.9589 48.0291 43.1273 47.9979 43.297 48.0001C43.4667 48.0024 43.6343 48.038 43.7902 48.105C43.9487 48.1685 44.0927 48.2632 44.2138 48.3833C44.3349 48.5034 44.4306 48.6466 44.4952 48.8043C44.5597 48.9621 44.5918 49.1311 44.5896 49.3014C44.5873 49.4717 44.5507 49.6399 44.4821 49.7958C43.9529 51.0403 43.1932 51.5273 42.6233 51.879C42.0535 52.2307 41.9857 52.2983 41.7686 52.8123C41.5515 53.3264 41.6058 53.5698 41.7008 54.0703C41.7957 54.5708 42.0128 55.5989 41.4837 56.8434C40.9546 58.0878 40.1948 58.5883 39.6249 58.94C39.0551 59.2917 38.9873 59.3459 38.7702 59.8599C38.5531 60.3739 38.6074 60.6174 38.7024 61.1179C38.7973 61.6184 39.0144 62.6464 38.4853 63.9044C37.9561 65.1624 37.1964 65.6359 36.6265 65.9876C36.0567 66.3393 35.9889 66.4069 35.7718 66.9074C35.5547 67.4079 35.609 67.6785 35.704 68.1654C35.7989 68.6524 36.016 69.7075 35.4869 70.952C35.3893 71.1867 35.2234 71.3869 35.0106 71.5268C34.7978 71.6666 34.5478 71.7397 34.293 71.7365V71.7365Z" fill="white"/>
</svg>
