<svg width="160" height="160" viewBox="0 0 160 160" fill="none" xmlns="http://www.w3.org/2000/svg">
<rect width="160" height="160" rx="80" fill="#DAC6E6"/>
<g clip-path="url(#clip0_3897:57254)">
<path d="M70.3035 95.2414C70.995 95.6418 71.905 95.8602 72.7786 95.8602C73.5793 95.8602 74.3801 95.6782 74.9989 95.3506C75.8724 94.8774 76.382 94.0766 76.4184 93.2031C76.4548 92.4023 75.7997 91.7471 74.9989 91.7107C74.2709 91.7107 73.6885 92.1839 73.5429 92.8391C73.1426 92.9847 72.3054 92.9847 71.9414 92.8027C71.8322 92.1475 71.2498 91.6015 70.5583 91.6015C69.7575 91.5651 69.1023 92.2203 69.0659 93.0211C68.9931 93.8946 69.4663 94.6954 70.3035 95.2414Z" fill="white"/>
<path d="M61.0595 47.4502C61.8602 47.4502 62.5154 46.795 62.5154 45.9943C62.5154 40.4253 66.7376 35.9119 71.9426 35.9119C77.1476 35.9119 81.3698 40.4253 81.3698 45.9943C81.3698 46.795 82.025 47.4502 82.8257 47.4502C83.6265 47.4502 84.2817 46.795 84.2817 45.9943C84.3181 38.8238 78.7491 33 71.9426 33C65.1361 33 59.6035 38.8238 59.6035 45.9943C59.6035 46.795 60.2587 47.4502 61.0595 47.4502Z" fill="white"/>
<path d="M67.4647 84.6496C67.1735 83.8853 66.3364 83.5213 65.572 83.8125C65.5356 83.8125 62.9149 84.7952 60.0758 83.8125C59.3114 83.5577 58.4743 83.9581 58.2195 84.686C57.9647 85.4504 58.3651 86.2876 59.0931 86.5423C60.4034 87.0155 61.6773 87.1611 62.8057 87.1611C64.9896 87.1611 66.5547 86.5787 66.6275 86.5059C67.3919 86.2512 67.7559 85.414 67.4647 84.6496Z" fill="white"/>
<path d="M108.377 79.5537C105.465 76.6418 101.679 75.1131 97.4208 75.1131C97.3844 75.1131 97.3844 75.1131 97.348 75.1131C97.0568 75.1131 96.802 75.1131 96.5108 75.1131C95.9649 75.1131 95.3825 75.0767 94.7637 75.1131C94.6909 75.1131 94.6545 75.1131 94.5817 75.1131C95.0913 74.9311 95.5281 74.4943 95.5645 73.9119C96.3289 67.0326 96.1833 50.6169 78.2024 46.4311C77.802 46.3219 77.4017 46.4311 77.0741 46.6131C76.8557 46.3219 76.5645 46.1399 76.2369 46.0307C76.0185 45.9943 71.0683 44.866 65.0626 46.3219C59.4936 47.6686 51.9591 51.5633 47.6641 62.4828C44.1699 71.3276 48.2101 80.0997 48.3921 80.4637C48.4285 80.5728 48.5013 80.6456 48.5741 80.7548C48.3921 80.7912 48.2101 80.864 48.0281 80.9732C47.8825 81.0824 44.2063 83.6303 46.0262 89.9273C47.5549 95.205 49.848 95.8602 50.9036 95.8602C51.122 95.8602 51.2676 95.8238 51.3767 95.8238C51.7043 95.751 51.9955 95.569 52.2139 95.2778C52.2867 95.6054 52.3595 95.8966 52.4323 96.1878C53.1967 99.2817 54.7618 102.121 56.9093 104.414C56.9821 104.487 57.0549 104.596 57.1641 104.669C57.4553 106.78 59.0204 118.609 55.8174 125.998C55.4898 126.726 55.8538 127.6 56.5817 127.927C56.7637 128 56.9821 128.036 57.1641 128.036C57.7101 128.036 58.2561 127.709 58.5108 127.163C61.0951 121.157 60.9131 112.858 60.4764 107.944C62.4783 109.801 64.735 111.73 66.8097 113.222C68.484 114.423 70.6315 114.969 72.7063 114.969C74.7446 114.969 76.6737 114.46 77.984 113.55C79.076 112.785 80.3499 111.839 81.6603 110.784C81.8059 110.674 81.9151 110.565 81.9879 110.42C83.0798 112.276 84.3174 113.877 85.7005 115.115C85.2273 115.37 84.9361 115.879 84.9725 116.462C85.1909 120.757 85.9189 124.324 87.12 127.163C87.3748 127.709 87.8844 128.036 88.4668 128.036C88.6488 128.036 88.8672 128 89.0492 127.927C89.7771 127.6 90.1411 126.762 89.8135 125.998C88.7944 123.632 88.1392 120.538 87.9208 116.862C90.5051 118.573 93.3806 119.374 96.1833 119.374C104.81 119.374 114.091 111.548 114.091 94.3679C114.055 88.5441 111.98 83.1207 108.377 79.5537ZM77.0013 48.979C77.1833 49.1246 77.3653 49.2338 77.5836 49.2702C89.8135 52.1093 92.689 61.2817 92.9074 68.707C90.5779 63.2108 85.5185 56.8047 74.599 54.9483C75.2541 53.6744 76.0549 51.7817 77.0013 48.979ZM72.8882 57.8602C72.779 57.751 72.6335 57.6782 72.4515 57.6054C72.5607 57.569 72.6699 57.5326 72.779 57.4598C72.9246 57.5326 73.0702 57.6054 73.2158 57.6782C73.1066 57.7146 72.9974 57.7874 72.8882 57.8602ZM50.4304 63.5748C53.4879 55.8219 58.62 50.9809 65.6813 49.2338C67.8289 48.6878 69.8308 48.5422 71.4687 48.5422C72.4515 48.5422 73.325 48.615 74.0166 48.6878C73.0702 51.4177 71.9055 54.1476 71.3231 54.9119C60.6584 56.5499 54.9802 63.1744 52.0683 68.4522C50.94 70.4905 50.1392 72.4924 49.5932 74.2031C49.0836 71.2548 48.9381 67.3966 50.4304 63.5748ZM79.804 108.49C78.53 109.51 77.3289 110.42 76.3097 111.111C74.599 112.276 70.7407 112.422 68.5204 110.82C65.7177 108.818 61.8231 105.36 59.0568 102.412C57.2369 100.483 55.9266 98.0805 55.2714 95.4598C54.4706 92.3296 54.1066 87.4522 53.7426 82.684C53.6699 81.8832 52.9783 81.2644 52.1775 81.3372C51.3767 81.41 50.758 82.1016 50.8308 82.9024C51.0856 86.4694 51.3767 90.1092 51.8499 93.1303C51.5951 92.9847 51.304 92.8755 50.9764 92.9119C50.7944 92.8391 49.8116 92.3296 48.8653 89.0901C47.7005 84.9771 49.5932 83.4483 49.7388 83.3391C50.394 82.866 50.5396 81.9924 50.1028 81.3372C50.0664 81.3008 50.0664 81.3008 50.03 81.2644C50.6488 81.1552 51.122 80.6456 51.1948 79.9905C51.1948 79.9541 51.7771 74.9311 54.6526 69.7261C58.2561 63.1744 63.7522 59.207 70.9591 57.8966C70.7043 58.115 70.5223 58.4426 70.4859 58.843C69.1756 71.7644 53.6699 78.4617 53.4879 78.5345C52.7599 78.8621 52.3959 79.6993 52.7235 80.4273C52.9419 80.9732 53.4879 81.3372 54.0702 81.3372C54.2522 81.3372 54.4342 81.3008 54.6162 81.228C54.7254 81.1916 56.2177 80.5729 58.2925 79.3353C58.2925 79.4445 58.3289 79.5173 58.3653 79.6265C58.5836 80.2089 59.1296 80.6092 59.7484 80.6092C59.894 80.6092 60.076 80.5729 60.2216 80.5365C63.0607 79.5537 65.6813 80.5001 65.7177 80.5365C66.4457 80.8276 67.3193 80.4637 67.6105 79.6993C67.9017 78.9349 67.5377 78.0978 66.7733 77.8066C66.6641 77.7702 64.4074 76.8966 61.4955 77.2606C62.1143 76.8238 62.7331 76.3506 63.3518 75.841C68.5932 71.5824 71.9055 66.6686 73.0338 61.3909C74.599 64.8487 78.5664 68.2338 82.4246 71.5096C84.2446 73.0384 85.9553 74.5307 87.3384 75.8774C87.6296 76.1686 87.9936 76.3142 88.394 76.3142C88.758 76.3142 89.122 76.1686 89.4131 75.9138C89.9955 75.3679 89.9955 74.4215 89.4131 73.8391C87.9572 72.3832 86.2101 70.8545 84.3174 69.2893C80.2407 65.8315 75.6545 61.9368 75.2905 58.843C75.2541 58.5154 75.1085 58.2242 74.8902 58.0058C86.7197 60.2989 90.3595 68.8161 91.4879 73.8391C91.6335 74.5307 92.2522 74.9675 92.9074 74.9675C93.0166 74.9675 93.1258 74.9675 93.235 74.9311C93.235 74.9311 93.235 74.9311 93.2714 74.9311C93.4534 75.0767 93.7082 75.1859 93.963 75.2223C90.9783 75.5499 88.3576 76.4234 86.1737 77.7702C82.279 76.4234 78.8576 77.7338 78.712 77.8066C77.984 78.0978 77.62 78.9349 77.8748 79.6993C78.166 80.4637 79.0032 80.8276 79.7676 80.5365C79.804 80.5365 81.2963 79.9541 83.2618 80.1361C82.1335 81.3008 81.1871 82.6112 80.4227 84.1399C80.3863 84.1399 80.3863 84.1035 80.3499 84.1035C79.9131 83.9943 79.622 83.8851 79.622 83.8851C78.894 83.5939 78.0204 83.9579 77.7292 84.7223C77.4381 85.4866 77.802 86.3238 78.5664 86.615C78.6028 86.615 78.894 86.7242 79.3308 86.8698C78.6028 89.1265 78.2388 91.638 78.2388 94.4407C78.2388 95.8966 78.3116 97.3161 78.4572 98.6629C78.0568 98.9541 76.7101 99.682 72.8882 99.7912C68.0836 99.9368 66.9917 98.6265 66.8825 98.4809C66.5549 97.7893 65.7905 97.4617 65.0626 97.7165C64.2982 97.9713 63.8978 98.8085 64.189 99.5728C64.371 100.119 65.6449 102.703 72.1967 102.703C72.4515 102.703 72.7062 102.703 72.961 102.703C75.7637 102.63 77.62 102.23 78.8576 101.72C79.2944 104.195 79.9859 106.379 80.8595 108.308C80.4591 108.163 80.0951 108.272 79.804 108.49ZM96.1105 116.462C88.8672 116.462 81.1143 109.546 81.1143 94.3679C81.1143 81.0096 89.8135 78.3889 94.9821 78.025C95.2005 78.025 95.4553 77.9886 95.6737 77.9886C95.9285 77.9886 96.1833 77.9886 96.4381 77.9886C96.7292 77.9886 96.984 77.9886 97.2752 77.9886C97.3116 77.9886 97.348 77.9886 97.3844 77.9886C100.879 77.9886 103.863 79.1897 106.266 81.592C109.287 84.6131 111.07 89.3449 111.07 94.3315C111.143 109.51 103.354 116.462 96.1105 116.462Z" fill="white"/>
<path d="M99.8956 90.8736C99.0948 91.5287 98.6216 92.4751 98.5488 93.4942L98.5124 93.7126C98.3304 95.8237 99.8956 97.6801 102.007 97.8621L105.974 98.1896C106.083 98.1896 106.193 98.1896 106.302 98.1896C108.267 98.1896 109.978 96.6609 110.124 94.659L110.16 94.4406C110.342 92.3295 108.777 90.4732 106.666 90.2912L102.698 89.9636C101.679 89.8908 100.66 90.2184 99.8956 90.8736ZM107.284 94.2586L107.248 94.477C107.212 94.9866 106.738 95.387 106.229 95.3142L102.261 94.9866C101.752 94.9502 101.352 94.477 101.424 93.9674L101.461 93.749C101.497 93.4942 101.606 93.2759 101.788 93.1303C101.97 92.9847 102.189 92.9119 102.407 92.9119C102.443 92.9119 102.443 92.9119 102.48 92.9119L106.447 93.2395C106.92 93.2759 107.321 93.749 107.284 94.2586Z" fill="white"/>
<path d="M94.1814 93.7126L94.145 93.4942C94.0722 92.4751 93.5627 91.5287 92.7983 90.8736C92.0339 90.2184 91.0148 89.8908 89.9956 89.9636L86.0282 90.2912C83.9171 90.4732 82.3519 92.3295 82.5339 94.4406L82.5703 94.659C82.7523 96.6609 84.4266 98.1896 86.3922 98.1896C86.5014 98.1896 86.6106 98.1896 86.7197 98.1896L90.6872 97.8621C92.7983 97.7165 94.3634 95.8237 94.1814 93.7126ZM86.465 95.3142C85.9554 95.3506 85.4822 94.9502 85.4458 94.477L85.4094 94.2586C85.373 93.749 85.7734 93.2759 86.2466 93.2395L90.214 92.9119C90.2504 92.9119 90.2504 92.9119 90.2868 92.9119C90.5052 92.9119 90.7236 92.9847 90.9056 93.1303C91.0876 93.2759 91.2332 93.5306 91.2332 93.749L91.2696 93.9674C91.306 94.477 90.9056 94.9502 90.4324 94.9866L86.465 95.3142Z" fill="white"/>
<path d="M100.077 104.669C99.0938 104.487 97.929 104.487 96.5459 104.487H96.0363C94.6531 104.487 93.4884 104.487 92.5056 104.669C90.2489 105.105 89.9941 106.598 89.9941 107.216C89.9941 109.473 92.6512 111.075 96.2911 111.075C99.9309 111.075 102.588 109.437 102.588 107.216C102.588 106.598 102.333 105.105 100.077 104.669ZM96.2911 108.163C94.7987 108.163 93.7796 107.799 93.27 107.471C93.9616 107.362 95.1263 107.362 96.0363 107.362H96.5459C97.4558 107.362 98.6206 107.362 99.3121 107.471C98.8026 107.799 97.7834 108.163 96.2911 108.163Z" fill="white"/>
<path d="M92.9062 102.084C92.9062 102.885 93.5614 103.54 94.3622 103.54H97.9292C98.73 103.54 99.3852 102.885 99.3852 102.084C99.3852 101.284 98.73 100.628 97.9292 100.628H94.3622C93.525 100.628 92.9062 101.284 92.9062 102.084Z" fill="white"/>
</g>
<defs>
<clipPath id="clip0_3897:57254">
<rect width="68.4655" height="95" fill="white" transform="translate(45.5898 33)"/>
</clipPath>
</defs>
</svg>
