<svg width="130" height="44" viewBox="0 0 130 44" fill="none" xmlns="http://www.w3.org/2000/svg">
<path d="M0 0H130V44H5C2.23858 44 0 41.7614 0 39V0Z" fill="#FF790C"/>
<path d="M31.598 31.6808L38.8175 24.4613C39.0249 24.254 39.1387 23.9816 39.1387 23.6889C39.1387 23.3963 39.0249 23.1198 38.8175 22.9166L38.1631 22.254C37.9557 22.0467 37.6834 21.9328 37.3907 21.9328C37.098 21.9328 36.8135 22.0467 36.6062 22.254L32.3826 26.4694L32.3826 13.0833C32.3826 12.4776 31.911 12.002 31.3053 12.002L30.3785 12.002C29.7728 12.002 29.2566 12.4776 29.2566 13.0833L29.2566 26.5182L25.0086 22.254C24.8013 22.0467 24.533 21.9328 24.2403 21.9328C23.9476 21.9328 23.6753 22.0467 23.472 22.254L22.8175 22.9085C22.6102 23.1158 22.5005 23.3881 22.5005 23.6808C22.5005 23.9735 22.6143 24.2499 22.8216 24.4532L30.0452 31.6767C30.2525 31.8841 30.5289 31.9979 30.8216 31.9979C31.1143 32.002 31.3907 31.8881 31.598 31.6808Z" fill="white"/>
<path d="M60.7656 27.2188L60.3281 28.5938C59.6198 28.6042 58.8516 28.6094 58.0234 28.6094C55.237 28.6094 53.3984 28.5573 52.5078 28.4531C51.6224 28.349 50.8385 28.1016 50.1562 27.7109C49.4792 27.3203 48.888 26.7344 48.3828 25.9531C48.237 27.1458 48.0026 28.1432 47.6797 28.9453L46.4922 28.0938C47.0547 26.6094 47.2995 24.5182 47.2266 21.8203H48.5391L48.5078 23.7734C48.5078 23.8099 48.5833 23.9792 48.7344 24.2812C48.8854 24.5781 49.0599 24.8464 49.2578 25.0859V20.9609H46.5703V19.6641H49.2578V17.9062H46.9375V16.6094H49.2578V14.8672H50.6172V16.6094H52.7188V17.9062H50.6172V19.6641H53.0078V20.9609H50.6172V22.7188H52.7188V24.0156H50.6172V26.4453C51.5182 27.0026 52.7682 27.2812 54.3672 27.2812C56.7526 27.2812 58.8854 27.2604 60.7656 27.2188ZM60.1094 15.1719C60.1354 17.7448 60.0208 19.2995 59.7656 19.8359C59.5156 20.3724 58.9609 20.6406 58.1016 20.6406C57.8464 20.6406 57.4922 20.625 57.0391 20.5938L56.6016 19.2656C56.8307 19.2865 57.0885 19.2969 57.375 19.2969C57.9531 19.2969 58.2995 19.2656 58.4141 19.2031C58.5286 19.1406 58.6172 18.8984 58.6797 18.4766C58.7474 18.0547 58.7812 17.3776 58.7812 16.4453H56.7969C56.6979 18.3828 55.8542 19.9193 54.2656 21.0547L53.3203 20.0469C54.6589 19.1302 55.3698 17.9297 55.4531 16.4453H53.5156V15.1719H60.1094ZM59.9453 26.2109H53.9141V21.4844H59.9453V26.2109ZM58.5078 24.9141V22.7969H55.3438V24.9141H58.5078ZM68.1406 15.2969C67.6875 16.2344 67.1484 17.0755 66.5234 17.8203C67.1536 19.1589 67.4688 21.1068 67.4688 23.6641C67.4688 24.7578 67.4115 25.7318 67.2969 26.5859C67.1875 27.4401 66.9583 27.9948 66.6094 28.25C66.2656 28.5104 65.9766 28.6615 65.7422 28.7031C65.513 28.75 64.974 28.776 64.125 28.7812L63.5938 27.3594C63.8333 27.3802 64.0807 27.3906 64.3359 27.3906C65.0339 27.3906 65.4661 27.349 65.6328 27.2656C65.7995 27.1771 65.9062 26.7839 65.9531 26.0859C66.0052 25.388 66.0312 24.7292 66.0312 24.1094C66.0312 23.6406 66.0182 23.1094 65.9922 22.5156C65.2682 23.5365 64.3464 24.4375 63.2266 25.2188L62.4609 24.0156C63.9609 22.9583 65.0807 21.8021 65.8203 20.5469C65.7786 20.0521 65.651 19.5286 65.4375 18.9766C64.625 19.7266 63.8776 20.276 63.1953 20.625L62.4297 19.4219C63.2839 18.9375 64.0677 18.362 64.7812 17.6953C64.2448 16.8672 63.6641 16.1849 63.0391 15.6484L64.0938 14.75C64.6146 15.2083 65.1693 15.8177 65.7578 16.5781C66.1536 16.0417 66.5208 15.4323 66.8594 14.75L68.1406 15.2969ZM76.5078 28.4141H67.7266V27.0078H71.5469V22.4766H68.5391V21.1172H71.5469V16.6406H68.4141V15.2656H76.4141V16.6406H72.9844V21.1172H75.9922V22.4766H72.9844V27.0078H76.5078V28.4141ZM92.5391 28.0938H85.7734V28.7812H84.3672V20.3672C84.0391 20.8047 83.7865 21.125 83.6094 21.3281L82.75 20.1094C84.0156 18.5208 84.9479 16.7396 85.5469 14.7656L86.8594 15.1016C86.6198 15.8359 86.3099 16.638 85.9297 17.5078H88.3984C88.2839 17.0495 87.9948 16.3021 87.5312 15.2656L88.8438 14.7812C89.3073 15.8177 89.6172 16.7266 89.7734 17.5078H92.1719V18.7969H89.5625V20.5781H91.9609V21.8438H89.5625V23.6641H91.9141V24.9297H89.5625V26.7656H92.5391V28.0938ZM88.1875 20.5781V18.7969H85.7734V20.5781H88.1875ZM88.1875 23.6641V21.8438H85.7734V23.6641H88.1875ZM88.1875 26.7656V24.9297H85.7734V26.7656H88.1875ZM83.2422 18.7031H81.8359V21.1875C82.1016 21.0729 82.474 20.8958 82.9531 20.6562L82.9375 22.1406C82.4427 22.4115 82.0755 22.599 81.8359 22.7031V27.2031C81.8359 28.2812 81.276 28.8203 80.1562 28.8203L78.9531 28.7812L78.6328 27.4062C78.8984 27.4271 79.1615 27.4375 79.4219 27.4375C79.8854 27.4375 80.1719 27.401 80.2812 27.3281C80.3906 27.25 80.4453 27.112 80.4453 26.9141V23.2812C79.8255 23.5365 79.2656 23.75 78.7656 23.9219L78.4453 22.5781C78.9505 22.4115 79.6172 22.1536 80.4453 21.8047V18.7031H78.5547V17.3906H80.4453V14.8516H81.8359V17.3906H83.2422V18.7031ZM108.555 16.8125H105.227V17.6328H103.836V16.8125H101.992V15.6797H103.836V14.8672H105.227V15.6797H108.555V16.8125ZM101.211 16.8125H99.3438V17.6328H97.9609V16.8125H94.6172V15.6797H97.9609V14.8672H99.3438V15.6797H101.211V16.8125ZM108.555 19.2031H104.125V19.9062H107.695V22.7188H99.6562L99.5625 23.3438H108.383V24.3672H99.4531L99.3438 25.0547H108.109C108.094 26.0391 108.013 26.8594 107.867 27.5156C107.727 28.1667 107.503 28.5599 107.195 28.6953C106.893 28.8359 106.297 28.8802 105.406 28.8281L105.211 28.1094L104.398 28.3203C104.253 27.7891 104 27.2292 103.641 26.6406L104.828 26.2422C105.089 26.6745 105.297 27.1016 105.453 27.5234C105.714 27.5443 105.914 27.5547 106.055 27.5547C106.315 27.5547 106.469 27.5026 106.516 27.3984C106.568 27.2943 106.63 26.8438 106.703 26.0469H97.8359L98.3125 22.7188H96.8594C96.8594 25.4635 96.4766 27.5182 95.7109 28.8828L94.6016 28.0312C95.2005 26.9531 95.5 25.5781 95.5 23.9062V18.0781H100.906C100.854 17.8802 100.737 17.6406 100.555 17.3594L102.125 17.1016C102.281 17.3724 102.435 17.6979 102.586 18.0781H108.555V19.2031ZM102.797 19.9062V19.2031H100.508V19.9062H102.797ZM99.1641 19.9062V19.2031H96.8594V19.9062H99.1641ZM106.383 21.6797V20.9453H104.125V21.6797H106.383ZM102.797 21.6797V20.9453H100.508V21.6797H102.797ZM99.1641 21.6797V20.9453H96.8594V21.6797H99.1641ZM98.9844 26.8281C98.7135 27.5052 98.2839 28.2005 97.6953 28.9141L96.5391 28.2109C97.1484 27.5339 97.5703 26.888 97.8047 26.2734L98.9844 26.8281ZM103.344 28.2734L102.047 28.4922C101.984 27.8568 101.828 27.2344 101.578 26.625L102.781 26.3672C102.995 26.7995 103.182 27.4349 103.344 28.2734ZM101.133 28.5938L99.8359 28.7969C99.7682 28.0573 99.6406 27.3646 99.4531 26.7188L100.734 26.4922C100.953 27.2109 101.086 27.9115 101.133 28.5938Z" fill="white"/>
</svg>
