<svg width="130" height="44" viewBox="0 0 130 44" fill="none" xmlns="http://www.w3.org/2000/svg">
<path d="M0 0H130V44H5C2.23858 44 0 41.7614 0 39V0Z" fill="#FF790C"/>
<path d="M28.098 31.6808L35.3175 24.4613C35.5249 24.254 35.6387 23.9816 35.6387 23.6889C35.6387 23.3963 35.5249 23.1198 35.3175 22.9166L34.6631 22.254C34.4557 22.0467 34.1834 21.9328 33.8907 21.9328C33.598 21.9328 33.3135 22.0467 33.1062 22.254L28.8826 26.4694L28.8826 13.0833C28.8826 12.4776 28.411 12.002 27.8053 12.002L26.8785 12.002C26.2728 12.002 25.7566 12.4776 25.7566 13.0833L25.7566 26.5182L21.5086 22.254C21.3013 22.0467 21.033 21.9328 20.7403 21.9328C20.4476 21.9328 20.1753 22.0467 19.972 22.254L19.3175 22.9085C19.1102 23.1158 19.0005 23.3881 19.0005 23.6808C19.0005 23.9735 19.1143 24.2499 19.3216 24.4532L26.5452 31.6767C26.7525 31.8841 27.0289 31.9979 27.3216 31.9979C27.6143 32.002 27.8907 31.8881 28.098 31.6808Z" fill="white"/>
<path d="M53.0859 28H51.2109V22.6875H45.3906V28H43.5156V15.8984H45.3906V21.0391H51.2109V15.8984H53.0859V28ZM55.3438 22.1016C55.3438 20.1901 55.8776 18.6458 56.9453 17.4688C58.0182 16.2865 59.4635 15.6953 61.2812 15.6953C62.9844 15.6953 64.3516 16.2682 65.3828 17.4141C66.4141 18.5599 66.9297 20.0286 66.9297 21.8203C66.9297 23.7214 66.4036 25.2604 65.3516 26.4375C64.2995 27.6146 62.8776 28.2031 61.0859 28.2031C59.3776 28.2031 57.9922 27.6354 56.9297 26.5C55.8724 25.3646 55.3438 23.8984 55.3438 22.1016ZM57.3125 21.9688C57.3125 23.3021 57.6536 24.401 58.3359 25.2656C59.0182 26.125 59.9401 26.5547 61.1016 26.5547C62.3203 26.5547 63.2682 26.1458 63.9453 25.3281C64.6224 24.5052 64.9609 23.3958 64.9609 22C64.9609 20.5729 64.6328 19.4427 63.9766 18.6094C63.3255 17.776 62.3958 17.3594 61.1875 17.3594C60.0104 17.3594 59.0703 17.7917 58.3672 18.6562C57.6641 19.5208 57.3125 20.625 57.3125 21.9688ZM76.8125 17.5078H73.3359V28H71.4531V17.5078H67.9844V15.8984H76.8125V17.5078ZM82.0625 25.4922C82.9896 26.2474 84.0807 26.625 85.3359 26.625C86.9401 26.625 87.7422 26.0755 87.7422 24.9766C87.7422 24.6589 87.6536 24.3724 87.4766 24.1172C87.2995 23.862 87.0599 23.6406 86.7578 23.4531C86.4609 23.2604 85.8698 22.9531 84.9844 22.5312C83.8958 22.0104 83.1354 21.4818 82.7031 20.9453C82.2708 20.4089 82.0547 19.7786 82.0547 19.0547C82.0547 18.013 82.4661 17.1927 83.2891 16.5938C84.112 15.9948 85.1641 15.6953 86.4453 15.6953C87.6589 15.6953 88.5755 15.8438 89.1953 16.1406V18.0625C88.4505 17.5469 87.5208 17.2891 86.4062 17.2891C85.6927 17.2891 85.1172 17.4323 84.6797 17.7188C84.2422 18.0052 84.0234 18.3984 84.0234 18.8984C84.0234 19.3516 84.1823 19.724 84.5 20.0156C84.8229 20.3073 85.5 20.6979 86.5312 21.1875C87.7344 21.75 88.5651 22.3151 89.0234 22.8828C89.4818 23.4453 89.7109 24.0938 89.7109 24.8281C89.7109 25.9219 89.3151 26.7578 88.5234 27.3359C87.7318 27.9141 86.6354 28.2031 85.2344 28.2031C84.7188 28.2031 84.1458 28.1406 83.5156 28.0156C82.8854 27.8906 82.401 27.724 82.0625 27.5156V25.4922ZM91.9766 19.9375C92.8568 19.4167 93.875 19.1562 95.0312 19.1562C97.2135 19.1562 98.3047 20.2839 98.3047 22.5391V28H96.5234V26.6875H96.4844C95.8958 27.6979 95.0208 28.2031 93.8594 28.2031C93.0104 28.2031 92.3411 27.974 91.8516 27.5156C91.3672 27.0573 91.125 26.4401 91.125 25.6641C91.125 24.0391 92.0911 23.0911 94.0234 22.8203L96.5312 22.4766C96.5312 21.1901 95.9661 20.5469 94.8359 20.5469C93.7995 20.5469 92.8464 20.8828 91.9766 21.5547V19.9375ZM94.625 23.9844C94 24.0677 93.5573 24.2266 93.2969 24.4609C93.0417 24.6953 92.9141 25.0391 92.9141 25.4922C92.9141 25.8724 93.0521 26.1849 93.3281 26.4297C93.6042 26.6693 93.9583 26.7891 94.3906 26.7891C95.0052 26.7891 95.5156 26.5729 95.9219 26.1406C96.3281 25.7031 96.5312 25.1536 96.5312 24.4922V23.7266L94.625 23.9844ZM100.719 28V15.2109H102.555V28H100.719ZM112.375 24.1719H106.438C106.516 25.9167 107.404 26.7891 109.102 26.7891C110.06 26.7891 110.932 26.5026 111.719 25.9297V27.4453C110.948 27.9505 109.935 28.2031 108.68 28.2031C107.398 28.2031 106.396 27.8125 105.672 27.0312C104.948 26.25 104.586 25.1562 104.586 23.75C104.586 22.4167 104.974 21.3177 105.75 20.4531C106.531 19.5885 107.508 19.1562 108.68 19.1562C109.846 19.1562 110.753 19.526 111.398 20.2656C112.049 21 112.375 22.013 112.375 23.3047V24.1719ZM110.594 22.8359C110.589 22.0964 110.419 21.5286 110.086 21.1328C109.753 20.737 109.279 20.5391 108.664 20.5391C108.107 20.5391 107.622 20.75 107.211 21.1719C106.799 21.5885 106.544 22.1432 106.445 22.8359H110.594Z" fill="white"/>
</svg>
