<svg width="34" height="34" viewBox="0 0 34 34" fill="none" xmlns="http://www.w3.org/2000/svg">
<path d="M33.2876 8.74C32.899 7.26667 31.7495 6.11714 30.2762 5.71238C27.621 5 17 5 17 5C17 5 6.37905 5 3.72381 5.71238C2.26667 6.10095 1.11714 7.26667 0.712381 8.74C-3.86011e-07 11.4114 0 16.9648 0 16.9648C0 16.9648 -3.86011e-07 22.5343 0.712381 25.1895C1.10095 26.6628 2.25048 27.8124 3.72381 28.2171C6.37905 28.9295 17 28.9295 17 28.9295C17 28.9295 27.621 28.9295 30.2762 28.2171C31.7333 27.8286 32.8829 26.6628 33.2876 25.1895C34 22.5181 34 16.9648 34 16.9648C34 16.9648 34 11.4114 33.2876 8.74ZM13.5352 22.0324V11.9133L22.4238 16.9648L13.5352 22.0324Z" fill="white"/>
</svg>
