<svg width="34" height="34" viewBox="0 0 34 34" fill="none" xmlns="http://www.w3.org/2000/svg">
<path d="M24.7965 0H9.20347C4.12859 0 0 4.12859 0 9.20347V24.7967C0 29.8713 4.12859 33.9999 9.20347 33.9999H24.7967C29.8713 33.9999 33.9999 29.8713 33.9999 24.7967V9.20347C33.9999 4.12859 29.8713 0 24.7965 0V0ZM32.0067 24.7967C32.0067 28.7723 28.7723 32.0067 24.7965 32.0067H9.20347C5.22767 32.0067 1.99322 28.7723 1.99322 24.7967V9.20347C1.99322 5.22767 5.22767 1.99322 9.20347 1.99322H24.7967C28.7723 1.99322 32.0067 5.22767 32.0067 9.20347V24.7967Z" fill="white"/>
<path d="M17 7.70312C11.8737 7.70312 7.70337 11.8735 7.70337 16.9997C7.70337 22.126 11.8737 26.2963 17 26.2963C22.1262 26.2963 26.2966 22.126 26.2966 16.9997C26.2966 11.8735 22.1262 7.70312 17 7.70312ZM17 24.3031C12.9731 24.3031 9.69659 21.0269 9.69659 16.9997C9.69659 12.9728 12.9731 9.69635 17 9.69635C21.0271 9.69635 24.3033 12.9728 24.3033 16.9997C24.3033 21.0269 21.0271 24.3031 17 24.3031Z" fill="white"/>
<path d="M26.5189 4.40137C25.004 4.40137 23.7719 5.63377 23.7719 7.1484C23.7719 8.66329 25.004 9.8957 26.5189 9.8957C28.0338 9.8957 29.2662 8.66329 29.2662 7.1484C29.2662 5.63351 28.0338 4.40137 26.5189 4.40137ZM26.5189 7.90222C26.1033 7.90222 25.7651 7.56396 25.7651 7.1484C25.7651 6.73259 26.1033 6.39459 26.5189 6.39459C26.9347 6.39459 27.273 6.73259 27.273 7.1484C27.273 7.56396 26.9347 7.90222 26.5189 7.90222Z" fill="white"/>
</svg>
