<?xml version="1.0" encoding="utf-8"?>
<!-- Generator: Adobe Illustrator 25.2.1, SVG Export Plug-In . SVG Version: 6.00 Build 0)  -->
<svg version="1.1" id="圖層_1" xmlns="http://www.w3.org/2000/svg" xmlns:xlink="http://www.w3.org/1999/xlink" x="0px" y="0px"
	 viewBox="0 0 30 30" style="enable-background:new 0 0 30 30;" xml:space="preserve">
<style type="text/css">
	.st0{fill:url(#SVGID_1_);}
	.st1{fill:url(#SVGID_2_);}
	.st2{fill:#FFFFFF;}
</style>
<radialGradient id="SVGID_1_" cx="-295.6222" cy="425.6944" r="0.9992" gradientTransform="matrix(1.820437e-15 -29.73 -27.6585 -1.693595e-15 11782.0342 -8756.5615)" gradientUnits="userSpaceOnUse">
	<stop  offset="0" style="stop-color:#FFDD55"/>
	<stop  offset="0.1" style="stop-color:#FFDD55"/>
	<stop  offset="0.5" style="stop-color:#FF543E"/>
	<stop  offset="1" style="stop-color:#C837AB"/>
</radialGradient>
<path class="st0" d="M15,0C8.7,0,6.9,0,6.5,0c-1.3,0.1-2.1,0.3-3,0.7C2.9,1.1,2.4,1.5,1.9,2.1C0.9,3,0.3,4.2,0.1,5.7
	C0,6.4,0,6.5,0,10.1c0,1.2,0,2.8,0,4.9c0,6.2,0,8.1,0,8.4c0.1,1.2,0.3,2,0.7,2.9c0.8,1.6,2.3,2.9,4.1,3.3C5.5,29.8,6.2,29.9,7,30
	c0.4,0,4.2,0,7.9,0s7.6,0,7.9,0c1,0,1.6-0.1,2.3-0.3c1.8-0.5,3.3-1.7,4.1-3.3c0.4-0.8,0.6-1.7,0.7-2.8c0-0.3,0-4.4,0-8.5
	s0-8.2,0-8.5c-0.1-1.2-0.3-2-0.7-2.9C28.9,3,28.5,2.4,28,1.9c-1-0.9-2.2-1.5-3.6-1.7C23.6,0.1,23.5,0,19.9,0L15,0L15,0z"/>
<radialGradient id="SVGID_2_" cx="-247.9503" cy="439.4857" r="0.9992" gradientTransform="matrix(2.6085 13.0305 53.7275 -10.7554 -22970.7285 7959.9209)" gradientUnits="userSpaceOnUse">
	<stop  offset="0" style="stop-color:#3771C8"/>
	<stop  offset="0.128" style="stop-color:#3771C8"/>
	<stop  offset="1" style="stop-color:#6600FF;stop-opacity:0"/>
</radialGradient>
<path class="st1" d="M15,0C8.7,0,6.9,0,6.5,0c-1.3,0.1-2.1,0.3-3,0.7C2.9,1.1,2.4,1.5,1.9,2.1C0.9,3,0.3,4.2,0.1,5.7
	C0,6.4,0,6.5,0,10.1c0,1.2,0,2.8,0,4.9c0,6.2,0,8.1,0,8.4c0.1,1.2,0.3,2,0.7,2.9c0.8,1.6,2.3,2.9,4.1,3.3C5.5,29.8,6.2,29.9,7,30
	c0.4,0,4.2,0,7.9,0s7.6,0,7.9,0c1,0,1.6-0.1,2.3-0.3c1.8-0.5,3.3-1.7,4.1-3.3c0.4-0.8,0.6-1.7,0.7-2.8c0-0.3,0-4.4,0-8.5
	s0-8.2,0-8.5c-0.1-1.2-0.3-2-0.7-2.9C28.9,3,28.5,2.4,28,1.9c-1-0.9-2.2-1.5-3.6-1.7C23.6,0.1,23.5,0,19.9,0L15,0L15,0z"/>
<path class="st2" d="M15,3.9c-3,0-3.4,0-4.6,0.1c-1.2,0-2,0.2-2.7,0.5C7,4.8,6.4,5.2,5.8,5.8c-0.6,0.6-1,1.2-1.3,2
	C4.2,8.4,4,9.2,4,10.4c0,1.2-0.1,1.6-0.1,4.6s0,3.4,0.1,4.6c0,1.2,0.2,2,0.5,2.7c0.3,0.7,0.7,1.3,1.3,2c0.6,0.6,1.2,1,2,1.3
	c0.7,0.3,1.5,0.5,2.7,0.5c1.2,0,1.6,0.1,4.6,0.1s3.4,0,4.6-0.1c1.2,0,2-0.2,2.7-0.5c0.7-0.3,1.3-0.7,2-1.3c0.6-0.6,1-1.2,1.3-2
	c0.3-0.7,0.5-1.5,0.5-2.7c0-1.2,0.1-1.6,0.1-4.6s0-3.4-0.1-4.6c0-1.2-0.3-2-0.5-2.7c-0.3-0.7-0.7-1.3-1.3-2c-0.6-0.6-1.2-1-2-1.3
	C21.5,4.2,20.7,4,19.6,4C18.4,3.9,18,3.9,15,3.9z M14,5.9c0.3,0,0.6,0,1,0c3,0,3.3,0,4.5,0.1c1.1,0,1.7,0.2,2.1,0.4
	c0.5,0.2,0.9,0.4,1.3,0.8c0.4,0.4,0.6,0.8,0.8,1.3c0.2,0.4,0.3,1,0.4,2.1c0,1.2,0.1,1.5,0.1,4.5c0,3,0,3.3-0.1,4.5
	c0,1.1-0.2,1.7-0.4,2.1c-0.2,0.5-0.4,0.9-0.8,1.3c-0.4,0.4-0.8,0.6-1.3,0.8c-0.4,0.2-1,0.3-2.1,0.4c-1.2,0-1.5,0.1-4.5,0.1
	c-3,0-3.3,0-4.5-0.1c-1.1,0-1.7-0.2-2.1-0.4c-0.5-0.2-0.9-0.4-1.3-0.8c-0.4-0.4-0.6-0.8-0.8-1.3c-0.2-0.4-0.3-1-0.4-2.1
	c0-1.2-0.1-1.5-0.1-4.5c0-3,0-3.3,0.1-4.5c0-1.1,0.2-1.7,0.4-2.1C6.6,8,6.8,7.6,7.2,7.2C7.6,6.8,8,6.6,8.5,6.4C8.9,6.2,9.4,6,10.5,6
	C11.5,5.9,11.9,5.9,14,5.9z M20.9,7.7c-0.7,0-1.3,0.6-1.3,1.3c0,0.7,0.6,1.3,1.3,1.3c0.7,0,1.3-0.6,1.3-1.3
	C22.2,8.3,21.6,7.7,20.9,7.7z M15,9.3c-3.1,0-5.7,2.5-5.7,5.7c0,3.2,2.5,5.7,5.7,5.7c3.1,0,5.7-2.5,5.7-5.7
	C20.7,11.9,18.1,9.3,15,9.3z M15,11.3c2,0,3.7,1.7,3.7,3.7c0,2-1.7,3.7-3.7,3.7c-2,0-3.7-1.7-3.7-3.7C11.3,13,13,11.3,15,11.3z"/>
</svg>
