<svg width="16" height="16" viewBox="0 0 16 16" fill="none" xmlns="http://www.w3.org/2000/svg">
<path d="M5.875 4.40626L9.33933 7.82293C9.43831 7.92085 9.43831 8.07918 9.33933 8.1771L5.875 11.5938C5.77602 11.6917 5.61596 11.6917 5.51698 11.5938L5.36746 11.4458C5.26848 11.3479 5.26848 11.1896 5.36746 11.0917L8.14735 8.35418H2.25272C2.11372 8.35418 2 8.24168 2 8.10418V7.89585C2 7.75835 2.11372 7.64585 2.25272 7.64585H8.14735L5.36957 4.90835C5.27058 4.81043 5.27058 4.6521 5.36957 4.55418L5.51909 4.40626C5.61596 4.30835 5.77602 4.30835 5.875 4.40626Z" fill="#E50012"/>
<path d="M12.7826 11V5C12.7826 4.44792 12.3298 4 11.7717 4H8.99185C8.85286 4 8.73914 4.1125 8.73914 4.25V4.41667C8.73914 4.55417 8.85286 4.66667 8.99185 4.66667H11.7717C11.9571 4.66667 12.1087 4.81667 12.1087 5V11C12.1087 11.1833 11.9571 11.3333 11.7717 11.3333H8.99185C8.85286 11.3333 8.73914 11.4458 8.73914 11.5833V11.75C8.73914 11.8875 8.85286 12 8.99185 12H11.7717C12.3298 12 12.7826 11.5521 12.7826 11Z" fill="#002154"/>
</svg>
