<svg width="16" height="16" viewBox="0 0 16 16" fill="none" xmlns="http://www.w3.org/2000/svg">
<path d="M12.9312 12.1578L10.5602 9.78678C10.5153 9.74186 10.4567 9.71842 10.3942 9.71842H10.1364C10.7516 9.00557 11.1246 8.07788 11.1246 7.0623C11.1246 4.81827 9.30633 3 7.0623 3C4.81827 3 3 4.81827 3 7.0623C3 9.30633 4.81827 11.1246 7.0623 11.1246C8.07788 11.1246 9.00557 10.7516 9.71842 10.1364V10.3942C9.71842 10.4567 9.74381 10.5153 9.78678 10.5602L12.1578 12.9312C12.2495 13.0229 12.398 13.0229 12.4898 12.9312L12.9312 12.4898C13.0229 12.398 13.0229 12.2495 12.9312 12.1578ZM7.0623 10.1871C5.33582 10.1871 3.93745 8.78878 3.93745 7.0623C3.93745 5.33582 5.33582 3.93745 7.0623 3.93745C8.78878 3.93745 10.1871 5.33582 10.1871 7.0623C10.1871 8.78878 8.78878 10.1871 7.0623 10.1871Z" fill="#002154"/>
<path d="M12.9371 12.23L10.7695 10.0625C10.7285 10.0214 10.6749 10 10.6178 10H10.3874C10.2678 10.1393 10.1375 10.2696 10 10.3892V10.6178C10 10.6749 10.0232 10.7285 10.0625 10.7695L12.23 12.9371C12.3139 13.021 12.4496 13.021 12.5336 12.9371L12.9371 12.5336C13.021 12.4496 13.021 12.3139 12.9371 12.23Z" fill="#E50012"/>
</svg>
