<?xml version="1.0" encoding="utf-8"?>
<!-- Generator: Adobe Illustrator 25.0.1, SVG Export Plug-In . SVG Version: 6.00 Build 0)  -->
<svg version="1.1" id="圖層_1" xmlns="http://www.w3.org/2000/svg" xmlns:xlink="http://www.w3.org/1999/xlink" x="0px" y="0px"
	 viewBox="0 0 160 160" style="enable-background:new 0 0 160 160;" xml:space="preserve">
<style type="text/css">
	.st0{fill:#006DC9;}
	.st1{fill:#FFFFFF;}
</style>
<g>
	<path class="st0" d="M80,0L80,0c44.2,0,80,35.8,80,80l0,0c0,44.2-35.8,80-80,80l0,0c-44.2,0-80-35.8-80-80l0,0C0,35.8,35.8,0,80,0z
		"/>
	<path class="st1" d="M80,111.7c3,0,5.4-2.4,5.4-5.4s-2.4-5.4-5.4-5.4s-5.4,2.4-5.4,5.4C74.6,109.3,77,111.7,80,111.7z"/>
	<path class="st1" d="M80,25c-30.4,0-55,24.6-55,55s24.6,55,55,55s55-24.6,55-55S110.4,25,80,25z M80,126.4
		c-25.7,0-46.4-20.8-46.4-46.4c0-25.7,20.8-46.4,46.4-46.4c25.7,0,46.4,20.8,46.4,46.4C126.4,105.7,105.7,126.4,80,126.4z"/>
	<path class="st1" d="M80,52.6c-9.5,0-17.2,7.7-17.2,17.2c0,2.4,1.9,4.3,4.3,4.3s4.3-1.9,4.3-4.3c0-4.7,3.8-8.6,8.6-8.6
		s8.6,3.8,8.6,8.6c0,4.7-3.8,8.6-8.6,8.6c-2.4,0-4.3,1.9-4.3,4.3v10.7c0,2.4,1.9,4.3,4.3,4.3s4.3-1.9,4.3-4.3v-7
		c7.4-1.9,12.9-8.7,12.9-16.7C97.2,60.3,89.5,52.6,80,52.6z"/>
</g>
</svg>
