<?xml version="1.0" encoding="utf-8"?>
<!-- Generator: Adobe Illustrator 25.0.1, SVG Export Plug-In . SVG Version: 6.00 Build 0)  -->
<svg version="1.1" id="圖層_1" xmlns="http://www.w3.org/2000/svg" xmlns:xlink="http://www.w3.org/1999/xlink" x="0px" y="0px"
	 viewBox="0 0 65 65" style="enable-background:new 0 0 65 65;" xml:space="preserve">
<style type="text/css">
	.st0{clip-path:url(#SVGID_2_);}
	.st1{fill:#424242;}
</style>
<g>
	<g>
		<defs>
			<rect id="SVGID_1_" y="1.1" width="65" height="62.9"/>
		</defs>
		<clipPath id="SVGID_2_">
			<use xlink:href="#SVGID_1_"  style="overflow:visible;"/>
		</clipPath>
		<g class="st0">
			<path class="st1" d="M38.9,42.7l-2.8,2.7c-2.6-4.2-8.5-7.1-15.2-7.1c-9.1,0-16,5-16,11.7v10.4H1V50c0-8.9,8.6-15.5,19.9-15.5
				C28.6,34.5,35.3,37.8,38.9,42.7z"/>
			<path class="st1" d="M34.3,8.9C31.5,4,26.5,1.1,21.2,1.1c-5.4,0-10.4,3-13.1,7.8H0l2.3,15.5h5.3c2.6,5.2,7.8,8.5,13.5,8.5
				c5.7,0,10.8-3.3,13.5-8.5H40l2.4-15.5H34.3z M21.2,5c3.2,0,6.2,1.5,8.3,3.9h-4.7l-3.5,4.9l-3.6-4.9h-4.9C14.9,6.4,17.9,5,21.2,5z
				 M5.8,20.4l-1.2-7.6h11.1l2.2,3.1l-2.4,4.5H5.8z M21.2,28.9c-3.5,0-6.7-1.8-8.9-4.6h5.6l3.4-6.3l3.4,6.3h5.4
				C27.9,27.2,24.7,28.9,21.2,28.9z M36.8,20.4H27l-2.4-4.5l2.2-3.1H38L36.8,20.4z"/>
			<path class="st1" d="M63.9,37.4l-1.4,1.4l-8.1-8.1l1.4-1.4c1.5-1.5,3.7-1.5,5.2,0l3,3C65.3,33.7,65.3,35.9,63.9,37.4z"/>
			<path class="st1" d="M40.4,60.2l-11.2,3.7L33,52.8l4.6,4.6L40.4,60.2z"/>
			<path class="st1" d="M61.4,39.8L41.8,59.4l-0.3-0.3l-3.9-3.9l-3.9-3.9l6.5-6.4l13.1-13.2L61.4,39.8z"/>
		</g>
	</g>
</g>
</svg>
