<?xml version="1.0" encoding="utf-8"?>
<!-- Generator: Adobe Illustrator 25.0.1, SVG Export Plug-In . SVG Version: 6.00 Build 0)  -->
<svg version="1.1" id="圖層_1" xmlns="http://www.w3.org/2000/svg" xmlns:xlink="http://www.w3.org/1999/xlink" x="0px" y="0px"
	 viewBox="0 0 65 65" style="enable-background:new 0 0 65 65;" xml:space="preserve">
<style type="text/css">
	.st0{clip-path:url(#SVGID_2_);}
	.st1{fill:#424242;}
</style>
<g>
	<g>
		<defs>
			<rect id="SVGID_1_" x="4.1" width="56.7" height="65"/>
		</defs>
		<clipPath id="SVGID_2_">
			<use xlink:href="#SVGID_1_"  style="overflow:visible;"/>
		</clipPath>
		<g class="st0">
			<path class="st1" d="M40.2,3.3C38.1,1.1,35.4,0,32.6,0c-2.8,0-5.7,1.2-7.6,3.3L4.1,23.5v0.8v5.3V54c0,6.1,4.3,11,9.5,11h37.8
				c5.3,0,9.5-5,9.5-11.1V29.4v-5.2v-0.8L40.2,3.3z M27.9,6.4c1.2-1.3,2.9-2,4.6-2c1.8,0,3.3,0.7,4.6,2.1l18.7,18.2L37.1,43.5
				c-1.2,1.3-3,2-4.7,2c-1.8,0-3.5-0.7-4.7-2L8.9,24.8L27.9,6.4z M51.4,60.6H13.6c-2.8,0-5.1-3-5.1-6.7V30.6l16,16
				c2.1,2.1,4.8,3.3,7.8,3.3s5.7-1.1,7.8-3.3l16.3-16.3v23.5C56.5,57.6,54.1,60.6,51.4,60.6z"/>
		</g>
	</g>
</g>
</svg>
