<svg width="41" height="41" viewBox="0 0 41 41" fill="none" xmlns="http://www.w3.org/2000/svg">
<g clip-path="url(#clip0_4062_59036)">
<path d="M34.906 36.0543L31.1793 26.8819C31.5609 26.4154 31.8427 25.8756 32.0074 25.2959C32.5075 23.4129 32.3512 23.663 33.7185 22.2723C34.2604 21.7168 34.6496 21.0307 34.8481 20.2805C35.0466 19.5303 35.0477 18.7415 34.8513 17.9907C34.3513 16.1 34.3513 16.3891 34.8513 14.4983C35.0476 13.7463 35.0464 12.9564 34.8479 12.205C34.6495 11.4536 34.2604 10.7661 33.7185 10.209C32.3512 8.82612 32.5075 9.06051 32.0074 7.19321C31.8135 6.44172 31.4245 5.75479 30.8799 5.20189C30.3352 4.649 29.6542 4.24977 28.9057 4.04458C27.0853 3.55237 27.2962 3.68519 25.9524 2.3101C25.4096 1.75602 24.7289 1.35675 23.9804 1.15349C23.2319 0.950229 22.4427 0.95033 21.6943 1.15378C19.8583 1.66163 20.1239 1.65381 18.2957 1.15378C17.5485 0.949318 16.7602 0.948731 16.0128 1.15208C15.2653 1.35543 14.586 1.7553 14.0454 2.3101C12.6938 3.693 12.9281 3.54455 11.0921 4.04458C10.344 4.25049 9.66333 4.64997 9.11878 5.20275C8.57423 5.75553 8.18501 6.44208 7.99034 7.19321C7.49031 9.06833 7.64658 8.82612 6.2793 10.209C5.73733 10.7661 5.3483 11.4536 5.14983 12.205C4.95137 12.9564 4.9502 13.7463 5.14642 14.4983C5.64645 16.3891 5.64645 16.0922 5.14642 17.9907C4.95008 18.7415 4.95122 19.5303 5.14972 20.2805C5.34822 21.0307 5.73735 21.7168 6.2793 22.2723C7.65439 23.663 7.49813 23.4208 7.99034 25.2881C8.1532 25.8709 8.43521 26.4136 8.81852 26.8819L5.09173 36.0543C5.01505 36.2439 4.98604 36.4494 5.00725 36.6528C5.02845 36.8561 5.09923 37.0512 5.21337 37.2209C5.3275 37.3906 5.48152 37.5296 5.66192 37.6259C5.84231 37.7222 6.04357 37.7728 6.24805 37.7732L10.4124 37.6169L13.2485 40.6093C13.3634 40.7327 13.5024 40.831 13.657 40.8982C13.8116 40.9654 13.9784 41.0001 14.147 41C14.3971 41.0021 14.6421 40.9286 14.8498 40.7892C15.0575 40.6498 15.2183 40.451 15.3111 40.2187L19.4129 30.1399C19.795 30.0072 20.2106 30.0072 20.5927 30.1399L24.6867 40.2187C24.7795 40.451 24.9403 40.6498 25.148 40.7892C25.3557 40.9286 25.6007 41.0021 25.8508 41C26.0194 41.0001 26.1862 40.9654 26.3407 40.8982C26.4953 40.831 26.6344 40.7327 26.7493 40.6093L29.5854 37.6169L33.7497 37.781C33.9552 37.7811 34.1575 37.7306 34.3388 37.6339C34.5201 37.5372 34.6747 37.3972 34.7891 37.2265C34.9034 37.0558 34.9739 36.8595 34.9943 36.6551C35.0147 36.4506 34.9844 36.2443 34.906 36.0543V36.0543ZM13.7251 37.4841L11.4515 35.0777L8.13879 35.2027L10.9124 28.3664C10.9708 28.3957 11.0308 28.4218 11.0921 28.4445C12.8031 28.9055 12.6938 28.8039 13.561 29.6868C14.306 30.4508 15.3086 30.9103 16.3737 30.9759L13.7251 37.4841ZM22.3272 28.2101C21.6304 27.77 20.8231 27.5363 19.9989 27.5363C19.1747 27.5363 18.3674 27.77 17.6706 28.2101C17.3101 28.4387 16.8819 28.5363 16.458 28.4865C16.034 28.4367 15.6401 28.2426 15.3424 27.9367C13.9829 26.5538 13.6157 26.5303 11.7484 26.0303C11.4241 25.9378 11.1296 25.7624 10.8939 25.5212C10.6582 25.28 10.4895 24.9815 10.4046 24.6552C9.77952 22.2644 9.81858 22.2957 8.06066 20.5221C7.82177 20.275 7.65033 19.9706 7.56278 19.6382C7.47523 19.3057 7.47449 18.9564 7.56063 18.6236C8.20129 16.2406 8.20129 16.2406 7.56063 13.8655C7.47449 13.5327 7.47523 13.1834 7.56278 12.8509C7.65033 12.5185 7.82177 12.2141 8.06066 11.9669C9.81077 10.1934 9.7717 10.2403 10.4046 7.82606C10.49 7.50083 10.659 7.20358 10.8947 6.96375C11.1304 6.72393 11.4247 6.54986 11.7484 6.45879C14.1548 5.8025 14.0688 5.84938 15.8268 4.06021C16.0577 3.82398 16.3471 3.65324 16.6655 3.56539C16.984 3.47755 17.32 3.47575 17.6394 3.56018C20.0223 4.21647 19.9754 4.21647 22.3506 3.56018C22.6712 3.47591 23.0084 3.47777 23.328 3.56557C23.6476 3.65337 23.9384 3.824 24.171 4.06021C25.9133 5.84938 25.8821 5.81032 28.2494 6.45879C28.574 6.55054 28.869 6.72579 29.1047 6.96706C29.3405 7.20834 29.509 7.50721 29.5932 7.83388C30.2183 10.2246 30.1792 10.1934 31.9371 11.9591C32.1754 12.2067 32.3464 12.5111 32.4339 12.8434C32.5214 13.1757 32.5225 13.5248 32.4371 13.8577C31.7965 16.2485 31.7965 16.2485 32.4371 18.6236C32.5233 18.9564 32.5225 19.3057 32.435 19.6382C32.3474 19.9706 32.176 20.275 31.9371 20.5221C30.187 22.2957 30.2261 22.2488 29.5932 24.6552C29.5082 24.9815 29.3396 25.28 29.1039 25.5212C28.8682 25.7624 28.5737 25.9378 28.2494 26.0303C26.3977 26.5225 26.0305 26.5381 24.6554 27.9367C24.3585 28.2439 23.9644 28.4389 23.5401 28.4888C23.1157 28.5386 22.6872 28.4401 22.3272 28.2101ZM28.5463 35.0777L26.2727 37.4841L23.6241 30.9603C24.6867 30.8974 25.6885 30.4438 26.4368 29.6868C27.3275 28.7805 27.2024 28.8898 28.9057 28.4445C28.967 28.4218 29.0269 28.3957 29.0854 28.3664L31.859 35.2027L28.5463 35.0777Z" fill="#006DC9"/>
<path d="M26.02 10.998C23.5539 10.998 21.4997 12.7966 21.097 15.1521H18.9004C18.4978 12.7982 16.4435 10.998 13.9774 10.998C11.2232 10.998 8.98242 13.2413 8.98242 15.9984C8.98242 18.7554 11.2232 20.9987 13.9774 20.9987C16.4435 20.9987 18.4978 19.2001 18.9004 16.8446H21.097C21.4997 19.2001 23.5539 20.9987 26.02 20.9987C28.7742 20.9987 31.015 18.7554 31.015 15.9984C31.015 13.2413 28.7742 10.998 26.02 10.998ZM13.9774 19.3062C13.1013 19.3053 12.2614 18.9564 11.6419 18.3363C11.0225 17.7162 10.674 16.8754 10.673 15.9984C10.674 15.1213 11.0225 14.2805 11.6419 13.6604C12.2614 13.0403 13.1013 12.6914 13.9774 12.6905C14.8535 12.6914 15.6934 13.0403 16.3129 13.6604C16.9323 14.2805 17.2808 15.1213 17.2818 15.9984C17.2808 16.8754 16.9323 17.7162 16.3129 18.3363C15.6934 18.9564 14.8535 19.3053 13.9774 19.3062V19.3062ZM26.02 19.3062C25.144 19.3053 24.3041 18.9564 23.6846 18.3363C23.0651 17.7162 22.7166 16.8754 22.7157 15.9984C22.7166 15.1213 23.0651 14.2805 23.6846 13.6604C24.3041 13.0403 25.144 12.6914 26.02 12.6905C26.8961 12.6914 27.736 13.0403 28.3555 13.6604C28.975 14.2805 29.3234 15.1213 29.3244 15.9984C29.3234 16.8754 28.975 17.7162 28.3555 18.3363C27.736 18.9564 26.8961 19.3053 26.02 19.3062Z" fill="#E50012"/>
</g>
<defs>
<clipPath id="clip0_4062_59036">
<rect width="40" height="40" fill="white" transform="translate(0.0722656 0.5)"/>
</clipPath>
</defs>
</svg>
