<?xml version="1.0" encoding="utf-8"?>
<!-- Generator: Adobe Illustrator 25.2.1, SVG Export Plug-In . SVG Version: 6.00 Build 0)  -->
<svg version="1.1" id="圖層_1" xmlns="http://www.w3.org/2000/svg" xmlns:xlink="http://www.w3.org/1999/xlink" x="0px" y="0px"
	 viewBox="0 0 160 160" style="enable-background:new 0 0 160 160;" xml:space="preserve">
<style type="text/css">
	.st0{fill:#FFFFFF;}
</style>
<g id="icon_logIn">
	<path class="st0" d="M92.3,78.8L73.6,60.1c-0.8-0.8-2-0.8-2.8,0s-0.8,2,0,2.8L85.9,78H44.2c-1.1,0-2,0.9-2,2s0.9,2,2,2h42.1
		L70.8,97.6c-0.8,0.8-0.8,2,0,2.8c0.4,0.4,0.9,0.6,1.4,0.6s1-0.2,1.4-0.6l18.7-18.8C93.1,80.8,93.1,79.6,92.3,78.8z"/>
	<path class="st0" d="M80.2,108.5c-1.1,0-2-0.9-2-2s0.9-2,2-2c13.5,0,24.4-11,24.4-24.5S93.7,55.5,80.2,55.5c-1.1,0-2-0.9-2-2
		s0.9-2,2-2c15.7,0,28.4,12.8,28.4,28.5S95.9,108.5,80.2,108.5z"/>
	<path class="st0" d="M78.4,118.4c-11.2,0-21.8-4.8-29-13.3c-0.7-0.8-0.6-2.1,0.2-2.8c0.8-0.7,2.1-0.6,2.8,0.2
		c6.5,7.6,16,11.9,26,11.9c19,0,34.4-15.4,34.4-34.4S97.4,45.6,78.4,45.6c-10,0-19.2,4.1-25.8,11.6c-0.7,0.8-2,0.9-2.8,0.2
		s-0.9-2-0.2-2.8c7.3-8.2,17.8-13,28.8-13c21.2,0,38.4,17.2,38.4,38.4S99.6,118.4,78.4,118.4z"/>
</g>
</svg>
