<?xml version="1.0" encoding="utf-8"?>
<!-- Generator: Adobe Illustrator 25.0.1, SVG Export Plug-In . SVG Version: 6.00 Build 0)  -->
<svg version="1.1" id="圖層_1" xmlns="http://www.w3.org/2000/svg" xmlns:xlink="http://www.w3.org/1999/xlink" x="0px" y="0px"
	 viewBox="0 0 160 160" style="enable-background:new 0 0 160 160;" xml:space="preserve">
<style type="text/css">
	.st0{fill:#006DC9;}
	.st1{clip-path:url(#SVGID_2_);}
	.st2{fill:#FFFFFF;}
</style>
<g>
	<path class="st0" d="M80,0L80,0c44.2,0,80,35.8,80,80l0,0c0,44.2-35.8,80-80,80l0,0c-44.2,0-80-35.8-80-80l0,0C0,35.8,35.8,0,80,0z
		"/>
	<g>
		<g>
			<defs>
				<rect id="SVGID_1_" x="22" y="44" width="116" height="76"/>
			</defs>
			<clipPath id="SVGID_2_">
				<use xlink:href="#SVGID_1_"  style="overflow:visible;"/>
			</clipPath>
			<g class="st1">
				<path class="st2" d="M114.3,120H45.7c-13,0-23.7-10.6-23.7-23.7V67.7C22,54.6,32.7,44,45.7,44h68.6c13,0,23.7,10.6,23.7,23.7
					v28.7C138,109.4,127.3,120,114.3,120z M45.7,49.9c-9.8,0-17.8,8-17.8,17.7v28.7c0,9.8,8,17.7,17.8,17.7h68.6
					c9.8,0,17.8-8,17.8-17.7V67.7c0-9.8-8-17.7-17.8-17.7L45.7,49.9L45.7,49.9z"/>
				<path class="st2" d="M105.1,75.5l-1.9,13.2H89.6l-4-7.8l3.6-5.3L105.1,75.5L105.1,75.5z M110.3,71.1H86.9l-6.4,9.5l6.4,12.6H107
					L110.3,71.1z"/>
				<path class="st2" d="M70.7,75.5l3.6,5.3l-4,7.8H56.7l-1.9-13.2L70.7,75.5L70.7,75.5z M73.1,71.1H49.7l3.3,22h20.1l6.4-12.6
					L73.1,71.1z"/>
				<path class="st2" d="M76.8,83.6v-3.1h6.4v3.1H76.8z"/>
			</g>
		</g>
	</g>
</g>
</svg>
