<?xml version="1.0" encoding="utf-8"?>
<!-- Generator: Adobe Illustrator 25.0.1, SVG Export Plug-In . SVG Version: 6.00 Build 0)  -->
<svg version="1.1" id="圖層_1" xmlns="http://www.w3.org/2000/svg" xmlns:xlink="http://www.w3.org/1999/xlink" x="0px" y="0px"
	 viewBox="0 0 65 65" style="enable-background:new 0 0 65 65;" xml:space="preserve">
<style type="text/css">
	.st0{fill:#FBBB00;}
	.st1{fill:#518EF8;}
	.st2{fill:#28B446;}
	.st3{fill:#F14336;}
	.st4{fill:none;stroke:#9E9E9E;}
</style>
<g>
	<path class="st0" d="M22.8,36.2l-1.2,4.5l-4.5,0.1c-1.3-2.5-2.1-5.3-2.1-8.3c0-2.9,0.7-5.6,2-8l4,0.7l1.7,3.9
		c-0.4,1.1-0.6,2.2-0.6,3.4C22.1,33.8,22.3,35,22.8,36.2z"/>
	<path class="st1" d="M49.7,29.2c0.2,1.1,0.3,2.2,0.3,3.3c0,1.3-0.1,2.5-0.4,3.7c-0.9,4-3.1,7.5-6.2,10l-5-0.3l-0.7-4.4
		c2-1.2,3.6-3.1,4.5-5.3h-9.4v-6.9h9.5H49.7z"/>
	<path class="st2" d="M43.5,46.1c-3,2.4-6.8,3.9-11,3.9c-6.7,0-12.5-3.7-15.4-9.2l5.7-4.6c1.5,3.9,5.3,6.8,9.7,6.8
		c1.9,0,3.7-0.5,5.3-1.4L43.5,46.1z"/>
	<path class="st3" d="M43.7,19L38,23.7c-1.6-1-3.5-1.6-5.5-1.6c-4.6,0-8.4,2.9-9.8,7L17,24.4c2.9-5.6,8.8-9.4,15.5-9.4
		C36.7,15,40.6,16.5,43.7,19z"/>
	<path class="st4" d="M32.5,0.5L32.5,0.5c17.7,0,32,14.3,32,32l0,0c0,17.7-14.3,32-32,32l0,0c-17.7,0-32-14.3-32-32l0,0
		C0.5,14.8,14.8,0.5,32.5,0.5z"/>
</g>
</svg>
