<?xml version="1.0" encoding="utf-8"?>
<!-- Generator: Adobe Illustrator 25.2.1, SVG Export Plug-In . SVG Version: 6.00 Build 0)  -->
<svg version="1.1" id="圖層_1" xmlns="http://www.w3.org/2000/svg" xmlns:xlink="http://www.w3.org/1999/xlink" x="0px" y="0px"
	 viewBox="0 0 65 65" style="enable-background:new 0 0 65 65;" xml:space="preserve">
<style type="text/css">
	.st0{fill:#424242;}
</style>
<g>
	<path class="st0" d="M46.1,22.1h-6.8V21c0,0-0.4-0.5-0.5-0.7v-0.5c0-0.7-0.2-1.4-0.5-2.2c-0.2-0.5-0.4-1.1-0.5-1.4v-1.3L37,14.3
		c-1.1-0.5-2.2-1.1-3.4-1.4l-0.7-0.2l-0.4,0.5c-0.9,1.1-1.6,2.2-2.7,2.9c-1.3,1.3-2.2,2.3-3.1,3.6l-0.2,0.2l-0.5,2h-7.7
		c-0.5,0-1.3,0.2-1.4,0.5c-0.4,0.4-0.4,1.1-0.4,1.6l1.4,6.7c0.2,1.3,1.1,1.8,2.2,1.8h3.2v0.2l4.1,6.3l1.6,0.7
		c0.2,0.5,1.8,3.8,1.8,3.8h0.7c0,0.2,0.2,0.7,0.2,0.7h4v-4.7c0.2-0.4,3.2-5.6,4.1-7.2h4.7c1.3,0,2-0.7,2.2-2v0.2l1.6-6.8v-0.2
		C48.3,23.2,47.4,22.3,46.1,22.1z M28.7,21c0.7-1.3,1.8-2.2,2.9-3.1c0.7-0.7,1.4-1.6,2.2-2.3c0.4,0.2,1.1,0.4,1.4,0.5v0.5l0.2,0.5
		c0.2,0.4,0.4,0.7,0.5,1.3v0.2v0.2c0.2,0.2,0.2,0.5,0.4,1.1v1.6c0,0,0.4,0.5,0.5,0.7v0.2c-1.1,0.2-1.8,0.5-2.2,1.4v-0.2L33,25.8h-2
		c-0.4-0.7-1.6-2.3-1.6-2.3v0.2c-0.2-0.5-0.5-1.1-1.3-1.3C28.5,21.9,28.7,21.4,28.7,21z M20.1,30.5c0-0.4-1.1-4.9-1.3-5.9h8.4
		l0.2,0.2c0,0,1.1,1.3,1.4,2c0,0.4-0.2,0.5-0.2,0.5S27,30,26.8,30.2L20.1,30.5z M33.4,39.5v2h-1.1c-0.4-0.7-1.4-3.2-1.4-3.2
		s-1.4-0.5-1.8-0.7c-0.2-0.4-2.2-3.2-3.1-4.5h0.7c0.5,0,1.3-0.2,1.8-0.5l0.2-0.2v-0.2l2-3.1l0.4-0.7c0.4,0,1.4,0,2,0l2.3,3.8h0.2
		c0.4,0.4,0.7,0.5,1.4,0.5L33.4,39.5z M44.1,30.5h-6.7c-0.2-0.2-2.2-3.4-2.2-3.4c0.5-0.7,1.4-2,1.4-2C36.8,25,37,25,37,25h8.4
		C45.4,25.7,44.3,30.2,44.1,30.5z"/>
</g>
<g>
	<path class="st0" d="M48.3,64H16.6c-3.8,0-6.8-3.2-6.8-6.8V7.9c0-4,3.2-6.8,6.8-6.8h31.8c3.8,0,6.8,3.2,6.8,6.8V57
		C55.1,60.7,52.2,64,48.3,64z M16.6,5.5c-1.3,0-2.3,1.1-2.3,2.3v49.1c0,1.4,1.1,2.3,2.3,2.3h31.8c1.4,0,2.3-1.1,2.3-2.3v-49
		c0-1.4-1.1-2.3-2.3-2.3H16.6V5.5z"/>
</g>
<g>
	<path class="st0" d="M32.5,57.4c-1.9,0-3.5-1.6-3.5-3.5s1.6-3.5,3.5-3.5S36,52,36,53.9S34.4,57.4,32.5,57.4z M32.5,51.2
		c-1.5,0-2.7,1.2-2.7,2.7c0,1.5,1.2,2.7,2.7,2.7c1.5,0,2.7-1.2,2.7-2.7C35.2,52.4,34,51.2,32.5,51.2z"/>
</g>
</svg>
