<?xml version="1.0" encoding="utf-8"?>
<!-- Generator: Adobe Illustrator 25.0.1, SVG Export Plug-In . SVG Version: 6.00 Build 0)  -->
<svg version="1.1" id="圖層_1" xmlns="http://www.w3.org/2000/svg" xmlns:xlink="http://www.w3.org/1999/xlink" x="0px" y="0px"
	 viewBox="0 0 20 20" style="enable-background:new 0 0 20 20;" xml:space="preserve">
<style type="text/css">
	.st0{clip-path:url(#SVGID_2_);}
	.st1{fill:#424242;}
</style>
<g>
	<defs>
		<rect id="SVGID_1_" y="3.5" width="20" height="13.1"/>
	</defs>
	<clipPath id="SVGID_2_">
		<use xlink:href="#SVGID_1_"  style="overflow:visible;"/>
	</clipPath>
	<g class="st0">
		<path class="st1" d="M15.9,16.6H4.1c-2.2,0-4.1-1.8-4.1-4.1v-5c0-2.2,1.8-4.1,4.1-4.1h11.8c2.2,0,4.1,1.8,4.1,4.1v5
			C20,14.8,18.2,16.6,15.9,16.6z M4.1,4.5C2.4,4.5,1,5.9,1,7.6v5c0,1.7,1.4,3.1,3.1,3.1h11.8c1.7,0,3.1-1.4,3.1-3.1v-5
			c0-1.7-1.4-3.1-3.1-3.1H4.1z"/>
		<path class="st1" d="M8.2,8.1V7.8c0,0-0.1-0.2-0.2-0.2c0-0.1,0-0.2,0-0.2C8,7.2,7.9,7,7.8,6.8C7.8,6.6,7.7,6.5,7.7,6.4
			c0-0.1,0-0.4,0-0.4L7.5,5.9C7.2,5.8,6.8,5.6,6.6,5.5L6.4,5.5L6.2,5.6C6,5.9,5.7,6.2,5.5,6.4c-0.3,0.3-0.7,0.7-0.9,1l0,0.1L4.4,8.1
			H2.2c-0.2,0-0.3,0.1-0.4,0.2C1.7,8.4,1.7,8.5,1.7,8.7c0,0,0.4,1.9,0.4,1.9c0.1,0.3,0.3,0.5,0.6,0.5h0.9v0.1l1.2,1.7
			c0,0,0.3,0.2,0.5,0.2c0.1,0.2,0.5,1.1,0.5,1.1s0.2,0,0.2,0c0,0.1,0,0.3,0,0.3h1.1v-1.3c0.1-0.1,0.9-1.6,1.2-2h1.3
			c0.3,0,0.6-0.2,0.6-0.6v0.1l0.4-1.9V8.1L8.2,8.1L8.2,8.1z M5.2,7.7C5.4,7.5,5.7,7.2,6,6.9c0.2-0.2,0.4-0.4,0.6-0.7
			c0.1,0,0.3,0.1,0.4,0.2c0,0,0,0.2,0,0.2L7,6.6C7.1,6.7,7.2,6.9,7.2,7V7l0,0c0.1,0.1,0.1,0.3,0.1,0.3v0.4c0,0,0.1,0.2,0.2,0.2v0
			C7.2,8,7,8.3,6.9,8.4l0,0L6.5,9C6.3,9,6,9,5.9,9C5.8,8.8,5.5,8.4,5.5,8.4l0,0C5.4,8.3,5.3,8.1,5.1,8.1C5.1,7.9,5.2,7.8,5.2,7.7z
			 M2.8,10.4c0-0.1-0.3-1.4-0.3-1.7h2.4c0,0,0.1,0.1,0.1,0.1v0c0,0,0.3,0.4,0.4,0.6C5.3,9.5,5.2,9.6,5.2,9.6s-0.5,0.7-0.5,0.8h0
			C4.7,10.4,2.9,10.4,2.8,10.4z M6.5,12.9c0,0,0,0.3,0,0.6H6.2c-0.1-0.3-0.4-0.9-0.4-0.9s-0.4-0.2-0.5-0.3c-0.1-0.1-0.6-0.9-0.9-1.3
			h0.2c0.3,0,0.4-0.1,0.5-0.2l0,0l0-0.1l0.6-0.9c0,0,0.1-0.1,0.1-0.2c0.1,0,0.4,0,0.6,0l0,0l0.7,1.1l0,0C7.2,10.9,7.4,11,7.5,11
			L6.5,12.9z M9.6,10.4c-0.1,0-1.9,0-1.9,0s0,0,0,0c-0.1-0.1-0.6-1-0.6-1c0.2-0.2,0.4-0.6,0.4-0.6v0c0,0,0.1-0.1,0.1-0.1h2.4
			C9.9,9,9.6,10.3,9.6,10.4z"/>
		<path class="st1" d="M17.8,11.1h-5.9V6.7h5.9V11.1z M12.6,10.3H17V7.5h-4.3V10.3z"/>
		<path class="st1" d="M12.8,11.7h-1v0.8h1V11.7z"/>
		<path class="st1" d="M14.1,12.9h-2.3v0.8h2.3V12.9z"/>
		<path class="st1" d="M15.9,12.9h-1.2v0.8h1.2V12.9z"/>
		<path class="st1" d="M17.8,12.9h-1.2v0.8h1.2V12.9z"/>
		<path class="st1" d="M17.8,11.7h-4.4v0.8h4.4V11.7z"/>
	</g>
</g>
</svg>
