<svg width="15" height="21" viewBox="0 0 15 21" fill="none" xmlns="http://www.w3.org/2000/svg">
<g clip-path="url(#clip0)">
<path d="M7.3779 0.169189C5.56869 0.169189 3.85817 1.18893 2.97001 2.80077H0.239746L1.02922 8.03103H2.80554C3.69369 9.77445 5.43711 10.8929 7.34501 10.8929C9.2529 10.8929 10.9963 9.77445 11.8845 8.03103H13.7266L14.549 2.80077H11.7529C10.8647 1.15603 9.22001 0.169189 7.3779 0.169189ZM7.3779 1.48498C8.46343 1.48498 9.48317 1.9784 10.174 2.80077H8.59501L7.4108 4.44551L6.19369 2.80077H4.54896C5.27264 1.9784 6.25948 1.48498 7.3779 1.48498ZM1.7858 4.11656H5.5358L6.29238 5.16919L5.47001 6.68235H2.18054L1.7858 4.11656ZM7.3779 9.54419C6.19369 9.54419 5.10817 8.95208 4.38448 7.99814H6.25948L7.4108 5.85998L8.56211 7.99814H10.3713C9.64764 8.95208 8.56211 9.54419 7.3779 9.54419ZM12.6411 6.68235H9.35159L8.52922 5.16919L9.2858 4.11656H13.0358L12.6411 6.68235Z" fill="#006DC9"/>
<path d="M7.28035 11.4191C3.46456 11.4191 0.569824 13.6559 0.569824 16.6493V20.1691H1.88561V16.6493C1.88561 14.4125 4.18825 12.702 7.28035 12.702C10.3725 12.702 12.9054 14.5441 12.9054 16.7809V20.1362H14.2211V16.7809C14.2211 13.8204 11.0961 11.4191 7.28035 11.4191Z" fill="#006DC9"/>
</g>
<defs>
<clipPath id="clip0">
<rect width="14.3092" height="20" fill="white" transform="translate(0.239746 0.169189)"/>
</clipPath>
</defs>
</svg>
