<?xml version="1.0" encoding="utf-8"?>
<!-- Generator: Adobe Illustrator 25.0.1, SVG Export Plug-In . SVG Version: 6.00 Build 0)  -->
<svg version="1.1" id="圖層_1" xmlns="http://www.w3.org/2000/svg" xmlns:xlink="http://www.w3.org/1999/xlink" x="0px" y="0px"
	 viewBox="0 0 20 20" style="enable-background:new 0 0 20 20;" xml:space="preserve">
<style type="text/css">
	.st0{fill:none;stroke:#424242;}
	.st1{fill:none;stroke:#424242;stroke-linecap:round;}
</style>
<circle class="st0" cx="10" cy="10" r="9.5"/>
<path class="st1" d="M5.5,10l3,3l6-6"/>
</svg>
