<svg width="41" height="41" viewBox="0 0 41 41" fill="none" xmlns="http://www.w3.org/2000/svg">
<g clip-path="url(#clip0_4062_59056)">
<path d="M22.0804 23.2323C21.5483 23.0076 20.9546 22.9748 20.4009 23.1397C19.8473 23.3045 19.3681 23.6567 19.0456 24.1359C18.723 24.6151 18.577 25.1916 18.6327 25.7666C18.6883 26.3415 18.9421 26.8793 19.3506 27.2878C19.759 27.6962 20.2968 27.95 20.8718 28.0057C21.4467 28.0613 22.0232 27.9153 22.5024 27.5928C22.9816 27.2702 23.3338 26.7911 23.4986 26.2374C23.6635 25.6838 23.6307 25.09 23.406 24.5579C23.1537 23.9602 22.6781 23.4846 22.0804 23.2323V23.2323Z" fill="#EF3D3B"/>
<path d="M22.8464 10.5605H19.3687C19.2041 10.5612 19.0412 10.5942 18.8893 10.6579C18.7375 10.7215 18.5996 10.8145 18.4838 10.9315C18.3679 11.0484 18.2762 11.1871 18.214 11.3395C18.1517 11.492 18.1202 11.6552 18.1211 11.8199C18.121 11.8576 18.1228 11.8954 18.1266 11.9329L19.1247 19.4186C19.1556 19.7261 19.2995 20.0111 19.5285 20.2186C19.7576 20.426 20.0555 20.5411 20.3645 20.5414H21.846C22.155 20.5411 22.4529 20.426 22.682 20.2186C22.911 20.0111 23.0549 19.7261 23.0858 19.4186L24.0839 11.9329C24.1003 11.7699 24.0844 11.6052 24.0372 11.4484C23.9899 11.2915 23.9122 11.1454 23.8086 11.0186C23.7049 10.8917 23.5772 10.7865 23.4329 10.709C23.2885 10.6315 23.1303 10.5832 22.9673 10.5668C22.9268 10.5629 22.8854 10.5605 22.8441 10.5605H22.8464Z" fill="#EF3D3B"/>
<path d="M21.1096 40.5041C22.4331 40.5041 23.7025 39.9783 24.6384 39.0425C25.5743 38.1066 26.1 36.8372 26.1 35.5137H16.1191C16.1191 36.8372 16.6449 38.1066 17.5808 39.0425C18.5167 39.9783 19.786 40.5041 21.1096 40.5041Z" fill="#006DC9"/>
<path d="M37.9028 28.8298C36.3971 27.2103 33.5783 24.7751 33.5783 16.7982C33.5783 10.7394 29.3309 5.88856 23.6021 4.69943V3.07442C23.6227 2.41264 23.3797 1.76976 22.9264 1.28719C22.473 0.804622 21.8466 0.5219 21.1848 0.501219C20.523 0.480539 19.8801 0.723594 19.3976 1.17692C18.915 1.63024 18.6323 2.25669 18.6116 2.91847C18.6116 2.96915 18.6116 3.02062 18.6116 3.07442V4.69943C12.8874 5.88856 8.64007 10.7394 8.64007 16.7982C8.64007 24.7751 5.82125 27.2103 4.31554 28.8298C3.88051 29.2854 3.63926 29.892 3.64261 30.5219C3.65275 31.8015 4.6563 33.0171 6.14485 33.0171H36.0735C37.5644 33.0171 38.5687 31.8015 38.5757 30.5219C38.5791 29.892 38.3378 29.2854 37.9028 28.8298V28.8298ZM8.90831 29.2743C10.563 27.0909 12.3712 23.4783 12.3806 16.8434C12.3806 16.8278 12.3759 16.8137 12.3759 16.7982C12.3759 14.4819 13.296 12.2606 14.9338 10.6228C16.5716 8.98498 18.793 8.06487 21.1092 8.06487C23.4254 8.06487 25.6467 8.98498 27.2845 10.6228C28.9223 12.2606 29.8424 14.4819 29.8424 16.7982C29.8424 16.8137 29.8378 16.8278 29.8378 16.8434C29.8471 23.4799 31.6554 27.0948 33.31 29.2743H8.90831Z" fill="#006DC9"/>
</g>
<defs>
<clipPath id="clip0_4062_59056">
<rect width="40" height="40" fill="white" transform="translate(0.642578 0.5)"/>
</clipPath>
</defs>
</svg>
