<?xml version="1.0" encoding="utf-8"?>
<!-- Generator: Adobe Illustrator 25.0.1, SVG Export Plug-In . SVG Version: 6.00 Build 0)  -->
<svg version="1.1" id="圖層_1" xmlns="http://www.w3.org/2000/svg" xmlns:xlink="http://www.w3.org/1999/xlink" x="0px" y="0px"
	 viewBox="0 0 20 20" style="enable-background:new 0 0 20 20;" xml:space="preserve">
<style type="text/css">
	.st0{fill:#424242;}
</style>
<path class="st0" d="M17.8,2.4H2.2c-0.6,0-1.1,0.2-1.6,0.6C0.2,3.5,0,4.1,0,4.6v10.7c0,0.6,0.3,1.1,0.7,1.5c0.4,0.4,1,0.6,1.5,0.7
	h15.6c0.6,0,1.1-0.3,1.5-0.7c0.4-0.4,0.6-1,0.7-1.5V4.6c0-0.6-0.3-1.1-0.7-1.5C18.9,2.7,18.4,2.5,17.8,2.4z M19.2,14.4L13,8.8
	l5.8-5.1c0.3,0.3,0.4,0.6,0.4,1V14.4z M17.8,3.3H18l-8,7.2L2,3.3H17.8z M1.2,3.7L7,8.8l-6.2,5.6V4.6C0.8,4.3,1,3.9,1.2,3.7z
	 M17.8,16.7H2.2c-0.3,0-0.7-0.1-0.9-0.3c-0.3-0.2-0.4-0.5-0.5-0.9l6.7-6.2l2.4,2.1l2.4-2.1l6.7,6.2c0,0.3-0.2,0.6-0.4,0.8
	C18.4,16.6,18.1,16.7,17.8,16.7z"/>
</svg>
