<?xml version="1.0" encoding="utf-8"?>
<!-- Generator: Adobe Illustrator 25.0.1, SVG Export Plug-In . SVG Version: 6.00 Build 0)  -->
<svg version="1.1" id="圖層_1" xmlns="http://www.w3.org/2000/svg" xmlns:xlink="http://www.w3.org/1999/xlink" x="0px" y="0px"
	 viewBox="0 0 65 65" style="enable-background:new 0 0 65 65;" xml:space="preserve">
<style type="text/css">
	.st0{clip-path:url(#SVGID_2_);}
	.st1{fill:#424242;}
</style>
<g>
	<g>
		<defs>
			<rect id="SVGID_1_" x="9" width="47" height="65"/>
		</defs>
		<clipPath id="SVGID_2_">
			<use xlink:href="#SVGID_1_"  style="overflow:visible;"/>
		</clipPath>
		<g class="st0">
			<path class="st1" d="M44.8,38.1H20.2v2.3h24.7v-2.3H44.8z"/>
			<path class="st1" d="M44.8,42.6H20.2v2.3h24.7v-2.3H44.8z"/>
			<path class="st1" d="M44.8,47H20.2v2.3h24.7V47H44.8z"/>
			<path class="st1" d="M33.6,51.6H20.2v2.3h13.4C33.6,53.9,33.6,51.6,33.6,51.6z"/>
			<path class="st1" d="M56,14.6v-1.1L40.4,0H9v65h47V16.8V14.6z M53.8,14.6H41.5V4L53.8,14.6L53.8,14.6L53.8,14.6z M53.8,62.7H11.2
				V2.3h28v14.6h14.6L53.8,62.7L53.8,62.7z"/>
			<path class="st1" d="M32,30h-0.3l-2.4-3.6h-9l1.2,8.4h7.7l1.9-3.6h1.6l1.9,3.6h7.7l1.2-8.4h-9L32,30z M28.2,33.1H23l-0.7-5h6.1
				l1.4,2L28.2,33.1z M41.5,28.1l-0.7,5h-5.3l-1.5-3l1.4-2C35.4,28.1,41.5,28.1,41.5,28.1z"/>
		</g>
	</g>
</g>
</svg>
