<?xml version="1.0" encoding="utf-8"?>
<!-- Generator: Adobe Illustrator 25.0.1, SVG Export Plug-In . SVG Version: 6.00 Build 0)  -->
<svg version="1.1" id="圖層_1" xmlns="http://www.w3.org/2000/svg" xmlns:xlink="http://www.w3.org/1999/xlink" x="0px" y="0px"
	 viewBox="0 0 46 19" style="enable-background:new 0 0 46 19;" xml:space="preserve">
<style type="text/css">
	.st0{fill:#FF614C;}
</style>
<path class="st0" d="M44.7,2.7h-3.2c-1.7-1.6-4-2.6-6.5-2.6c-2.9,0-5.6,1.4-7.3,3.5c-2.7-2.1-6.6-2.1-9.4,0C16.6,1.5,14,0.2,11,0.2
	c-2.5,0-4.8,1-6.5,2.6H1.3C0.6,2.7,0,3.3,0,4.1c0,0.7,0.6,1.3,1.3,1.3h1.2c-0.6,1.2-1,2.6-1,4.1c0,5.1,4.2,9.3,9.4,9.3
	c5.2,0,9.4-4.2,9.4-9.3c0-1.3-0.3-2.5-0.7-3.6c1.9-1.7,4.7-1.7,6.6,0c-0.5,1.1-0.7,2.3-0.7,3.6c0,5.1,4.2,9.3,9.4,9.3
	c5.2,0,9.4-4.2,9.4-9.3c0-1.5-0.3-2.9-1-4.1h1.2c0.7,0,1.3-0.6,1.3-1.3C46,3.3,45.4,2.7,44.7,2.7z M11,16.2c-3.7,0-6.7-3-6.7-6.7
	c0-3.7,3-6.7,6.7-6.7c3.7,0,6.7,3,6.7,6.7C17.7,13.2,14.7,16.2,11,16.2z M35,16.2c-3.7,0-6.7-3-6.7-6.7c0-3.7,3-6.7,6.7-6.7
	c3.7,0,6.7,3,6.7,6.7C41.7,13.2,38.7,16.2,35,16.2z"/>
</svg>
