<?xml version="1.0" encoding="utf-8"?>
<!-- Generator: Adobe Illustrator 25.2.1, SVG Export Plug-In . SVG Version: 6.00 Build 0)  -->
<svg version="1.1" id="圖層_1" xmlns="http://www.w3.org/2000/svg" xmlns:xlink="http://www.w3.org/1999/xlink" x="0px" y="0px"
	 viewBox="0 0 160 160" style="enable-background:new 0 0 160 160;" xml:space="preserve">
<style type="text/css">
	.st0{fill:#FFFFFF;}
</style>
<g id="會員專區_1_">
	<g id="eyewear_4_">
		<g>
			<path class="st0" d="M107.4,52.1l-1.4,9.8H91.8l-3-5.8l2.7-4H107.4 M110.8,49.1H89.9l-4.6,6.8l4.6,9h18.6L110.8,49.1L110.8,49.1z
				"/>
		</g>
		<g>
			<path class="st0" d="M78.4,52.1l2.7,4l-3,5.8H64l-1.4-9.8H78.4 M80,49.1H59.1l2.3,15.8H80l4.6-9L80,49.1L80,49.1z"/>
		</g>
		<g>
			<path class="st0" d="M82.6,57.2V55h4.6v2.3L82.6,57.2L82.6,57.2z"/>
		</g>
	</g>
	<path class="st0" d="M100.1,51c-2.2-6.3-8.1-10.6-14.6-10.6c-5.9,0-11.3,3.5-13.9,8.9l-0.1,0.2c-0.2,0.3-0.4,0.8-0.5,1.3l-3.8-1.3
		c0.2-0.6,0.4-1.3,0.8-2c3.2-6.7,10.1-11.1,17.5-11.1c8.2,0,15.6,5.3,18.4,13.2L100.1,51z"/>
	<path class="st0" d="M85.5,76c-7.2,0-13.8-4-17.1-10.4l-0.1-0.4l-0.4-1.4l3.8-1.1l0.3,1.2c2.7,5,7.8,8,13.4,8
		c5.5,0,10.6-3,13.3-7.7c0.1-0.2,0.2-0.4,0.3-0.6c0.1-0.1,0.2-0.3,0.2-0.5L103,65c-0.1,0.2-0.2,0.4-0.4,0.6
		c-0.1,0.1-0.2,0.3-0.2,0.5v0.1C98.9,72.2,92.5,76,85.5,76z"/>
	<path class="st0" d="M110.9,121.7c-1.1,0-2-0.9-2-2V99.3c0-9.7-9.8-17.3-22.3-17.3c-8.8,0-16.7,3.8-20.5,9.9
		c-0.6,0.9-1.8,1.2-2.8,0.6c-0.9-0.6-1.2-1.8-0.6-2.8C67.2,82.5,76.4,78,86.6,78c14.7,0,26.3,9.4,26.3,21.3v20.4
		C112.9,120.8,112,121.7,110.9,121.7z"/>
	<path class="st0" d="M59.9,82.8c-10.7,0-19.5,8.7-19.5,19.5c0,10.7,8.7,19.5,19.5,19.5s19.5-8.7,19.5-19.5
		C79.3,91.6,70.6,82.8,59.9,82.8z M67.7,104.3h-5.2v5.2c0,1.3-1,2.3-2.3,2.3s-2.3-1-2.3-2.3v-5.2h-5.2c-1.3,0-2.3-1-2.3-2.3
		s1-2.3,2.3-2.3h5.2v-5.2c0-1.3,1-2.3,2.3-2.3s2.3,1,2.3,2.3v5.2h5.2c1.3,0,2.3,1,2.3,2.3C70,103.2,68.9,104.3,67.7,104.3z"/>
</g>
</svg>
