<svg width="32" height="35" viewBox="0 0 32 35" fill="none" xmlns="http://www.w3.org/2000/svg">
<path d="M16.0071 34.7627L15.3765 34.2898C14.8247 33.8168 0.990234 22.7413 0.990234 14.819C0.990234 6.73908 7.7301 0.196289 16.0071 0.196289C24.2842 0.196289 31.024 6.73908 31.024 14.819C31.024 22.7413 17.1896 33.7774 16.5983 34.2503L16.0071 34.7627ZM16.0071 2.16701C8.8337 2.16701 2.96096 7.84269 2.96096 14.819C2.96096 17.6569 5.28641 21.5983 9.70082 26.2886C12.2628 29.0082 14.8641 31.2548 16.0071 32.2008C17.1501 31.2548 19.7515 29.0082 22.3134 26.2886C26.7278 21.5983 29.0533 17.6569 29.0533 14.819C29.0927 7.84269 23.22 2.16701 16.0071 2.16701Z" fill="#006DC9"/>
<path d="M16.005 35L15.2561 34.4088C14.7043 33.9358 0.791016 22.8604 0.791016 14.8198C0.791016 6.66103 7.60971 0 16.005 0C24.4003 0 31.2189 6.66103 31.2189 14.8198C31.2584 22.8604 17.3451 33.9358 16.7539 34.4088L16.005 35ZM16.005 0.394144C7.8462 0.394144 1.18516 6.85811 1.18516 14.8198C1.18516 22.6633 14.9408 33.6599 15.532 34.0935L16.005 34.4876L16.478 34.0935C17.0692 33.6205 30.8248 22.6239 30.8248 14.8198C30.8642 6.85811 24.2032 0.394144 16.005 0.394144ZM16.005 32.4775L15.8867 32.3592C14.5861 31.295 12.0635 29.0878 9.54102 26.4077C5.1266 21.7173 2.76174 17.6971 2.76174 14.8198C2.76174 7.72522 8.71331 1.97072 16.005 1.97072C23.3361 1.97072 29.2482 7.72522 29.2482 14.8198C29.2482 17.6971 26.8834 21.7173 22.4689 26.4077C19.9464 29.1273 17.4239 31.295 16.1626 32.3592L16.005 32.4775ZM16.005 2.36486C8.91039 2.36486 3.15588 7.96171 3.15588 14.8198C3.15588 17.5788 5.48133 21.5203 9.85633 26.1712C12.3 28.7725 14.7437 30.8615 16.0444 31.9651C17.3451 30.8615 19.7888 28.7331 22.2325 26.1712C26.6075 21.5203 28.9329 17.6182 28.9329 14.8198C28.8935 7.96171 23.0996 2.36486 16.005 2.36486Z" fill="#006DC9"/>
<path d="M18.1325 26.7634H15.0582L14.1123 24.9109L12.6933 23.4525L10.2891 19.4717V18.4863H12.2598V18.9199L14.2699 22.2307L15.7677 23.7284L16.1618 24.5167V22.4278L17.7778 20.8118L18.3296 19.7082V18.4863H20.3003V20.1811L19.3938 21.9942L18.1325 23.2555V26.7634Z" fill="#EF3D3B"/>
<path d="M18.331 26.9602H14.9414L13.956 25.0289L12.5371 23.5706L10.1328 19.5503V18.2891H12.4977V18.8803L14.429 22.1123L15.9661 23.6888V22.3882L17.6215 20.7328L18.1339 19.708V18.3285H20.4988V20.2598L19.5529 22.1517L18.331 23.3735V26.9602ZM15.1779 26.5661H17.8974V23.1764L19.1981 21.8758L20.1047 20.1021V18.6438H18.5281V19.708L17.8974 20.8904L16.3209 22.467V25.3048L15.572 23.8071L14.0743 22.3093L12.0641 18.9591V18.6438H10.4875V19.3927L12.8524 23.2947L14.3107 24.753L15.1779 26.5661Z" fill="#EF3D3B"/>
<path d="M20.2975 12.6527H18.3268V10.6425L17.1838 7.8047H16.7897L13.5577 11.0367L13.0059 12.1403V12.6527H11.0352V11.6673L11.9417 9.85425L16.0014 5.83398H18.5239L20.2975 10.2484V12.6527Z" fill="#EF3D3B"/>
<path d="M20.496 12.8489H18.1312V10.6811L17.067 8.00096H16.9093L13.7562 11.1541L13.2438 12.1789V12.8095H10.8789V11.5877L11.8249 9.69578L15.924 5.59668H18.683L20.496 10.2476V12.8489ZM18.5253 12.4548H20.1019V10.3264L18.4071 6.03024H16.0816L12.1008 9.97168L11.2336 11.7059V12.4154H12.8102V12.0606L13.4408 10.8782L16.7517 7.5674H17.3429L18.5253 10.6417V12.4548Z" fill="#EF3D3B"/>
<path d="M25.7014 19.4701H17.4244L15.1777 15.0951L17.5032 11.666H26.805L25.7014 19.4701ZM18.6462 17.4993H24.0066L24.5584 13.6367H18.5674L17.5032 15.2133L18.6462 17.4993Z" fill="#EF3D3B"/>
<path d="M25.8572 19.6679H17.3043L14.9395 15.0564L17.3831 11.4697H27.0397L25.8572 19.6679ZM17.5802 19.2738H25.5419L26.6061 11.8639H17.6196L15.4124 15.0959L17.5802 19.2738ZM24.1624 17.6972H18.5262L17.2649 15.2141L18.4868 13.4404H24.8325L24.1624 17.6972ZM18.7626 17.3031H23.8077L24.3201 13.8346H18.6838L17.7379 15.2535L18.7626 17.3031Z" fill="#EF3D3B"/>
<path d="M13.92 19.4701H5.64302L4.5 11.666H13.8018L16.1273 15.0951L13.92 19.4701ZM7.37725 17.4993H12.7376L13.8806 15.2133L12.8164 13.6367H6.78604L7.37725 17.4993Z" fill="#EF3D3B"/>
<path d="M14.0361 19.6679H5.48321L4.30078 11.4697H13.9573L16.401 15.0564L14.0361 19.6679ZM5.83794 19.2738H13.7997L15.928 15.0959L13.7208 11.8639H4.73434L5.83794 19.2738ZM12.8143 17.6972H7.17803L6.5474 13.4404H12.8931L14.115 15.2141L12.8143 17.6972ZM7.53276 17.3031H12.5778L13.642 15.2535L12.6961 13.8346H7.02038L7.53276 17.3031Z" fill="#EF3D3B"/>
<path fill-rule="evenodd" clip-rule="evenodd" d="M14.9023 15.607V14.7793H16.5972V15.607H14.9023Z" fill="#EF3D3B"/>
<path d="M16.794 15.8049H14.7051V14.583H16.794V15.8049ZM15.0992 15.4107H16.3999V14.9772H15.0992V15.4107Z" fill="#EF3D3B"/>
</svg>
