<svg width="36" height="35" viewBox="0 0 36 35" fill="none" xmlns="http://www.w3.org/2000/svg">
<g clip-path="url(#clip0)">
<path d="M17.9309 10.7529C17.2281 10.7529 16.6658 10.8935 15.963 11.0341C16.2441 11.5963 16.3847 12.1586 16.3847 12.7208C16.3847 14.5481 14.8385 16.0943 13.0112 16.0943C12.4489 16.0943 11.8867 15.9537 11.3244 15.6726C10.3405 19.3272 12.3084 23.1224 15.963 24.1063C19.6176 25.0903 23.4128 23.1224 24.3967 19.4678C25.3807 15.8132 23.4128 12.018 19.7582 11.0341C19.3365 10.8935 18.6337 10.7529 17.9309 10.7529Z" fill="#006DC9"/>
<path d="M35.3614 16.6563C31.9879 10.1904 25.5221 5.83301 18.0723 5.83301C10.6225 5.83301 4.01604 10.1904 0.783109 16.6563C0.501985 17.2186 0.501985 17.9214 0.783109 18.4836C4.1566 24.9495 10.6225 29.3069 18.0723 29.3069C25.5221 29.3069 32.1285 24.9495 35.3614 18.4836C35.6425 17.9214 35.6425 17.2186 35.3614 16.6563ZM17.9317 26.3551C11.8875 26.3551 6.4056 22.9816 3.45379 17.6402C6.4056 12.1583 11.8875 8.92538 17.9317 8.92538C23.9759 8.92538 29.4578 12.2989 32.4096 17.6402C29.5984 22.9816 23.9759 26.3551 17.9317 26.3551Z" fill="#006DC9"/>
</g>
<defs>
<clipPath id="clip0">
<rect width="35" height="35" fill="white" transform="translate(0.572266)"/>
</clipPath>
</defs>
</svg>
