<?xml version="1.0" encoding="utf-8"?>
<!-- Generator: Adobe Illustrator 25.0.1, SVG Export Plug-In . SVG Version: 6.00 Build 0)  -->
<svg version="1.1" id="圖層_1" xmlns="http://www.w3.org/2000/svg" xmlns:xlink="http://www.w3.org/1999/xlink" x="0px" y="0px"
	 viewBox="0 0 90 90" style="enable-background:new 0 0 90 90;" xml:space="preserve">
<style type="text/css">
	.st0{clip-path:url(#SVGID_2_);}
	.st1{fill:#FF614C;}
</style>
<g>
	<defs>
		<rect id="SVGID_1_" x="12.3" width="65.3" height="90"/>
	</defs>
	<clipPath id="SVGID_2_">
		<use xlink:href="#SVGID_1_"  style="overflow:visible;"/>
	</clipPath>
	<g class="st0">
		<path class="st1" d="M28.7,90l-2-0.3l-1-2.8l1.7-0.6l0.7,1.9l0.1,0l2-2l1.3,1.3L28.7,90z M20.1,74.4l-2.8-3.6l-1.9-8.7L12.3,60
			l2.1-6.8L14,44.7l14.2-26.2l4.2-3l3.4-7.9l8.1-3.4L46.3,0l3.3,0.1l1.9,2l4.7,1.3L58,7.2l-2.8,4.1l0.9,6.2l-1,3.3l-1.7-0.5l0.9-2.9
			l-1-6.5L56,7l-1-2.1l-4.4-1.3l-1.7-1.8l-1.5,0L45,5.6L37,8.9l-3.3,7.7l-4.3,3.1L15.8,45.1l0.4,8.3l-1.8,5.9l2.6,1.8l1.9,9l2.6,3.3
			L20.1,74.4z"/>
		<path class="st1" d="M37.2,73.4c0-0.5-0.1-0.9-0.4-1.1c-0.2-0.3-0.7-0.5-1.3-0.7c-0.5-0.2-0.8-0.3-0.9-0.4
			c-0.1-0.1-0.2-0.2-0.2-0.4c0-0.2,0.1-0.3,0.2-0.4c0.1-0.1,0.3-0.2,0.5-0.2c0.2,0,0.4,0.1,0.5,0.2c0.1,0.1,0.2,0.3,0.2,0.6v0.1H37
			v-1.4c-0.3-0.2-0.6-0.4-1-0.5c-0.3-0.1-0.7-0.2-1-0.2c-0.6,0-1.1,0.2-1.5,0.5c-0.4,0.3-0.6,0.8-0.6,1.3c0,0.3,0,0.5,0.1,0.7
			c0.1,0.2,0.2,0.4,0.4,0.5c0.2,0.2,0.5,0.3,1,0.5c0.1,0,0.2,0.1,0.3,0.1c0.3,0.1,0.5,0.2,0.7,0.4c0.1,0.1,0.2,0.3,0.2,0.5
			c0,0.2-0.1,0.3-0.2,0.5c-0.1,0.1-0.3,0.2-0.5,0.2c-0.2,0-0.4-0.1-0.5-0.2c-0.1-0.1-0.2-0.4-0.2-0.6v-0.1H33v1.5
			c0.3,0.2,0.6,0.4,1,0.5c0.4,0.1,0.7,0.2,1.1,0.2c0.6,0,1.1-0.2,1.5-0.5C37,74.4,37.2,74,37.2,73.4z M38,70.1
			c0.1,0,0.2,0.1,0.2,0.2c0,0.1,0.1,0.2,0.1,0.5v2.8c0,0.2,0,0.4-0.1,0.5c0,0.1-0.1,0.1-0.2,0.2v1h4.3v-2H41v0.2
			c0,0.2,0,0.4-0.1,0.5C40.8,74,40.6,74,40.4,74h-0.6v-1.5h1.7v-1h-1.7v-1.3h0.5c0.3,0,0.5,0,0.6,0.1c0.1,0.1,0.2,0.3,0.2,0.5V71
			h1.3v-1.9H38L38,70.1L38,70.1z M45.2,74.2c-0.1,0-0.2-0.1-0.2-0.2c0-0.1-0.1-0.2-0.1-0.5v-0.8h0.4c0.3,0,0.5,0,0.6,0.2
			c0.1,0.1,0.2,0.3,0.2,0.6v0.8c0,0.3,0,0.4,0,0.6c0,0.1,0,0.2,0.1,0.3h1.5v-1c-0.1,0-0.2-0.1-0.2-0.2c0-0.1-0.1-0.2-0.1-0.5v-0.3
			c0-0.3-0.1-0.5-0.2-0.6c-0.1-0.1-0.3-0.2-0.6-0.3c0.3-0.1,0.5-0.2,0.7-0.5s0.2-0.6,0.2-0.9c0-0.6-0.2-1.1-0.5-1.3
			c-0.3-0.3-0.8-0.4-1.5-0.4h-2.4v1c0.1,0,0.2,0.1,0.2,0.2c0,0.1,0.1,0.2,0.1,0.5v2.8c0,0.2,0,0.4-0.1,0.5c0,0.1-0.1,0.1-0.2,0.2v1
			h2V74.2L45.2,74.2z M44.9,70.3h0.6c0.2,0,0.4,0.1,0.6,0.2c0.1,0.1,0.2,0.3,0.2,0.6s-0.1,0.4-0.2,0.5c-0.1,0.1-0.3,0.2-0.6,0.2
			h-0.6V70.3z M52.6,70.6c0-0.2,0.1-0.3,0.1-0.4c0-0.1,0.1-0.1,0.2-0.2v-1h-1.9v1c0.1,0,0.2,0.1,0.2,0.1c0,0,0.1,0.1,0.1,0.2
			c0,0,0,0.1,0,0.1c0,0,0,0.1,0,0.1L50.7,74l-0.7-3.4c0,0,0-0.1,0-0.1s0-0.1,0-0.1c0-0.1,0-0.2,0.1-0.2c0,0,0.1-0.1,0.2-0.1v-1h-2.1
			v1c0.1,0,0.2,0.1,0.2,0.2c0,0.1,0.1,0.2,0.1,0.4l1,4.5h2.1L52.6,70.6z M55.6,74.2c-0.1,0-0.2-0.1-0.2-0.2c0-0.1-0.1-0.2-0.1-0.5
			v-2.8c0-0.2,0-0.4,0.1-0.5c0-0.1,0.1-0.1,0.2-0.2v-1h-2v1c0.1,0,0.2,0.1,0.2,0.2c0,0.1,0.1,0.2,0.1,0.5v2.8c0,0.2,0,0.4-0.1,0.5
			c0,0.1-0.1,0.1-0.2,0.2v1h2V74.2z M58.6,75.3c0.3,0,0.7,0,1-0.1c0.3-0.1,0.7-0.2,1-0.4v-2.1h-1.3v0.4c0,0.3,0,0.6-0.2,0.7
			c-0.1,0.1-0.3,0.2-0.5,0.2c-0.2,0-0.4-0.1-0.5-0.2c-0.1-0.1-0.2-0.4-0.2-0.7v-2.1c0-0.3,0-0.6,0.2-0.7c0.1-0.1,0.3-0.2,0.5-0.2
			c0.2,0,0.4,0.1,0.5,0.2c0.1,0.1,0.2,0.3,0.2,0.6v0.1h1.3v-1.7c-0.3-0.2-0.6-0.3-1-0.3c-0.3-0.1-0.7-0.1-1-0.1
			c-0.5,0-0.9,0.1-1.2,0.2c-0.3,0.1-0.5,0.3-0.7,0.6c-0.1,0.1-0.2,0.3-0.2,0.5c0,0.2,0,0.5,0,1v2c0,0.5,0,0.8,0.1,1
			c0,0.2,0.1,0.4,0.2,0.5c0.2,0.2,0.4,0.4,0.7,0.4C57.8,75.3,58.1,75.3,58.6,75.3z M65.8,73.2h-1.3v0.2c0,0.2,0,0.4-0.1,0.5
			C64.3,74,64.1,74,63.9,74h-0.6v-1.5h1.7v-1h-1.7v-1.3h0.5c0.3,0,0.5,0,0.6,0.1c0.1,0.1,0.2,0.3,0.2,0.5V71h1.3v-1.9h-4.3v1
			c0.1,0,0.2,0.1,0.2,0.2c0,0.1,0.1,0.2,0.1,0.5v2.8c0,0.2,0,0.4-0.1,0.5c0,0.1-0.1,0.1-0.2,0.2v1h4.3L65.8,73.2L65.8,73.2z
			 M25.2,78.4c0.1,0,0.2,0.1,0.3,0.2c0,0.1,0.1,0.2,0.1,0.3c0,0,0,0.1,0,0.2c0,0.1,0,0.2,0,0.2L25.1,83l-1.1-6h-1.5l-1,6l-0.6-3.9
			c0-0.1,0-0.1,0-0.2c0-0.1,0-0.1,0-0.2c0-0.1,0-0.2,0.1-0.3c0-0.1,0.2-0.1,0.3-0.1v-1.3h-2.8v1.3c0.1,0,0.2,0.1,0.3,0.2
			c0.1,0.1,0.1,0.3,0.2,0.5l1.2,6.2h2.3l0.7-4.6l0.9,4.6h2.3l1-6.1c0-0.3,0.1-0.5,0.2-0.6c0.1-0.1,0.2-0.2,0.3-0.2v-1.3h-2.4V78.4z
			 M34.3,83.8c-0.1-0.1-0.1-0.3-0.2-0.5L32.8,77h-2.9l-1.2,6.1c-0.1,0.3-0.1,0.5-0.2,0.6c-0.1,0.1-0.2,0.2-0.3,0.2v1.4h2.6V84
			c-0.2,0-0.3,0-0.4-0.1c-0.1-0.1-0.1-0.2-0.1-0.3c0,0,0-0.1,0-0.1c0,0,0-0.1,0-0.2l0.1-0.3H32l0.1,0.4c0,0,0,0.1,0,0.1
			c0,0,0,0.1,0,0.1c0,0.1,0,0.2-0.1,0.3c-0.1,0.1-0.2,0.1-0.3,0.1v1.4h2.9v-1.4C34.4,83.9,34.3,83.9,34.3,83.8z M30.6,81.8l0.6-3.2
			l0.6,3.2H30.6z M41.3,83.8c0-0.1-0.1-0.3-0.1-0.6v-0.4c0-0.4-0.1-0.7-0.2-0.9c-0.2-0.2-0.4-0.3-0.8-0.4c0.4-0.1,0.7-0.3,1-0.7
			c0.2-0.3,0.3-0.8,0.3-1.3c0-0.8-0.2-1.4-0.7-1.8c-0.4-0.4-1.2-0.6-2.1-0.6h-3.3v1.3c0.2,0,0.3,0.1,0.3,0.2
			c0.1,0.1,0.1,0.3,0.1,0.7v3.9c0,0.3,0,0.6-0.1,0.7c-0.1,0.1-0.2,0.2-0.3,0.2v1.4h2.8V84c-0.2,0-0.3-0.1-0.3-0.2
			c-0.1-0.1-0.1-0.3-0.1-0.7V82h0.6c0.4,0,0.7,0.1,0.8,0.2c0.1,0.1,0.2,0.4,0.2,0.8v1.1c0,0.4,0,0.6,0,0.8c0,0.2,0.1,0.3,0.1,0.4
			h2.1V84C41.4,84,41.3,83.9,41.3,83.8z M39.3,80.4c-0.2,0.2-0.4,0.2-0.8,0.2h-0.8v-2h0.8c0.3,0,0.6,0.1,0.8,0.2s0.2,0.4,0.2,0.8
			C39.5,80,39.4,80.2,39.3,80.4z M48.7,83.8c0-0.1-0.1-0.3-0.1-0.6v-0.4c0-0.4-0.1-0.7-0.2-0.9c-0.2-0.2-0.4-0.3-0.8-0.4
			c0.4-0.1,0.7-0.3,1-0.7c0.2-0.3,0.3-0.8,0.3-1.3c0-0.8-0.2-1.4-0.7-1.8C47.7,77.2,47,77,46.1,77h-3.3v1.3c0.2,0,0.3,0.1,0.3,0.2
			c0.1,0.1,0.1,0.3,0.1,0.7v3.9c0,0.3,0,0.6-0.1,0.7c-0.1,0.1-0.2,0.2-0.3,0.2v1.4h2.8V84c-0.2,0-0.3-0.1-0.3-0.2
			c-0.1-0.1-0.1-0.3-0.1-0.7V82h0.6c0.4,0,0.7,0.1,0.8,0.2c0.1,0.1,0.2,0.4,0.2,0.8v1.1c0,0.4,0,0.6,0,0.8c0,0.2,0.1,0.3,0.1,0.4H49
			V84C48.8,84,48.8,83.9,48.7,83.8z M46.7,80.4c-0.2,0.2-0.4,0.2-0.8,0.2h-0.8v-2h0.8c0.3,0,0.6,0.1,0.8,0.2
			c0.2,0.2,0.2,0.4,0.2,0.8C46.9,80,46.8,80.2,46.7,80.4z M55.9,83.8c-0.1-0.1-0.1-0.3-0.2-0.5L54.5,77h-2.9l-1.2,6.1
			c-0.1,0.3-0.1,0.5-0.2,0.6c-0.1,0.1-0.2,0.2-0.3,0.2v1.4h2.6V84c-0.2,0-0.3,0-0.4-0.1C52,83.8,52,83.7,52,83.5c0,0,0-0.1,0-0.1
			c0,0,0-0.1,0-0.2l0.1-0.3h1.6l0.1,0.4c0,0,0,0.1,0,0.1c0,0,0,0.1,0,0.1c0,0.1,0,0.2-0.1,0.3c-0.1,0.1-0.2,0.1-0.3,0.1v1.4h2.9
			v-1.4C56.1,83.9,56,83.9,55.9,83.8z M52.3,81.8l0.6-3.2l0.6,3.2H52.3z M60.9,78.4c0.2,0,0.3,0.1,0.4,0.2c0.1,0.1,0.1,0.3,0.1,0.6
			v2.5L59.2,77H57v1.3c0.2,0,0.3,0.1,0.3,0.2c0.1,0.1,0.1,0.3,0.1,0.5v4c0,0.3,0,0.6-0.1,0.6c-0.1,0.1-0.2,0.2-0.3,0.2v1.4h2.6V84
			c-0.2,0-0.3-0.1-0.3-0.2c-0.1-0.1-0.1-0.3-0.1-0.6v-2.5l2.1,4.7h1.7v-6.1c0-0.4,0-0.6,0.1-0.7c0.1-0.1,0.2-0.2,0.4-0.2V77h-2.7
			V78.4z M64.5,80.4H66v-0.8c0-0.3,0.1-0.6,0.2-0.7c0.1-0.2,0.3-0.2,0.6-0.2v4.5c0,0.3,0,0.6-0.1,0.7c-0.1,0.1-0.2,0.2-0.3,0.2v1.4
			h2.8V84c-0.2,0-0.3-0.1-0.3-0.2c-0.1-0.1-0.1-0.3-0.1-0.7v-4.5c0.3,0,0.5,0.1,0.6,0.2c0.1,0.2,0.2,0.4,0.2,0.7v0.8H71V77h-6.6
			V80.4L64.5,80.4z M75.5,77.1v1c0,0.2,0,0.4,0,0.5c0,0.2-0.1,0.3-0.1,0.4l-0.6,1.1L74.2,79c0-0.1-0.1-0.2-0.1-0.4
			c0-0.1,0-0.3,0-0.5v-1h-2.5v1.3c0.1,0,0.2,0.1,0.2,0.2c0.1,0.1,0.2,0.2,0.2,0.3l1.6,3.3v1c0,0.2,0,0.4-0.1,0.6
			c-0.1,0.1-0.2,0.2-0.3,0.2v1.4h2.8V84c-0.2,0-0.3-0.1-0.3-0.2c-0.1-0.1-0.1-0.3-0.1-0.6v-1.1l1.6-3.2c0.1-0.1,0.2-0.2,0.2-0.3
			c0.1-0.1,0.2-0.1,0.2-0.2V77L75.5,77.1L75.5,77.1z"/>
		<path class="st1" d="M53.6,56.1c-0.2,0-0.3-0.1-0.4-0.2c-0.2-0.2-0.2-0.6,0-0.8l9.2-8.2c0.2-0.2,0.6-0.2,0.8,0
			c0.2,0.2,0.2,0.6,0,0.8L54,56C53.9,56.1,53.8,56.1,53.6,56.1z"/>
		<path class="st1" d="M51.6,52c-0.2,0-0.3-0.1-0.4-0.2c-0.2-0.2-0.2-0.6,0.1-0.8l5.1-4.1c0.2-0.2,0.6-0.2,0.8,0.1
			c0.2,0.2,0.2,0.6-0.1,0.8l-5.1,4.1C51.8,52,51.7,52,51.6,52z"/>
		<path class="st1" d="M37.9,54.8c-0.3,0-0.6-0.2-0.6-0.6v-4.6c0-0.3,0.2-0.6,0.6-0.6s0.6,0.2,0.6,0.6v4.6
			C38.4,54.5,38.2,54.8,37.9,54.8z"/>
		<path class="st1" d="M70.4,57.3H42.1v2h28.4V57.3z"/>
		<path class="st1" d="M75.7,63.3H24.4v2h51.3V63.3z"/>
		<path class="st1" d="M71.4,47.6h-2v17.2h2V47.6z"/>
		<path class="st1" d="M30.5,47.6h-2v17.2h2V47.6z"/>
		<path class="st1" d="M42.8,47.6h-2v17.2h2V47.6z"/>
		<path class="st1" d="M27,37.4l-1.7-1.7L36,24.4h5.2v2.4h-4.2L27,37.4z"/>
		<path class="st1" d="M45.9,24.4h-4.7v2.4h4.7V24.4z"/>
		<path class="st1" d="M40.2,24.9L33,36.5l2.1,1.3l7.2-11.6L40.2,24.9z"/>
		<path class="st1" d="M50.6,24.4h-4.7v2.4h4.7V24.4z"/>
		<path class="st1" d="M44.7,25.2l-3.5,11.3l2.3,0.7l3.5-11.3L44.7,25.2z"/>
		<path class="st1" d="M55.2,24.4h-4.7v2.4h4.7V24.4z"/>
		<path class="st1" d="M51.8,25.6h-2.4v10.9h2.4V25.6z"/>
		<path class="st1" d="M59.9,24.4h-4.7v2.4h4.7V24.4z"/>
		<path class="st1" d="M56.4,25.2l-2.3,0.7l3.5,11.3l2.3-0.7L56.4,25.2z"/>
		<path class="st1" d="M74.2,37.4L64,26.8h-4.1v-2.4h5.2l10.8,11.3L74.2,37.4z"/>
		<path class="st1" d="M60.9,24.9l-2.1,1.3l7.2,11.6l2.1-1.3L60.9,24.9z"/>
		<path class="st1" d="M68.1,36.5h-2.4V40h2.4V36.5z"/>
		<path class="st1" d="M59.9,36.5h-2.4V40h2.4V36.5z"/>
		<path class="st1" d="M51.8,36.5h-2.4V40h2.4V36.5z"/>
		<path class="st1" d="M43.6,36.5h-2.4V40h2.4V36.5z"/>
		<path class="st1" d="M35.4,36.5H33V40h2.4V36.5z"/>
		<path class="st1" d="M71,45.3c-2.9,0-5.3-2.4-5.3-5.3h2.4c0,1.6,1.3,2.9,2.9,2.9c1.6,0,2.9-1.3,2.9-2.9v-3L64,26.8H37.1L27.3,37v3
			c0,1.6,1.3,2.9,2.9,2.9c1.6,0,2.9-1.3,2.9-2.9h2.4c0,2.9-2.4,5.3-5.3,5.3c-2.9,0-5.3-2.4-5.3-5.3v-4l11.2-11.7h29L76.3,36v4
			C76.3,42.9,73.9,45.3,71,45.3z"/>
		<path class="st1" d="M62.8,45.3c-2.9,0-5.3-2.4-5.3-5.3h2.4c0,1.6,1.3,2.9,2.9,2.9c1.6,0,2.9-1.3,2.9-2.9h2.4
			C68.1,42.9,65.7,45.3,62.8,45.3z"/>
		<path class="st1" d="M54.7,45.3c-2.9,0-5.3-2.4-5.3-5.3h2.4c0,1.6,1.3,2.9,2.9,2.9s2.9-1.3,2.9-2.9h2.4
			C59.9,42.9,57.6,45.3,54.7,45.3z"/>
		<path class="st1" d="M46.5,45.3c-2.9,0-5.3-2.4-5.3-5.3h2.4c0,1.6,1.3,2.9,2.9,2.9s2.9-1.3,2.9-2.9h2.4
			C51.8,42.9,49.4,45.3,46.5,45.3z"/>
		<path class="st1" d="M38.3,45.3c-2.9,0-5.3-2.4-5.3-5.3h2.4c0,1.6,1.3,2.9,2.9,2.9s2.9-1.3,2.9-2.9h2.4
			C43.6,42.9,41.2,45.3,38.3,45.3z"/>
	</g>
</g>
</svg>
