<svg width="18" height="18" viewBox="0 0 18 18" fill="none" xmlns="http://www.w3.org/2000/svg">
<path d="M2.7 0H15.3C16.7906 0 18 1.20938 18 2.7V15.3C18 16.7906 16.7906 18 15.3 18H2.7C1.20938 18 0 16.7906 0 15.3V2.7C0 1.20938 1.20938 0 2.7 0Z" fill="#1877F2"/>
<path d="M12.5016 11.6016L12.9023 9H10.4062V7.3125C10.4062 6.60234 10.7543 5.90625 11.8723 5.90625H13.0078V3.69141C13.0078 3.69141 11.9777 3.51562 10.9934 3.51562C8.93672 3.51562 7.59375 4.76016 7.59375 7.01719V9H5.30859V11.6016H7.59375V18H10.4062V11.6016H12.5016Z" fill="white"/>
</svg>
