<?xml version="1.0" encoding="utf-8"?>
<!-- Generator: Adobe Illustrator 25.0.1, SVG Export Plug-In . SVG Version: 6.00 Build 0)  -->
<svg version="1.1" id="圖層_1" xmlns="http://www.w3.org/2000/svg" xmlns:xlink="http://www.w3.org/1999/xlink" x="0px" y="0px"
	 viewBox="0 0 17 20" style="enable-background:new 0 0 17 20;" xml:space="preserve">
<style type="text/css">
	.st0{clip-path:url(#SVGID_2_);}
	.st1{fill:#006DC9;}
</style>
<g>
	<defs>
		<rect id="SVGID_1_" x="1" width="15" height="20"/>
	</defs>
	<clipPath id="SVGID_2_">
		<use xlink:href="#SVGID_1_"  style="overflow:visible;"/>
	</clipPath>
	<g class="st0">
		<path class="st1" d="M15.4,3.8l-3.3-3.3C11.8,0.2,11.3,0,10.8,0h-8C1.8,0,1,0.8,1,1.9v16.2c0,1,0.8,1.9,1.9,1.9h11.2
			c1,0,1.9-0.8,1.9-1.9v-13C16,4.7,15.8,4.2,15.4,3.8z M14.6,4.7c0.1,0.1,0.1,0.2,0.2,0.3H11V1.3c0.1,0,0.2,0.1,0.3,0.2L14.6,4.7z
			 M14.1,18.8H2.9c-0.3,0-0.6-0.3-0.6-0.6V1.9c0-0.3,0.3-0.6,0.6-0.6h6.9v4.1c0,0.5,0.4,0.9,0.9,0.9h4.1v11.9
			C14.8,18.5,14.5,18.8,14.1,18.8z M12,9.1c-0.3,1.3-1.3,5.5-1.3,5.9c-0.2-1.1,0,0.1-1.6-5.9C9,8.9,8.9,8.8,8.6,8.8H8.4
			C8.2,8.8,8,8.9,7.9,9.1c-1.5,5.6-1.5,5.5-1.5,6c-0.2-0.9,0.1-0.1-1.3-6C5,8.9,4.8,8.8,4.6,8.8H4.3C4,8.8,3.8,9,3.9,9.3
			c0.4,1.5,1.3,5.4,1.6,6.6c0.1,0.2,0.2,0.4,0.5,0.4h0.7c0.2,0,0.4-0.1,0.5-0.3c1.3-5,1.3-4.8,1.4-5.6c0.3,1.2,0,0.3,1.4,5.6
			c0.1,0.2,0.2,0.3,0.5,0.3h0.5c0.2,0,0.5-0.1,0.6-0.4l1.7-6.6c0.1-0.3-0.1-0.6-0.5-0.6h-0.3C12.3,8.8,12.1,8.9,12,9.1z"/>
	</g>
</g>
</svg>
