<svg width="21" height="16" viewBox="0 0 21 16" fill="none" xmlns="http://www.w3.org/2000/svg">
<path d="M18.1093 2.78132H16.0202L14.8694 1.04034C14.4363 0.390659 13.6762 0 12.8907 0H8.10934C7.32803 0 6.56369 0.390659 6.13057 1.04459L4.97983 2.78557H2.89066C1.56582 2.78132 0.5 3.84714 0.5 5.17623V13.6136C0.5 14.9385 1.56582 16.0043 2.89066 16.0043H18.1093C19.4342 16.0043 20.5 14.9385 20.5 13.6136V5.17623C20.5 3.84714 19.4384 2.78132 18.1093 2.78132ZM10.5 14.0467C7.52335 14.0467 5.10722 11.6348 5.10722 8.65394C5.10722 5.67305 7.51911 3.28238 10.5 3.28238C13.4809 3.28238 15.8928 5.69428 15.8928 8.67517C15.8928 11.6306 13.4809 14.0467 10.5 14.0467ZM17.8079 6.15288C17.7866 6.15288 17.7654 6.15288 17.7229 6.15288H16.8482C16.4575 6.13165 16.1518 5.80468 16.173 5.41402C16.1943 5.04459 16.4788 4.76009 16.8482 4.73886H17.7187C18.1093 4.71763 18.4363 5.02336 18.4575 5.41402C18.4788 5.80468 18.1985 6.13165 17.8079 6.15288ZM10.5 5.67305C8.8482 5.67305 7.49788 7.01912 7.49788 8.67517C7.49788 10.3312 8.84395 11.6518 10.5 11.6518C12.1561 11.6518 13.5021 10.3057 13.5021 8.6497C13.5021 7.00214 12.1518 5.67305 10.5 5.67305Z" fill="#E50012"/>
</svg>
