<svg width="80" height="29" viewBox="0 0 80 29" fill="none" xmlns="http://www.w3.org/2000/svg">
<path d="M69.6907 0.876465H10.3093C4.61856 0.876465 0 5.49502 0 11.1857V18.6909C0 24.3816 4.61856 29.0002 10.3093 29.0002H69.6907C75.3814 29.0002 80 24.3816 80 18.6909V11.1857C79.9175 5.41255 75.299 0.876465 69.6907 0.876465Z" fill="#DD204F"/>
<path d="M69.691 4.01025C73.6498 4.01025 76.7838 7.22673 76.7838 11.103V18.6082C76.7838 22.567 73.5673 25.701 69.691 25.701H10.3096C6.35082 25.701 3.2168 22.4845 3.2168 18.6082V11.103C3.2168 7.14425 6.4333 4.01025 10.3096 4.01025H69.691Z" fill="white"/>
<path d="M46.34 11.7732H41.2266V10.2886H43.5358C43.2884 9.71131 42.876 8.96905 42.5462 8.39173L43.9482 7.73193C44.3606 8.39173 44.773 9.05152 45.0204 9.79379L44.0307 10.2886H46.34V11.7732ZM41.8864 13.835V12.433H46.0925V13.835H41.8864ZM46.0925 15.8969H41.8864V14.4948H46.0925V15.8969ZM46.175 21.2577H43.4534V21.9175H41.8864V16.6391H46.175V21.2577ZM43.4534 18.0412V19.7732H44.6905V18.0412H43.4534ZM49.5565 18.6185C50.1338 18.5361 50.7111 18.3711 51.2059 18.2886L51.3709 19.8556C49.8039 20.268 48.0719 20.6804 46.6699 21.0103L46.2575 19.1959C46.7523 19.1134 47.2472 19.0309 47.8245 18.9484V15.6495H46.5874V14H50.7936V15.567H49.474L49.5565 18.6185ZM52.773 12.268C52.8554 16.6391 53.3503 20.3505 53.9276 20.3505C54.0925 20.3505 54.175 19.6082 54.2575 18.0412C54.6699 18.4536 55.0822 18.7835 55.5771 19.0309C55.3297 21.4227 54.9173 22.0824 53.6802 22.0824C51.7833 22.0824 51.2059 17.5464 51.041 12.268H46.6699V10.6185H50.9585C50.9585 9.71132 50.9585 8.8041 50.9585 7.81441H52.773C52.773 8.72162 52.773 9.71132 52.773 10.6185H54.0101C53.6802 9.95874 53.2678 9.38142 52.8554 8.8041L54.0925 8.06183C54.5874 8.63915 54.9998 9.21647 55.3297 9.87626L54.175 10.6185H55.4121V12.268H52.773Z" fill="#DD204F"/>
<path d="M70.0926 13.4227C69.7627 15.402 69.0205 17.3814 67.9483 19.1134C68.2782 19.8556 68.5256 20.3505 68.938 20.3505C69.1854 20.3505 69.3504 19.7732 69.4328 18.3711C69.8452 18.7835 70.2576 19.1134 70.7524 19.3608C70.505 21.5051 70.0101 22.0824 68.773 22.0824C67.9483 22.0824 67.371 21.5051 66.7937 20.5979C66.2988 21.1752 65.639 21.5876 64.9792 22C64.6493 21.5051 64.237 21.0103 63.8246 20.6804C64.6493 20.1855 65.4741 19.6082 66.0514 18.866C65.4741 16.7216 65.1442 14.4948 65.0617 12.268H56.4844V10.7835H59.9483V10.2062H57.3916V8.88657H59.9483V7.81441H61.6803V8.88657H64.237V10.2062H61.6803V10.7835H64.8967C64.8143 9.79379 64.8143 8.72162 64.8143 7.73193H66.5462C66.5462 8.72162 66.5462 9.79379 66.6287 10.7835H68.6081C68.1132 10.1237 67.5359 9.46389 66.8761 8.96905L68.1132 8.06183C68.8555 8.55668 69.4328 9.134 69.9277 9.87626L68.6906 10.866H70.4225V12.268H66.7112C66.7937 13.7526 67.0411 15.3196 67.2885 16.8041C67.7833 15.6495 68.1957 14.4123 68.3607 13.0928L70.0926 13.4227ZM62.2576 19.6082C62.8349 20.1031 63.4122 20.6804 63.9895 21.2577L62.5875 22C62.0926 21.4227 61.5153 20.8453 60.938 20.268L62.2576 19.6082H59.0411L60.4431 20.1031C59.7009 20.9278 58.7937 21.5876 57.8864 22.1649C57.4741 21.7526 57.0617 21.4227 56.5668 21.1752C57.3916 20.7629 58.2163 20.268 58.8761 19.6082H56.7318V18.4536H58.7937V17.8763H57.1442V16.8041H58.7937V16.3093H57.3916V12.7629H64.3194V16.3093H62.8349V16.8041H64.5668V17.8763H62.8349V18.4536H64.7318V19.6082H62.2576ZM58.7937 14.1649H60.0308V13.5876H58.7937V14.1649ZM58.7937 15.4845H60.0308V14.9072H58.7937V15.4845ZM60.1957 16.8041H61.3504V16.3093H60.1957V16.8041ZM60.1957 18.4536H61.3504V17.8763H60.1957V18.4536ZM62.7524 13.5876H61.4328V14.1649H62.7524V13.5876ZM62.7524 14.9072H61.4328V15.4845H62.7524V14.9072Z" fill="#DD204F"/>
<path d="M37.1962 4.01025H10.3096C6.35082 4.01025 3.2168 7.22673 3.2168 11.103V18.6082C3.2168 22.567 6.4333 25.701 10.3096 25.701H37.1962V4.01025Z" fill="#DD204F"/>
<path d="M24.901 16.3635L25.0659 16.281C25.2309 16.4459 25.3133 16.6109 25.4783 16.6933C26.6329 18.3428 27.7051 19.9923 28.8597 21.6418C29.2721 22.3016 30.0969 22.549 30.7566 22.1366C31.0041 21.9717 31.2515 21.7243 31.334 21.4769C31.5814 20.982 31.4989 20.4047 31.169 19.9923C30.2618 18.6727 29.3546 17.2707 28.3649 15.9511L28.6123 15.7037C30.1793 14.7964 31.0865 12.982 30.6742 11.1676C30.3443 9.35314 28.9422 8.03355 27.1278 7.78613C26.0556 7.70366 24.8185 7.70366 23.6639 7.70366C22.8391 7.62118 22.1793 8.1985 22.0969 8.94077C22.0969 9.02325 22.0969 9.18819 22.0969 9.27067C22.0969 13.0645 22.0969 16.8583 22.0969 20.5696C22.0144 21.3119 22.5092 22.0542 23.2515 22.2191C23.9938 22.3016 24.736 21.8068 24.901 21.0645C24.901 20.8995 24.901 20.8171 24.901 20.6521C24.901 19.25 24.901 17.7655 24.901 16.3635Z" fill="white"/>
<path d="M20.7767 20.7351C20.7767 20.5702 20.6942 20.4052 20.6117 20.2403C19.2921 16.4465 17.9725 12.6526 16.5705 8.85883C16.4055 8.11656 15.6633 7.62172 14.921 7.78667C14.3437 7.86914 13.9313 8.28151 13.8488 8.85883C12.4468 12.6526 11.1272 16.4465 9.72512 20.3228C9.39523 20.9825 9.72512 21.8898 10.3849 22.2197C10.4674 22.2197 10.4674 22.3021 10.5499 22.3021C11.2921 22.5496 12.1169 22.1372 12.3643 21.3949V21.3124C12.5292 20.7351 12.7767 20.2403 12.9416 19.663C13.0241 19.4155 13.2715 19.1681 13.5189 19.2506C14.5911 19.2506 15.6633 19.2506 16.7354 19.2506C17.0653 19.0856 17.3128 19.2506 17.3952 19.498C17.5602 20.1578 17.8076 20.7351 18.055 21.3949C18.3024 22.0547 18.9622 22.3846 19.622 22.3021C20.3643 22.1372 20.7767 21.4774 20.7767 20.7351Z" fill="white"/>
<path d="M24.9004 13.4769V10.5903C25.5602 10.5903 26.22 10.5903 26.9622 10.5903C27.7045 10.7553 28.1169 11.4151 28.0344 12.1573C27.9519 12.8996 27.3746 13.4769 26.6323 13.4769C26.055 13.4769 25.4777 13.4769 24.9004 13.4769Z" fill="#DD204F"/>
<path d="M16.2396 16.2811H14.1777L15.2499 13.312L16.2396 16.2811Z" fill="#DD204F"/>
</svg>
