<svg width="160" height="160" viewBox="0 0 160 160" fill="none" xmlns="http://www.w3.org/2000/svg">
<rect width="160" height="160" rx="80" fill="#78A0FC"/>
<path d="M90.0134 60.3972C89.2423 60.1711 88.562 59.945 87.8816 59.8093C87.5812 59.8205 87.2869 59.8977 87.0198 60.0354L86.657 60.1711C85.1148 60.7589 84.9788 60.7137 84.4345 59.1311L83.482 56.4631C83.4285 56.3597 83.3966 56.2466 83.3883 56.1306C83.3799 56.0145 83.3953 55.898 83.4335 55.7881C83.4717 55.6781 83.5318 55.5771 83.6103 55.491C83.6889 55.405 83.7841 55.3357 83.8902 55.2874L85.0241 54.6996C85.4459 54.4765 85.8166 54.1685 86.1127 53.7952C86.5261 53.3827 87.0201 53.0595 87.5641 52.8456C89.872 51.601 92.3043 50.6007 94.8211 49.8611C96.7904 49.2632 98.8407 48.9734 100.899 49.0019L105.797 49.5898C107.006 49.9085 108.188 50.3166 109.335 50.8107C110.968 51.5342 110.923 53.0717 109.97 54.2021C109.018 55.3326 107.929 56.5536 106.977 57.8197C106.282 58.6551 105.926 59.7199 105.979 60.8042C105.979 61.1207 106.024 61.3468 106.432 61.392C106.841 61.4372 107.249 62.0251 107.43 62.5225C107.884 63.7434 108.247 64.9643 108.7 66.14C108.896 66.4635 109.159 66.7412 109.471 66.954C111.331 68.7176 113.281 70.3454 115.05 72.1994C117.817 75.0935 120.538 78.0327 123.169 81.0624C125.758 84.0324 127.939 87.3321 129.655 90.875C129.947 91.5907 130.056 92.3677 129.973 93.136C129.7 95.9396 129.383 98.7884 129.065 101.637C128.936 102.388 128.607 103.091 128.113 103.672C127.618 104.252 126.976 104.69 126.253 104.938L121.491 106.611C121.257 106.689 121.011 106.72 120.765 106.702H120.493C119.45 107.606 118.044 107.742 116.865 108.239C114.869 109.053 112.782 109.731 110.787 110.455C109.9 110.838 108.94 111.023 107.975 110.998C106.659 110.907 105.797 110.184 104.936 109.325C103.167 107.606 101.398 105.843 99.629 104.17C98.7023 103.321 98.1211 102.162 97.9961 100.914C97.8147 99.6024 97.4972 98.3362 97.4065 97.0249C97.2251 94.0404 96.9983 91.0107 96.9983 87.981C96.9983 84.9513 97.2251 82.3286 97.4972 79.525C97.7693 76.7214 98.0415 74.7769 98.359 72.4255C98.4497 71.702 98.6765 71.0237 98.7219 70.3454C98.6495 69.8475 98.5122 69.361 98.3136 68.8984C97.9054 67.8584 97.5426 66.7731 97.1344 65.7331C97.0228 65.48 97.0123 65.1941 97.105 64.9336C97.1978 64.6731 97.3867 64.4576 97.6333 64.3313C96.6963 63.0689 95.4458 62.0715 94.0048 61.4372C93.6873 62.6129 93.4605 63.7434 93.0523 64.8287C92.5318 66.1917 91.9259 67.5208 91.238 68.808C90.8752 69.5767 90.0587 69.8028 89.2877 69.9837C89.1798 70.0285 89.061 70.0403 88.9464 70.0177C88.8318 69.9951 88.7266 69.9391 88.644 69.8567C88.5614 69.7744 88.5051 69.6694 88.4825 69.5551C88.4598 69.4409 88.4717 69.3225 88.5166 69.215C88.6527 68.4915 88.8341 67.7679 89.0155 67.0897C89.5834 64.9599 89.9329 62.7782 90.0587 60.5781C90.0465 60.5171 90.0314 60.4567 90.0134 60.3972ZM122.217 83.8208V83.6399C119.813 80.9268 117.499 78.1684 115.005 75.5457C113.191 73.6465 111.195 71.8829 109.29 70.0741C109.197 69.9967 109.086 69.9437 108.967 69.92C108.848 69.8963 108.725 69.9026 108.61 69.9385L103.756 71.6568C103.484 71.7472 103.348 71.8377 103.439 72.1542L104.482 78.3493C105.026 81.379 105.616 84.4539 106.16 87.4836C106.387 88.6141 106.569 89.7445 106.795 90.9202C108.427 90.0913 109.925 89.0244 111.24 87.7549C112.835 86.3521 114.661 85.2353 116.638 84.4539C118.428 83.8364 120.333 83.6203 122.217 83.8208ZM101.443 72.4708C100.99 72.6064 100.718 72.6969 100.672 73.2395C100.4 75.7265 99.9919 78.2588 99.8558 80.7911C99.629 84.4087 99.5836 88.0714 99.4929 91.689C99.4475 92.0959 99.6289 92.2316 100.037 92.322C101.39 92.4889 102.763 92.3812 104.074 92.0055C104.936 91.8246 104.936 91.689 104.8 90.8298C104.482 89.2019 104.165 87.6192 103.892 85.9913C103.62 84.3634 103.121 81.7859 102.759 79.6606C102.532 78.4849 102.35 77.3544 102.169 76.1787C101.988 75.003 101.67 73.7369 101.443 72.4708Z" fill="white"/>
<path d="M76.1343 58.6789C75.9045 58.669 75.6861 58.5765 75.5194 58.4186C75.3526 58.2607 75.2488 58.048 75.2271 57.8197C75.2371 57.5787 75.3346 57.3495 75.5015 57.1748C75.6684 57.0001 75.8933 56.8918 76.1343 56.8701C76.3752 56.8918 76.6001 57.0001 76.767 57.1748C76.9339 57.3495 77.0314 57.5787 77.0414 57.8197C77.0111 58.0446 76.9047 58.2524 76.7397 58.4086C76.5747 58.5649 76.3611 58.6602 76.1343 58.6789Z" fill="white"/>
<path d="M78.13 60.8042C78.1215 61.0383 78.0303 61.2619 77.8727 61.4356C77.715 61.6093 77.501 61.722 77.2682 61.7538C77.0385 61.7298 76.8225 61.6336 76.6513 61.4792C76.4801 61.3247 76.3625 61.12 76.3157 60.8946C76.3257 60.6536 76.4232 60.4244 76.5901 60.2497C76.757 60.075 76.9818 59.9667 77.2228 59.945C77.4526 59.9549 77.671 60.0473 77.8377 60.2053C78.0045 60.3632 78.1083 60.5759 78.13 60.8042Z" fill="white"/>
<path d="M78.3567 64.7835C78.127 64.7736 77.9086 64.6811 77.7418 64.5232C77.5751 64.3653 77.4713 64.1526 77.4496 63.9243C77.4596 63.6833 77.5571 63.4541 77.724 63.2794C77.8909 63.1047 78.1158 62.9964 78.3567 62.9747C78.5857 62.9963 78.7991 63.0998 78.9575 63.266C79.1159 63.4323 79.2086 63.65 79.2185 63.8791C79.2188 64.1113 79.1295 64.3347 78.969 64.5031C78.8086 64.6715 78.5894 64.7719 78.3567 64.7835Z" fill="white"/>
<path d="M83.1645 59.0406C83.1711 59.1552 83.1534 59.2698 83.1124 59.377C83.0714 59.4842 83.0081 59.5816 82.9267 59.6627C82.8454 59.7438 82.7477 59.8069 82.6402 59.8478C82.5326 59.8886 82.4176 59.9063 82.3028 59.8998C82.1879 59.9063 82.0729 59.8886 81.9653 59.8478C81.8578 59.8069 81.7601 59.7438 81.6788 59.6627C81.5974 59.5816 81.5342 59.4842 81.4932 59.377C81.4522 59.2698 81.4344 59.1552 81.441 59.0406C81.4344 58.9201 81.4534 58.7996 81.4967 58.6869C81.54 58.5743 81.6065 58.4719 81.6921 58.3866C81.7777 58.3013 81.8803 58.2349 81.9934 58.1918C82.1064 58.1486 82.2272 58.1297 82.3481 58.1362C82.4613 58.142 82.5723 58.17 82.6747 58.2186C82.777 58.2672 82.8687 58.3355 82.9446 58.4195C83.0204 58.5035 83.0789 58.6016 83.1166 58.7082C83.1544 58.8148 83.1707 58.9278 83.1645 59.0406Z" fill="white"/>
<path d="M80.307 60.6233C80.424 60.6171 80.541 60.6348 80.6508 60.6752C80.7607 60.7157 80.8611 60.778 80.946 60.8584C81.0309 60.9388 81.0984 61.0356 81.1445 61.1429C81.1906 61.2502 81.2143 61.3657 81.2142 61.4825C81.1925 61.7107 81.0887 61.9234 80.922 62.0814C80.7553 62.2393 80.5368 62.3317 80.307 62.3416C80.0733 62.3212 79.8543 62.2194 79.6884 62.054C79.5225 61.8886 79.4204 61.6703 79.3999 61.4372C79.4316 61.2172 79.5398 61.0151 79.7056 60.8664C79.8714 60.7177 80.0842 60.6316 80.307 60.6233Z" fill="white"/>
<path d="M79.1731 59.2667C78.9405 59.2551 78.7213 59.1547 78.5608 58.9863C78.4004 58.818 78.3111 58.5945 78.3114 58.3623C78.334 58.1385 78.4394 57.931 78.6071 57.7805C78.7748 57.63 78.9929 57.5472 79.2185 57.5484C79.4591 57.5484 79.6898 57.6437 79.86 57.8133C80.0301 57.9829 80.1257 58.2129 80.1257 58.4528C80.0927 58.6804 79.9779 58.8884 79.8028 59.0381C79.6276 59.1879 79.4038 59.2691 79.1731 59.2667Z" fill="white"/>
<path d="M94.7563 97.6516L94.3898 94.4215L87.4635 80.8774C87.4 80.7299 87.3134 80.5936 87.207 80.4736C87.2364 80.4084 87.2885 80.3562 87.3536 80.3268C88.2331 79.3724 88.2331 78.3814 88.2331 77.4638V77.3537C88.2331 77.2803 88.1964 77.2068 88.1964 77.1334C88.1884 76.9978 88.2007 76.8617 88.2331 76.7297C88.2874 76.3852 88.2074 76.0329 88.0096 75.7459C87.8117 75.4589 87.5112 75.2592 87.1703 75.1881C85.2616 74.5874 83.2971 74.1816 81.3068 73.9768C77.5674 73.5739 73.7892 73.7223 70.0927 74.4173C68.2604 74.7476 66.4647 75.1881 64.7056 75.5918L63.9727 75.7753C62.6451 76.1304 61.2546 76.1806 59.9049 75.9222L57.193 75.3349C55.5805 75.0045 53.9314 74.6375 52.2823 74.3438C50.6883 74.0174 49.0705 73.821 47.4448 73.7566C46.0156 73.7199 44.5864 73.83 43.1938 73.9034L41.5813 74.0135C39.6038 74.1656 37.656 74.5854 35.791 75.2615C35.5266 75.3293 35.2941 75.4874 35.1335 75.7085C34.973 75.9296 34.8944 76.1999 34.9115 76.4727V77.1701C34.9115 77.684 34.9115 78.1979 34.9482 78.7117C34.9841 79.011 35.084 79.299 35.2413 79.556L35.3147 79.6294C35.4356 79.8576 35.5702 80.0782 35.7178 80.2901C35.853 80.4774 35.9754 80.6736 36.0842 80.8774L35.9376 81.1343L30.3306 94.4582C30.2532 94.6359 30.1918 94.8202 30.1474 95.0088C30.0422 95.3912 29.9929 95.7868 30.0008 96.1834V97.6516C30.0008 99.8127 30.858 101.885 32.3837 103.413C33.9094 104.942 35.9788 105.8 38.1365 105.8H86.6206C91.0916 105.8 95.1227 102.13 94.7563 97.6516ZM85.0814 87.3374C85.4112 86.4198 85.6678 85.4655 85.9243 84.5112C85.9683 84.2865 86.0296 84.0656 86.1076 83.8505L91.5313 94.4582H87.3902L84.5317 88.512C84.7516 88.1387 84.9356 87.7455 85.0814 87.3374ZM66.428 78.932C66.4933 78.818 66.5805 78.7182 66.6846 78.6383C67.2426 78.0173 67.968 77.5711 68.7735 77.3537C69.9637 77.0138 71.176 76.7562 72.4015 76.5829C73.2078 76.4727 74.0873 76.436 74.9302 76.3993H76.0296C77.8253 76.3993 79.5843 76.4727 81.2701 77.06C82.2596 77.3904 82.8826 77.9042 83.1758 78.675C83.3452 79.0563 83.4326 79.469 83.4323 79.8863C83.5213 81.9875 83.2991 84.0903 82.7727 86.1262C82.5706 86.8435 82.2348 87.516 81.7832 88.1083C81.7465 88.2184 81.6732 88.2551 81.5999 88.3652C81.2186 88.787 80.7734 89.1462 80.2807 89.4296C79.9449 89.6272 79.5885 89.7872 79.2179 89.9068C76.7812 90.696 74.164 90.7344 71.7052 90.0169C70.924 89.7932 70.1995 89.4053 69.5797 88.8791C68.9712 88.3337 68.4299 87.7176 67.9672 87.0438C67.8573 86.8603 67.7107 86.6768 67.6008 86.4565L67.4542 86.2363C66.9689 85.5042 66.5751 84.7153 66.2815 83.8872C66.1618 83.5667 66.0758 83.2345 66.0249 82.8961C65.9025 82.3532 65.829 81.8004 65.805 81.2444C65.727 80.4235 65.9483 79.6021 66.428 78.932ZM60.4546 81.2077H60.4912C60.6378 80.4736 60.821 80.1065 61.2242 79.9597C61.3423 79.8955 61.4746 79.8618 61.609 79.8618C61.7434 79.8618 61.8756 79.8955 61.9937 79.9597C62.1494 80.0639 62.2819 80.1991 62.3828 80.3571C62.4837 80.515 62.5509 80.6921 62.5801 80.8774C62.6186 80.9964 62.6433 81.1196 62.6534 81.2444C62.8273 82.1434 63.0724 83.0271 63.3863 83.8872H59.7583C60.0696 83.0166 60.3026 82.1198 60.4546 81.2077ZM39.9322 78.6383C40.018 78.3603 40.1599 78.1029 40.349 77.8819C40.5381 77.6609 40.7704 77.4812 41.0316 77.3537C42.1361 76.7933 43.349 76.4802 44.5864 76.436H47.0417C47.9213 76.436 48.7641 76.436 49.5704 76.5094C51.8425 76.6196 53.5283 76.9866 55.0308 77.684C55.5718 77.9094 56.059 78.2471 56.46 78.675C56.7726 79.0214 57.0117 79.4277 57.1629 79.8694C57.314 80.311 57.3742 80.7788 57.3396 81.2444V81.3178C57.2866 82.2007 57.0885 83.0689 56.7532 83.8872C56.428 84.7846 56.0104 85.6457 55.5072 86.4565C55.3606 86.6768 55.2507 86.897 55.1041 87.0805C54.9575 87.264 54.8109 87.521 54.6643 87.7412L54.4811 87.9981C54.2087 88.3373 53.8876 88.6342 53.5283 88.8791C52.3333 89.7142 50.9463 90.232 49.4971 90.384C47.1883 90.6042 45.3926 90.4574 43.7435 89.8334C43.3853 89.7119 43.0412 89.5519 42.7174 89.3562C42.2913 89.0995 41.9079 88.7774 41.5813 88.4019L41.2148 87.9614C40.9712 87.5773 40.7627 87.1719 40.5918 86.7502C39.9322 84.9149 39.6757 82.8227 39.7123 79.9964C39.6968 79.5337 39.7714 79.0724 39.9322 78.6383ZM40.6651 90.6776C41.3604 91.1386 42.1116 91.5086 42.9006 91.7788C44.8795 92.5129 46.9318 92.5496 48.6909 92.4762C51.2172 92.5827 53.6906 91.7307 55.6171 90.0903H55.6538L55.837 89.9068L56.0203 89.76V89.6866C56.6248 89.1478 57.1547 88.5306 57.5961 87.8513L57.6694 87.7412V87.6678C57.9592 87.2659 58.2283 86.8493 58.4756 86.4198H64.4858L64.8522 87.0438L65.292 87.6311C65.7754 88.3557 66.3277 89.0318 66.9411 89.6499C68.2752 91.0052 70.0103 91.8934 71.8885 92.1825C73.0863 92.3952 74.3 92.5057 75.5165 92.5129C77.4296 92.5382 79.3269 92.1631 81.0869 91.4117C81.4555 91.2575 81.811 91.0734 82.1497 90.8611L82.5894 90.5308L84.4951 94.4582H39.1992L40.6651 90.6776ZM37.2569 84.658L37.9166 86.9337C38.1104 87.5294 38.3814 88.0971 38.7228 88.6221L36.4507 94.4582H33.1158L37.2569 84.658ZM92.191 97.6516C92.1862 97.9483 92.1493 98.2437 92.081 98.5325C91.8821 99.9202 91.1447 101.173 90.0288 102.019C89.784 102.236 89.5131 102.421 89.2226 102.57C88.4231 103.002 87.5291 103.229 86.6206 103.231H38.1365C37.1895 103.221 36.259 102.982 35.4246 102.533L34.6184 101.983C33.5604 101.113 32.8565 99.886 32.6394 98.5325C32.5998 98.2403 32.5753 97.9463 32.5661 97.6516V97.0276H92.191V97.6516Z" fill="white"/>
</svg>
