<svg width="130" height="44" viewBox="0 0 130 44" fill="none" xmlns="http://www.w3.org/2000/svg">
<path d="M0 0H130V44H5C2.23858 44 0 41.7614 0 39V0Z" fill="#006DC9"/>
<path d="M31.598 31.6808L38.8175 24.4613C39.0249 24.254 39.1387 23.9816 39.1387 23.6889C39.1387 23.3963 39.0249 23.1198 38.8175 22.9166L38.1631 22.254C37.9557 22.0467 37.6834 21.9328 37.3907 21.9328C37.098 21.9328 36.8135 22.0467 36.6062 22.254L32.3826 26.4694L32.3826 13.0833C32.3826 12.4776 31.911 12.002 31.3053 12.002L30.3785 12.002C29.7728 12.002 29.2566 12.4776 29.2566 13.0833L29.2566 26.5182L25.0086 22.254C24.8013 22.0467 24.533 21.9328 24.2403 21.9328C23.9476 21.9328 23.6753 22.0467 23.472 22.254L22.8175 22.9085C22.6102 23.1158 22.5005 23.3881 22.5005 23.6808C22.5005 23.9735 22.6143 24.2499 22.8216 24.4532L30.0452 31.6767C30.2525 31.8841 30.5289 31.9979 30.8216 31.9979C31.1143 32.002 31.3907 31.8881 31.598 31.6808Z" fill="white"/>
<path d="M50.5547 19.7109C51.4453 20.9974 51.8906 22.2135 51.8906 23.3594C51.8906 24.8542 51.1562 25.6016 49.6875 25.6016C49.5312 25.6016 49.362 25.5964 49.1797 25.5859L48.7812 24.1562C48.9844 24.1927 49.2214 24.2109 49.4922 24.2109C49.8672 24.2109 50.1224 24.1589 50.2578 24.0547C50.3932 23.9505 50.4609 23.7422 50.4609 23.4297C50.4609 22.2526 49.987 21.0625 49.0391 19.8594C49.3411 19.1146 49.7083 18.0052 50.1406 16.5312H48.3828V28.8281H47.0078V15.1016H51.625V16.5312C51.2812 17.6979 50.9245 18.7578 50.5547 19.7109ZM59.7422 21.8203H54.0156V26.9609C54.75 26.737 55.5339 26.4271 56.3672 26.0312L56.4453 27.5234C55.0026 28.1484 53.7969 28.5781 52.8281 28.8125L52.3125 27.6172C52.5156 27.487 52.6172 27.2786 52.6172 26.9922V15.1484H59.7422V21.8203ZM58.3125 17.8594V16.4297H54.0156V17.8594H58.3125ZM58.3125 20.5469V19.1172H54.0156V20.5469H58.3125ZM60.6328 27.7422L59.8203 28.9141C57.5495 27.5391 56.0625 25.5104 55.3594 22.8281L56.6484 22.4297C56.8411 23.112 57.0781 23.7161 57.3594 24.2422C58.0521 23.7422 58.7292 23.1016 59.3906 22.3203L60.4141 23.25C59.6224 24.2083 58.849 24.9609 58.0938 25.5078C58.7656 26.3776 59.612 27.1224 60.6328 27.7422ZM76.3516 17.6797H72.7969V19.4062H75.9297V20.6719H68.3125V19.4062H71.3906V17.6797H67.8984V16.3984H71.4062V14.8281H72.7812V16.3984H76.3516V17.6797ZM67.1016 27.6484H65.7422V26.9141H64.3984V28.0312H63.0078V15.7422H67.1016V27.6484ZM65.7422 20.8281V17.0391L64.3984 17.0234V20.8125L65.7422 20.8281ZM65.7422 25.6172V22.125H64.3984V25.6172H65.7422ZM76.5078 23.5547H74.9688V27.3125C74.9688 27.7031 74.8906 28.0078 74.7344 28.2266C74.5781 28.4505 74.3802 28.599 74.1406 28.6719C73.901 28.7448 73.4323 28.7812 72.7344 28.7812C72.375 28.7812 72.0443 28.7708 71.7422 28.75L71.3203 27.4375C72.0547 27.4167 72.6953 27.4062 73.2422 27.4062C73.4766 27.4062 73.5938 27.2786 73.5938 27.0234V23.5547H67.7422V22.2734H73.5938V21.25H74.9688V22.2734H76.5078V23.5547ZM71.6562 26.3359L70.4922 27.1016C69.9714 26.3672 69.2943 25.599 68.4609 24.7969L69.5625 23.9844C70.4896 24.8177 71.1875 25.6016 71.6562 26.3359ZM82.125 14.9453C82.0417 15.4193 81.8802 16.0755 81.6406 16.9141L81.2734 18.0938V28.8281H79.8984V21.2188C79.5755 21.7812 79.3047 22.2135 79.0859 22.5156L78.4453 20.8672C79.5182 19.1589 80.3073 17.1042 80.8125 14.7031L82.125 14.9453ZM92.3984 16.1406H87.8828C87.8307 16.349 87.75 16.5521 87.6406 16.75H91.0391V20.6406H92.3125V22.6562H91.1328C91.4453 23.0417 91.7552 23.5052 92.0625 24.0469L91.0547 24.7031C90.5703 23.8333 90.0677 23.1042 89.5469 22.5156L90.4609 21.875C90.5599 21.974 90.7188 22.1484 90.9375 22.3984V21.6328H83.4531V22.6562C83.6562 22.3333 83.7786 22.1354 83.8203 22.0625L84.7812 22.5469C84.4219 23.2917 83.9089 24.0052 83.2422 24.6875L82.3828 23.9688C82.7682 23.6094 83.1146 23.1875 83.4219 22.7031H82.0781V20.6406H83.3594V16.7656H86.1562C86.2708 16.5208 86.3516 16.3125 86.3984 16.1406H82.3984V15.0547H92.3984V16.1406ZM89.6562 18.1094V17.5859H84.7812V18.1094H89.6562ZM89.6562 19.3438V18.8125H84.7812V19.3438H89.6562ZM89.6562 20.6406V20.0781H84.7812V20.6406H89.6562ZM88.3516 22.2891L87.8828 23.1016C87.3724 22.8255 86.9453 22.6406 86.6016 22.5469L87.0078 21.7578C87.4193 21.8516 87.8672 22.0286 88.3516 22.2891ZM92.7188 27.6484L92.2188 28.8672C90.4427 28.6641 88.7995 28.3229 87.2891 27.8438C86.0599 28.3438 84.4062 28.7161 82.3281 28.9609L81.7891 27.7734C83.3776 27.6693 84.7161 27.4557 85.8047 27.1328C85.1849 26.7682 84.7786 26.513 84.5859 26.3672C83.8776 26.7734 83.3021 27.0729 82.8594 27.2656L82.125 26.2891C82.6823 26.0599 83.1667 25.8307 83.5781 25.6016C83.3854 25.4505 83.2422 25.3229 83.1484 25.2188L84.0938 24.5156C84.224 24.6302 84.4089 24.7786 84.6484 24.9609C85.013 24.6901 85.3229 24.4297 85.5781 24.1797C85.1719 23.9974 84.9688 23.6719 84.9688 23.2031V22.0156H86.25V22.9922C86.25 23.2161 86.362 23.3281 86.5859 23.3281L88.1562 23.2812C88.25 23.2812 88.3359 23.2526 88.4141 23.1953C88.4922 23.1328 88.5703 22.9115 88.6484 22.5312L89.6797 23.0391C89.6276 23.5286 89.4505 23.8646 89.1484 24.0469C88.8516 24.2292 88.1589 24.3047 87.0703 24.2734C87.013 24.3828 86.8802 24.5312 86.6719 24.7188H90.6016V25.6641C90.0391 26.2057 89.4479 26.6693 88.8281 27.0547C89.8177 27.3568 91.1146 27.5547 92.7188 27.6484ZM88.8438 25.6641H85.6406C86.1562 26.0234 86.724 26.3281 87.3438 26.5781C87.7083 26.3958 88.2083 26.0911 88.8438 25.6641ZM108.57 24.4453L107.422 25.1875C107.177 24.8906 106.846 24.5417 106.43 24.1406C102.909 24.4323 99.0573 24.5885 94.875 24.6094L94.6328 23.4062C97.0911 23.4062 99.1719 23.375 100.875 23.3125V22.3047H95.9453V17.6797H100.875V16.8672H94.5703V15.6797H100.875V14.8516H102.234V15.6797H108.477V16.8672H102.234V17.6797H107.18V22.3047H106.219C107.078 22.9661 107.862 23.6797 108.57 24.4453ZM105.805 19.4688V18.7344H102.234V19.4688H105.805ZM100.875 19.4688V18.7344H97.3047V19.4688H100.875ZM105.805 21.25V20.4609H102.234V21.25H105.805ZM100.875 21.25V20.4609H97.3047V21.25H100.875ZM105.805 22.3047H102.234V23.25C103.49 23.2188 104.482 23.1641 105.211 23.0859C105.044 22.9453 104.901 22.8333 104.781 22.75L105.805 22.3047ZM103.469 26.0781L102.234 26.7344C101.802 26.1354 101.385 25.6719 100.984 25.3438L102.203 24.6562C102.745 25.1302 103.167 25.6042 103.469 26.0781ZM108.57 27.7422L107.289 28.3984C106.997 27.7109 106.385 26.7344 105.453 25.4688L106.672 24.9141C107.396 25.7995 108.029 26.7422 108.57 27.7422ZM97.4688 25.5703C96.9844 26.7161 96.4193 27.6745 95.7734 28.4453L94.5703 27.6641C95.2422 26.9036 95.7865 26.0286 96.2031 25.0391L97.4688 25.5703ZM105.578 26.4609C105.521 27.2214 105.372 27.7734 105.133 28.1172C104.893 28.4661 104.508 28.6406 103.977 28.6406H99.4844C99.1458 28.625 98.875 28.4948 98.6719 28.25C98.4688 28.0052 98.3672 27.7292 98.3672 27.4219V25.2344H99.7578V26.9766C99.7578 27.2318 99.8854 27.3594 100.141 27.3594L103.531 27.3438C103.958 27.3438 104.172 26.9219 104.172 26.0781L105.578 26.4609Z" fill="white"/>
</svg>
