<svg width="11" height="6" viewBox="0 0 11 6" fill="none" xmlns="http://www.w3.org/2000/svg">
<path d="M5.5 5.5L1 0.5H10L5.5 5.5Z" fill="black" stroke="black" stroke-linecap="round" stroke-linejoin="round"/>
</svg>
