<svg width="36" height="35" viewBox="0 0 36 35" fill="none" xmlns="http://www.w3.org/2000/svg">
<g clip-path="url(#clip0)">
<path d="M22.1478 8.33174C20.6054 5.7873 18.3585 4.15982 15.4679 3.49183C13.8586 3.12139 12.2251 3.14569 10.6097 3.55863C8.69686 4.05051 7.04509 5.02214 5.68482 6.45529C5.42369 6.72856 5.18686 7.02612 4.97431 7.28724C4.88322 7.39655 4.79213 7.50586 4.70712 7.6091L4.68283 7.63946C4.36705 8.10705 3.9116 8.84792 3.56546 9.72846L3.55331 9.75882C3.07964 10.9005 2.82459 12.115 2.79423 13.366C2.76386 14.702 2.73957 16.2809 2.79423 17.8476C2.85495 19.5662 3.6444 20.8718 5.14435 21.7159C5.95809 22.1714 6.8872 22.3475 8.07745 22.2564C8.46003 22.226 8.85475 22.1288 9.21304 21.977C10.883 21.2605 11.63 19.3597 10.9255 17.6594C10.464 16.5541 9.60776 15.8679 8.50253 15.7283C7.90134 15.6493 7.30015 15.6493 6.7111 15.6493C6.44997 15.6493 6.18277 15.6493 5.92165 15.6432C5.90343 15.6432 5.89129 15.6432 5.87307 15.6432C5.87307 15.4671 5.867 15.291 5.867 15.1149C5.86092 14.4773 5.84878 13.8761 5.88521 13.2749C5.95809 11.8782 6.38925 10.609 7.16655 9.50984C8.43573 7.71233 10.0936 6.69212 12.2251 6.39456C13.81 6.16987 15.2978 6.43707 16.646 7.19008C18.8564 8.41676 20.1378 10.3054 20.4657 12.7891C20.6418 14.1433 20.4293 15.4611 19.8098 16.8092C19.5669 17.3436 19.318 17.884 19.069 18.4184C18.7471 19.1168 18.4253 19.8152 18.1095 20.5135C17.6723 21.4791 17.235 22.4385 16.7978 23.4041C16.5853 23.8717 16.3788 24.3332 16.1662 24.8008C16.0144 25.1287 15.8687 25.4627 15.7169 25.7907C15.3586 26.5801 14.9942 27.3999 14.6116 28.1894C14.5691 28.2805 14.5266 28.3715 14.4841 28.4626C14.2412 28.9788 13.9922 29.5071 13.6582 29.9322C12.9842 30.7824 12.1097 31.335 11.1199 31.5354C10.13 31.7358 9.09766 31.5718 8.14425 31.0557C7.02688 30.4545 6.31637 29.5132 6.02489 28.2683C5.97023 28.0315 5.92772 27.7886 5.88521 27.5335C5.86092 27.4121 5.84271 27.2845 5.81841 27.157L5.76376 26.8595H5.46013C5.38118 26.8595 5.30831 26.8595 5.22937 26.8595C5.05933 26.8595 4.87715 26.8655 4.70712 26.8534C4.50065 26.8412 4.34276 26.8959 4.22738 27.0052C4.06341 27.157 4.03912 27.3696 4.03305 27.5153C4.00876 28.3898 4.22738 29.246 4.70712 30.1326C5.72125 32.003 7.28193 33.1143 9.34663 33.424C9.68063 33.4726 10.0086 33.4969 10.3365 33.4969C11.7089 33.4969 12.9842 33.0475 14.138 32.1548C14.9639 31.5172 15.6015 30.6609 16.0934 29.5496C16.4213 28.7966 16.7796 28.0315 17.1196 27.2967C17.2958 26.9141 17.484 26.5194 17.6601 26.1307C17.8484 25.7239 18.0366 25.3109 18.2188 24.9041C18.6196 24.0174 19.0386 23.1065 19.4576 22.2139C19.4698 22.1835 19.5366 22.1288 19.5791 22.1167C20.3867 21.8616 20.9819 21.4001 21.3523 20.7443C21.6013 20.301 21.8138 19.8394 22.0203 19.3901C22.1235 19.1593 22.2328 18.9225 22.3482 18.6917C23.1012 17.1371 23.4959 15.7768 23.587 14.4044C23.7267 12.1818 23.2409 10.1353 22.1478 8.33174Z" fill="#006DC9"/>
<path d="M7.87549 23.3545L7.52935 23.3727V25.0791L7.79047 25.1581C7.80262 25.1642 7.81476 25.1642 7.82691 25.1702C7.86942 25.1824 7.92407 25.2006 7.99087 25.2067C8.06374 25.2127 8.13662 25.2067 8.20341 25.2067H8.22771C8.9625 25.1945 9.70336 25.0123 10.4989 24.6541C11.6648 24.1257 12.6304 23.2573 13.2862 22.1521C13.936 21.053 14.2336 19.802 14.1546 18.5267C14.1486 18.4478 13.9846 17.3851 13.9057 17.1907C13.8692 17.0936 13.8328 16.9964 13.7903 16.8993C13.6385 16.5106 13.4866 16.1037 13.2619 15.7333C12.43 14.3609 11.2519 13.4378 9.76409 12.9885C9.50297 12.9095 9.24184 12.8488 8.9625 12.782C8.95035 12.782 8.93821 12.7759 8.92606 12.7759C8.93821 12.7456 8.94428 12.7152 8.95643 12.6848C9.05359 12.369 9.15075 12.0715 9.27828 11.7982C9.76409 10.7294 10.6386 9.92176 11.7438 9.52704C12.8612 9.12624 14.0635 9.19304 15.1384 9.72137C17.2881 10.7719 18.1869 13.3953 17.1424 15.5754C16.6869 16.5228 16.2497 17.4944 15.8246 18.4296C15.6849 18.7393 15.5453 19.049 15.3995 19.3648C14.8955 20.47 14.3915 21.5752 13.8874 22.6865L12.4725 25.8018L14.1971 26.5852L14.349 26.2572C14.5433 25.8382 14.7376 25.4131 14.9259 25.0002C15.3509 24.0832 15.7882 23.1359 16.2072 22.2007V22.1946C16.8995 20.6765 17.6161 19.1036 18.3144 17.5551C18.3934 17.379 18.4784 17.2029 18.5573 17.0329C18.8974 16.3041 19.2496 15.5572 19.3832 14.707C19.62 13.2131 19.3771 11.8286 18.6666 10.5837C17.7193 8.92585 16.274 7.88742 14.3793 7.49877C13.0555 7.2255 11.7559 7.39553 10.5171 7.99673C8.68923 8.87726 7.53542 10.3408 7.0739 12.3448C6.92208 13.0067 6.93423 13.6686 6.97066 14.2759L6.99495 14.6524L7.37146 14.6159C8.60421 14.5006 9.64871 14.786 10.5535 15.4904C11.4948 16.2191 12.0535 17.1786 12.2235 18.3324C12.3693 19.3283 12.1932 20.2514 11.7073 21.0773C10.8815 22.4983 9.58798 23.2634 7.87549 23.3545Z" fill="#006DC9"/>
<g clip-path="url(#clip1)">
<path d="M33.4441 10.0192C33.0541 7.23405 31.6046 4.7693 29.3577 3.07702C28.9873 2.79808 28.4613 2.87254 28.182 3.24346C27.9026 3.61439 27.9763 4.14048 28.3467 4.41942C32.2443 7.35499 33.02 12.9165 30.0826 16.8165C30.0188 16.9013 29.9487 16.9869 29.8681 17.0867C29.5746 17.447 29.6297 17.9757 29.9894 18.2688C29.9965 18.2741 30.007 18.2821 30.0141 18.2874C30.3739 18.5584 30.883 18.4989 31.1712 18.1457C31.2652 18.0282 31.3512 17.9214 31.4257 17.8225C33.1152 15.5793 33.8341 12.8044 33.4441 10.0192Z" fill="#EF3D3B"/>
<path d="M27.5921 5.41882C27.2217 5.13988 26.6957 5.21433 26.4164 5.58526C26.137 5.95618 26.2107 6.48227 26.581 6.76121C29.2336 8.759 29.7675 12.5495 27.7641 15.2095C27.7215 15.266 27.6763 15.3261 27.6195 15.3941C27.4768 15.5689 27.4126 15.7863 27.4341 16.0074C27.4591 16.2311 27.5628 16.431 27.7374 16.5735C27.7444 16.5788 27.755 16.5868 27.7621 16.5921C28.1218 16.8631 28.631 16.8037 28.9191 16.4504C28.9892 16.3648 29.0477 16.287 29.1036 16.2129C31.664 12.8207 30.9853 7.9745 27.5921 5.41882Z" fill="#EF3D3B"/>
<path d="M25.7248 7.20144C25.365 6.93046 24.8541 6.99964 24.5801 7.3635C24.306 7.72736 24.3806 8.23753 24.7404 8.50851C26.3453 9.71727 26.6695 12.01 25.4563 13.6208C25.4297 13.6562 25.4031 13.6915 25.3676 13.7312C25.0821 14.0809 25.1355 14.5972 25.4846 14.8824C25.4917 14.8877 25.5023 14.8956 25.5093 14.901C25.8621 15.1666 26.3553 15.1063 26.6355 14.7636C26.6842 14.7062 26.7241 14.6532 26.764 14.6002C28.5174 12.2722 28.0493 8.95215 25.7248 7.20144Z" fill="#EF3D3B"/>
</g>
</g>
<defs>
<clipPath id="clip0">
<rect width="35" height="35" fill="white" transform="translate(0.427734)"/>
</clipPath>
<clipPath id="clip1">
<rect width="11.7594" height="11.7594" fill="white" transform="translate(28.3691 2.33301) rotate(36.9855)"/>
</clipPath>
</defs>
</svg>
