<svg width="90" height="90" viewBox="0 0 90 90" fill="none" xmlns="http://www.w3.org/2000/svg">
<g clip-path="url(#clip0)">
<path d="M87.5557 38.4215C84.47 35.85 83.6129 32.6572 85.0057 28.8858C86.3986 25.1143 85.1557 22.6715 81.2772 21.5786C77.3986 20.4858 75.32 17.9143 75.0629 13.9072C74.8057 9.87861 72.6629 8.16432 68.6772 8.74289C64.6914 9.32147 61.7557 7.82147 59.87 4.26432C57.9843 0.70718 55.3486 3.7261e-05 51.9414 2.14289C48.5343 4.28575 45.2343 4.11432 42.0843 1.62861C38.9129 -0.857106 36.2129 -0.428534 33.9843 2.91432C31.7343 6.25718 28.67 7.43575 24.77 6.45004C20.87 5.46432 18.5772 6.94289 17.8915 10.9286C17.2057 14.8929 14.87 17.2286 10.9057 17.9143C6.92003 18.5572 5.42004 20.85 6.42718 24.7715C7.41289 28.6715 6.23432 31.7572 2.89146 33.9858C-0.451392 36.2358 -0.879963 38.9358 1.60575 42.0858C4.09146 45.2572 4.26289 48.5358 2.12004 51.9429C-0.0228204 55.35 0.684322 57.9858 4.24146 59.8715C7.79861 61.7572 9.29861 64.6929 8.72003 68.6786C8.14146 72.6643 9.87718 74.7857 13.8843 75.0643C17.9129 75.3215 20.4629 77.4 21.5557 81.2786C22.6486 85.1572 25.0915 86.4 28.8629 85.0072C32.6343 83.6143 35.8272 84.4715 38.3986 87.5572C40.97 90.6429 43.7129 90.7929 46.6057 87.9858C49.4986 85.1786 52.7557 84.6643 56.3557 86.4429C59.9772 88.2215 62.5272 87.2358 64.0272 83.5072C65.5272 79.7572 68.2914 77.9786 72.32 78.1286C76.3486 78.2786 78.2772 76.35 78.1272 72.3215C77.9772 68.2929 79.7557 65.5286 83.5057 64.0286C87.2557 62.5286 88.22 59.9786 86.4414 56.3572C84.6629 52.7358 85.1772 49.5 87.9843 46.6072C90.8129 43.7358 90.6629 40.9929 87.5557 38.4215ZM44.9986 82.3072C24.4272 82.3072 7.69146 65.5715 7.69146 45C7.69146 24.4286 24.4272 7.69289 44.9986 7.69289C65.57 7.69289 82.3057 24.4286 82.3057 45C82.3057 65.5715 65.57 82.3072 44.9986 82.3072Z" fill="#FF614C"/>
<path d="M53.5053 18.6429L52.541 20.5929L53.141 20.8072L53.5053 18.6429Z" fill="#FF614C"/>
<path d="M21.1297 36.3L21.3655 35.7215L19.2012 35.2929L21.1297 36.3Z" fill="#FF614C"/>
<path d="M58.9925 22.4786C59.0996 22.4358 59.2282 22.3286 59.3567 22.1143C59.4853 21.9215 59.5282 21.75 59.4853 21.6215C59.4425 21.4929 59.3353 21.3643 59.0996 21.2358L59.0139 21.1929L58.3496 22.2643L58.521 22.3715C58.7139 22.4572 58.8639 22.5 58.9925 22.4786Z" fill="#FF614C"/>
<path d="M63.6431 26.25C63.7717 26.25 63.9217 26.1429 64.0931 25.9714C64.2646 25.8 64.3503 25.65 64.3288 25.5214C64.3288 25.3929 64.2217 25.2429 64.0503 25.05L63.986 24.9857L63.1074 25.8643L63.236 25.9929C63.3646 26.1857 63.5146 26.2714 63.6431 26.25Z" fill="#FF614C"/>
<path d="M44.9997 9.62146C25.4997 9.62146 9.62109 25.5 9.62109 45C9.62109 64.5215 25.4997 80.3786 44.9997 80.3786C64.5211 80.3786 80.3782 64.5 80.3782 45C80.3782 25.5 64.5211 9.62146 44.9997 9.62146ZM73.5425 44.25L70.7782 44.5286L70.6497 43.2L71.6782 43.0929C71.8497 43.0715 71.9782 43.0286 72.0425 42.9858C72.1068 42.9215 72.1282 42.8143 72.1282 42.6857L68.9354 43.0072C68.764 43.0286 68.6354 43.0715 68.5711 43.1143C68.5068 43.1786 68.4425 43.2643 68.4211 43.3929L67.3497 43.5L67.0925 41.0357L68.164 40.9286C68.2282 41.0357 68.2925 41.1215 68.3568 41.1643C68.4425 41.2072 68.5711 41.2072 68.7425 41.1857L71.9354 40.8643C71.914 40.7143 71.8711 40.6286 71.7854 40.5857C71.7211 40.5429 71.5925 40.5215 71.3997 40.5429L70.3711 40.65L70.2425 39.3215L73.0068 39.0429L73.5425 44.25ZM70.0497 33.2143L71.0568 32.8715L71.7425 34.8643L69.1925 36.9643L70.564 36.4929C70.7568 36.4286 70.864 36.3643 70.9282 36.3C70.9925 36.2357 71.014 36.15 71.014 36.0429L72.0211 35.7L72.664 37.5857L71.6568 37.9286C71.5925 37.8643 71.5282 37.8215 71.4425 37.8215C71.3568 37.8215 71.2282 37.8429 71.0568 37.9072L66.814 39.3643L66.214 37.6072L68.5711 35.55L67.3711 35.9572C67.1782 36.0215 67.0711 36.0857 67.0068 36.1286C66.9425 36.1929 66.9211 36.2572 66.9211 36.3429L65.8925 36.6857L65.2497 34.8429L66.2782 34.5C66.3425 34.5643 66.4282 34.6072 66.514 34.6072C66.5997 34.6072 66.7282 34.5857 66.8782 34.5429L69.5568 33.6215C69.7068 33.5572 69.8354 33.5143 69.8997 33.45C70.0068 33.3857 70.0497 33.3215 70.0497 33.2143ZM69.7711 30.4715L66.4282 33.6643C66.3211 33.7715 66.2568 33.8572 66.214 33.9429C66.1711 34.0286 66.1497 34.1143 66.1711 34.1786L65.2497 34.7572L63.9854 32.7429L64.9068 32.1643C64.9497 32.2072 65.014 32.2286 65.0782 32.2286C65.1425 32.2286 65.2068 32.2072 65.2925 32.1643C65.314 32.1643 65.314 32.1429 65.3568 32.1215C65.3782 32.1 65.3997 32.0786 65.4211 32.0572L64.9282 31.2643C64.9068 31.2643 64.8854 31.2857 64.8425 31.3072C64.7997 31.3286 64.7782 31.3286 64.7568 31.35C64.6711 31.3929 64.6282 31.4572 64.6068 31.5215C64.5854 31.5857 64.6068 31.65 64.6282 31.7357L63.7068 32.3143L62.5925 30.5143L63.514 29.9357C63.5568 29.9786 63.6425 29.9786 63.7282 29.9786C63.8354 29.9786 63.9425 29.9357 64.0711 29.8929L68.3354 28.2L69.7711 30.4715ZM62.614 23.6357C62.6354 23.55 62.6568 23.4643 62.614 23.3786L63.364 22.6286L65.2497 24.5143C65.8068 25.0715 66.1068 25.5429 66.1497 25.95C66.1925 26.3572 66.0211 26.7643 65.5925 27.1929C65.314 27.4715 65.0568 27.6215 64.7997 27.6857C64.5425 27.75 64.264 27.6857 63.9854 27.5572C64.1354 27.8143 64.1997 28.0286 64.1568 28.2215C64.1354 28.4143 63.964 28.65 63.664 28.9715C63.664 28.9929 63.6425 28.9929 63.6211 29.0143C63.3425 29.2929 63.2354 29.5286 63.2782 29.6786L62.5068 30.45L61.0711 29.0143C61.2211 28.7786 61.4997 28.4357 61.9282 28.0072C62.014 27.9215 62.0568 27.8572 62.0997 27.8143C62.3354 27.5572 62.464 27.3857 62.4854 27.2572C62.5068 27.1286 62.4211 27 62.2711 26.85L62.1854 26.7643L61.6711 27.2786C61.5211 27.4286 61.4354 27.5357 61.414 27.6C61.3925 27.6643 61.3925 27.75 61.4354 27.8357L60.664 28.6072L59.014 26.9572L59.7854 26.1857C59.8711 26.2072 59.9568 26.2072 60.0425 26.1857C60.1282 26.1429 60.214 26.0786 60.3425 25.95L62.3354 23.9357C62.4854 23.8072 62.5711 23.7215 62.614 23.6357ZM55.7354 22.9072L57.2354 20.5072C57.3211 20.3572 57.3854 20.25 57.3854 20.1643C57.4068 20.0786 57.3854 19.9929 57.3425 19.9286L57.8997 19.0286L60.1711 20.4429C60.8354 20.85 61.2425 21.2572 61.3711 21.6429C61.4997 22.0286 61.414 22.4572 61.114 22.9715C60.9211 23.2929 60.6854 23.5286 60.4497 23.6357C60.214 23.7429 59.9354 23.7643 59.614 23.6786C59.8282 23.8929 59.9354 24.1072 59.9354 24.2786C59.9568 24.4715 59.8497 24.75 59.6354 25.1143C59.6354 25.1357 59.614 25.1572 59.614 25.1786C59.4211 25.5215 59.3568 25.7572 59.4425 25.8857L58.864 26.8072L57.1497 25.7357C57.2354 25.4786 57.4282 25.0715 57.7497 24.5572C57.814 24.4715 57.8568 24.3857 57.8782 24.3429C58.0497 24.0429 58.1354 23.8286 58.114 23.7215C58.0925 23.5929 58.0068 23.4857 57.814 23.3786L57.7282 23.3143L57.3425 23.9357C57.2354 24.1072 57.1711 24.2357 57.1711 24.3C57.1711 24.3857 57.1925 24.45 57.2354 24.5357L56.6568 25.4572L54.664 24.2143L55.2425 23.2929C55.3282 23.2929 55.414 23.2715 55.4782 23.2286C55.564 23.1429 55.6497 23.0572 55.7354 22.9072ZM50.5497 21.0429L52.7997 17.0357L55.3497 17.9143L54.7711 22.5C54.7497 22.65 54.7497 22.7572 54.7711 22.8643C54.7925 22.9715 54.8354 23.0357 54.8782 23.0786L54.5354 24.1072L52.2854 23.3357L52.6282 22.3072C52.6925 22.3072 52.7568 22.2857 52.7997 22.2429C52.864 22.2 52.8854 22.1357 52.9282 22.0715C52.9282 22.05 52.9282 22.0286 52.9497 21.9857C52.9497 21.9429 52.9497 21.9215 52.9497 21.9L52.0711 21.6C52.0711 21.6215 52.0497 21.6429 52.0282 21.6857C52.0068 21.7286 51.9854 21.75 51.9854 21.7715C51.964 21.8572 51.964 21.9215 51.9854 21.9857C52.0068 22.05 52.0711 22.0929 52.1568 22.1357L51.814 23.1643L49.8211 22.4786L50.164 21.45C50.2282 21.45 50.2925 21.4072 50.3568 21.3429C50.3997 21.2572 50.464 21.1715 50.5497 21.0429ZM43.3925 15.7929L45.7282 15.9429L45.664 17.0143C45.5997 17.0357 45.5568 17.0786 45.5354 17.1429C45.514 17.1857 45.4925 17.25 45.4711 17.3357C45.4711 17.3786 45.4711 17.4215 45.4711 17.4857C45.4711 17.5072 45.4711 17.5286 45.4711 17.55L45.5568 19.5643L46.3497 16.0072L47.6782 16.0929L48.064 19.7357L48.364 17.8715C48.364 17.8286 48.3854 17.7643 48.3854 17.7215C48.3854 17.6572 48.4068 17.6357 48.4068 17.6357C48.4068 17.5286 48.4068 17.4429 48.3854 17.3786C48.364 17.3143 48.3211 17.2715 48.2354 17.2072L48.2997 16.1357L50.3354 16.2857L50.2711 17.3572C50.2068 17.4 50.164 17.4643 50.1211 17.5286C50.0782 17.5929 50.0568 17.7 50.014 17.8072L48.8568 22.3072L46.9711 22.1786L46.714 18.9857L46.0068 22.1143L44.1211 21.9857L43.5854 17.5286C43.564 17.2715 43.4782 17.0572 43.3497 16.8857L43.3925 15.7929ZM32.8925 18.6L33.1925 19.2429C33.2997 19.4572 33.364 19.6286 33.4282 19.7143C33.4925 19.8 33.5568 19.8857 33.6425 19.95L34.0925 20.3572L34.0711 19.7357C34.0711 19.6286 34.0497 19.5 34.0282 19.3715C33.9854 19.2429 33.9425 19.1143 33.8782 18.9857L33.5568 18.2786L35.2925 17.5072L35.7425 18.4929C35.7211 18.5357 35.6782 18.6 35.6782 18.6429C35.6568 18.7072 35.6568 18.7715 35.6568 18.8357L35.5282 21.4929L35.8282 22.1786C35.8925 22.35 35.9782 22.4572 36.0425 22.5C36.1068 22.5429 36.1925 22.5857 36.3211 22.5857L36.7711 23.5715L34.5211 24.5786L34.0711 23.5929C34.1568 23.5072 34.1782 23.4215 34.1997 23.3357C34.1997 23.25 34.1782 23.1215 34.0925 22.9715L33.7925 22.2857L31.7354 20.6357C31.6925 20.5929 31.6497 20.5715 31.5854 20.55C31.5425 20.5286 31.4782 20.5072 31.3925 20.4857L30.9425 19.5L32.8925 18.6ZM29.8711 20.0786L31.5425 22.3072L30.4711 23.1215L29.8497 22.2857C29.7425 22.1357 29.6354 22.05 29.5711 22.0286C29.4854 22.0072 29.3782 22.0286 29.2711 22.1143L31.1997 24.6857C31.3068 24.8357 31.3925 24.9215 31.4782 24.9429C31.564 24.9643 31.6711 24.9643 31.7997 24.9429L32.4425 25.8L30.4497 27.3L29.8068 26.4429C29.8711 26.3357 29.914 26.2286 29.8925 26.1429C29.8925 26.0572 29.8282 25.9286 29.7211 25.8L27.7925 23.2286C27.6854 23.3143 27.6211 23.4 27.6211 23.4857C27.6211 23.5715 27.664 23.6786 27.7711 23.8286L28.3925 24.6643L27.3211 25.4572L25.6497 23.2286L29.8711 20.0786ZM24.664 24.3215L25.4568 25.05C25.4354 25.1357 25.4354 25.2215 25.4782 25.2857C25.5211 25.3715 25.5854 25.4572 25.7354 25.5857L27.814 27.4929C27.9425 27.6215 28.0497 27.6857 28.1354 27.7286C28.2211 27.75 28.2854 27.75 28.3925 27.7286L29.1854 28.4572L27.5782 30.1929L26.7854 29.4643C26.8068 29.3786 26.8068 29.2929 26.764 29.2072C26.7211 29.1215 26.6568 29.0357 26.5282 28.9072L24.4282 27C24.2997 26.8929 24.1925 26.8072 24.1282 26.7857C24.0425 26.7643 23.9568 26.7643 23.8711 26.7857L23.0782 26.0572L24.664 24.3215ZM20.9782 28.8857L21.8782 29.4643C21.8354 29.5715 21.8354 29.6572 21.8997 29.7429C21.9425 29.8286 22.0711 29.9357 22.2854 30.0643L24.8568 31.7143L24.9211 31.6072C25.0282 31.4357 25.0711 31.3072 25.0282 31.2C25.0068 31.0929 24.8568 30.9643 24.5782 30.7929L23.8068 30.3L24.7068 28.9072L27.214 30.5143L24.8354 34.2215L23.914 33.6429C23.914 33.5572 23.8925 33.4715 23.8497 33.4072C23.8068 33.3429 23.6997 33.2572 23.5497 33.1715L21.1711 31.65C21.0211 31.5643 20.914 31.5 20.8282 31.4786C20.7425 31.4572 20.6568 31.4786 20.5925 31.5215L19.6925 30.9429L20.9782 28.8857ZM18.514 33.45L23.0782 34.1357C23.2282 34.1572 23.3354 34.1572 23.4425 34.1357C23.5497 34.1143 23.614 34.0929 23.6568 34.0286L24.664 34.3929L23.8497 36.6215L22.8425 36.2572C22.8425 36.1929 22.8211 36.1286 22.7782 36.0857C22.7354 36.0215 22.6711 35.9786 22.6068 35.9572C22.5854 35.9572 22.564 35.9572 22.5211 35.9357C22.4782 35.9357 22.4568 35.9357 22.4354 35.9357L22.114 36.8143C22.1354 36.8143 22.1568 36.8357 22.1997 36.8572C22.2425 36.8786 22.264 36.9 22.2854 36.9C22.3711 36.9215 22.4354 36.9429 22.4997 36.9C22.564 36.8786 22.6068 36.8143 22.6497 36.75L23.6782 37.1143L22.9497 39.1072L21.9425 38.7429C21.9425 38.6786 21.8997 38.6143 21.8354 38.55C21.7711 38.4857 21.6854 38.4 21.5568 38.3357L17.5925 36L18.514 33.45ZM16.5425 40.9929L17.5925 41.1215C17.614 41.2072 17.6782 41.2715 17.7425 41.3143C17.8068 41.3572 17.9354 41.3786 18.1282 41.4L20.7854 41.7429C20.9997 41.7643 21.1497 41.7643 21.2568 41.7215C21.3425 41.6786 21.4068 41.5929 21.4282 41.4429C21.4497 41.3143 21.4068 41.2072 21.3211 41.1429C21.2354 41.0786 21.0854 41.0357 20.8711 40.9929L18.214 40.6715C18.0211 40.65 17.8925 40.65 17.8282 40.6715C17.7425 40.6929 17.6782 40.7357 17.6354 40.8215L16.564 40.6929L16.8425 38.5286L17.914 38.6572C17.9354 38.7429 17.9997 38.8072 18.064 38.85C18.1282 38.8929 18.2568 38.9357 18.4282 38.9572L20.5711 39.2358C21.0425 39.3 21.3854 39.3643 21.5782 39.4072C21.7711 39.4715 21.9425 39.5357 22.0711 39.6215C22.3497 39.8357 22.564 40.0929 22.6711 40.4357C22.7782 40.7786 22.7997 41.2072 22.7354 41.7215C22.6711 42.15 22.564 42.5143 22.414 42.8143C22.2425 43.1143 22.0282 43.3286 21.7711 43.4572C21.6211 43.5429 21.4282 43.5857 21.2568 43.6072C21.064 43.6286 20.8068 43.6072 20.464 43.5643L20.1425 43.5215L17.9354 43.2429C17.764 43.2215 17.6354 43.2215 17.5497 43.2643C17.464 43.2857 17.3997 43.35 17.3354 43.4572L16.264 43.3286L16.5425 40.9929ZM18.7282 49.3286C17.914 49.4143 17.3354 49.2858 16.9925 48.9858C16.6497 48.6858 16.4354 48.1072 16.3497 47.25C16.264 46.4143 16.3711 45.7929 16.6497 45.4286C16.9282 45.0643 17.4854 44.85 18.2997 44.7643L20.2711 44.5715C20.6782 44.5286 20.9997 44.5286 21.2354 44.5715C21.4711 44.6143 21.664 44.6786 21.8354 44.7857C21.8997 44.7215 21.9425 44.6357 21.9854 44.5715C22.0282 44.5072 22.0711 44.4215 22.114 44.3357L23.2711 44.85C23.1854 45.1715 23.0782 45.45 22.9711 45.6857C22.864 45.9215 22.7568 46.1357 22.6282 46.35L22.6497 46.5857C22.7354 47.4643 22.6282 48.0858 22.3497 48.45C22.0711 48.8143 21.514 49.0286 20.6997 49.1143L18.7282 49.3286ZM25.4568 64.2643L24.1925 66.4715L22.7782 64.35L20.2711 63.8357L21.8568 61.8429L21.5782 59.3143L23.9568 60.1929L26.2711 59.1429L26.164 61.6929L27.8782 63.5786L25.4568 64.2643ZM34.4568 71.0143L33.1925 73.2215L31.7782 71.1L29.2711 70.5858L30.8568 68.5929L30.5782 66.0643L32.9568 66.9429L35.2711 65.8929L35.164 68.4429L36.8782 70.3286L34.4568 71.0143ZM46.714 75.15L44.3354 74.2286L41.9997 75.2358L42.1497 72.6858L40.4568 70.7786L42.9211 70.1357L44.2068 67.95L45.5782 70.0929L48.064 70.65L46.4568 72.6215L46.714 75.15ZM57.2782 71.3358L56.014 73.5429L54.5997 71.4215L52.0925 70.9072L53.6782 68.9143L53.3997 66.3857L55.7782 67.2643L58.0925 66.2143L57.9854 68.7643L59.6997 70.65L57.2782 71.3358ZM44.9997 66.3C33.2354 66.3 23.6997 56.7643 23.6997 45C23.6997 33.2357 33.2354 23.7 44.9997 23.7C56.764 23.7 66.2997 33.2357 66.2997 45C66.2997 56.7643 56.764 66.3 44.9997 66.3ZM65.5282 65.4429L64.264 67.65L62.8497 65.5286L60.3425 65.0143L61.9282 63.0215L61.6497 60.4929L64.0282 61.3715L66.3425 60.3215L66.2354 62.8715L67.9497 64.7572L65.5282 65.4429ZM73.264 47.6143L72.5568 47.5286C72.3211 47.5072 72.1282 47.4858 72.0211 47.4858C71.914 47.4858 71.8068 47.5072 71.6997 47.5286L71.1211 47.7215L71.6568 48.0215C71.764 48.0858 71.8711 48.1286 71.9782 48.1715C72.1068 48.2143 72.2354 48.2357 72.3854 48.2572L73.1568 48.3429L72.9425 50.2286L71.8711 50.1C71.8497 50.0572 71.8068 49.9929 71.764 49.95C71.7211 49.9072 71.6782 49.8643 71.614 49.8215L69.4068 48.3429L68.6568 48.2572C68.4854 48.2357 68.3568 48.2357 68.2711 48.2786C68.1854 48.3 68.1211 48.3643 68.0568 48.4715L66.9854 48.3429L67.264 45.9L68.3354 46.0286C68.3782 46.1357 68.4211 46.2215 68.4854 46.2643C68.5497 46.3072 68.6782 46.35 68.8497 46.3715L69.5997 46.4572L72.064 45.5572C72.1068 45.5358 72.1711 45.5143 72.214 45.4715C72.2568 45.45 72.3211 45.3858 72.3854 45.3429L73.4568 45.4715L73.264 47.6143Z" fill="#FF614C"/>
<path d="M21.2344 47.0786C21.3201 47.0143 21.3629 46.9072 21.3415 46.7786C21.3201 46.65 21.2772 46.5643 21.1701 46.5C21.0844 46.4572 20.9129 46.4357 20.6987 46.4572L18.1915 46.7143C17.9772 46.7357 17.8272 46.7786 17.7415 46.8429C17.6558 46.9072 17.6129 47.0143 17.6344 47.1429C17.6558 47.2715 17.6987 47.3786 17.8058 47.4215C17.8915 47.4643 18.0629 47.4857 18.2772 47.4643L20.8058 47.2286C21.0201 47.1857 21.1701 47.1429 21.2344 47.0786Z" fill="#FF614C"/>
<path d="M67.9069 29.8929L65.9141 30.8143L66.2569 31.3501L67.9069 29.8929Z" fill="#FF614C"/>
<path d="M35.9555 43.65L34.6055 45.3429L42.9198 51.7929L55.9055 37.7786L54.1483 36.2786L42.7483 48.9429L35.9555 43.65Z" fill="#FF614C"/>
</g>
<defs>
<clipPath id="clip0">
<rect width="90" height="90" fill="white"/>
</clipPath>
</defs>
</svg>
