<svg width="18" height="20" viewBox="0 0 18 20" fill="none" xmlns="http://www.w3.org/2000/svg">
<path d="M9.77771 19.6789L16.9972 12.4594C17.2045 12.252 17.3184 11.9797 17.3184 11.687C17.3184 11.3943 17.2045 11.1179 16.9972 10.9146L16.3427 10.252C16.1354 10.0447 15.8631 9.93089 15.5704 9.93089C15.2777 9.93089 14.9932 10.0447 14.7858 10.252L10.5623 14.4675L10.5623 1.0813C10.5623 0.47561 10.0907 -3.1593e-07 9.48503 -3.42406e-07L8.5582 -3.82919e-07C7.95251 -4.09394e-07 7.43625 0.475609 7.43625 1.0813L7.43625 14.5163L3.18828 10.252C2.98096 10.0447 2.71267 9.93089 2.41999 9.93089C2.1273 9.93089 1.85494 10.0447 1.65169 10.252L0.997221 10.9065C0.789905 11.1138 0.680149 11.3862 0.680149 11.6789C0.680149 11.9715 0.79397 12.248 1.00129 12.4512L8.22486 19.6748C8.43218 19.8821 8.7086 19.9959 9.00129 19.9959C9.29397 20 9.57039 19.8862 9.77771 19.6789Z" fill="#E50012"/>
</svg>
