<svg width="12" height="14" viewBox="0 0 12 14" fill="none" xmlns="http://www.w3.org/2000/svg">
<path d="M11.113 4.32589C9.11207 0.776786 3.24332 0 3.24332 0C3.24332 0 5.95135 2.95714 2.49064 5.29554C0.302246 6.77143 -0.562933 8.68929 0.374567 10.7839C1.09242 12.3884 2.61117 13.042 4.24778 13.2857C3.46564 11.8098 4.07099 10.0071 4.13796 9.81429C5.66742 12.1286 8.5576 9.81429 7.10582 7.29911C9.0076 7.71161 9.29153 11.0116 7.83171 13.0714C9.98796 12.3938 11.4237 10.6902 11.8174 9.17143C12.2326 7.58304 11.9165 5.74554 11.113 4.32589Z" fill="#E50012"/>
</svg>
