<svg width="160" height="160" viewBox="0 0 160 160" fill="none" xmlns="http://www.w3.org/2000/svg">
<rect width="160" height="160" rx="80" fill="#F0CF68"/>
<path d="M75.4811 41.3884C71.2445 40.4582 66.8495 40.5263 62.6437 41.5874C57.6922 42.8635 53.2055 45.521 49.7068 49.25C47.3386 51.8306 45.4211 54.7909 44.0345 58.0073C42.8217 61.0175 42.148 64.2175 42.0442 67.4612C42.0442 71.0437 41.9447 75.3228 42.0442 79.5024C42.061 81.5552 42.6345 83.5649 43.7035 85.3175C44.7726 87.07 46.2971 88.4996 48.1146 89.4539C50.4713 90.6763 53.1411 91.1617 55.7772 90.8471C56.7699 90.7683 57.7439 90.5332 58.6632 90.1505C60.6735 89.2563 62.2503 87.6055 63.0513 85.5562C63.8524 83.5069 63.8132 81.2245 62.9423 79.2039C62.4975 77.8988 61.6905 76.7473 60.6156 75.8838C59.5406 75.0204 58.2422 74.4806 56.8719 74.3277C55.2797 74.1287 53.6874 74.1287 52.0952 74.0291H49.4083V72.1384C49.4083 70.4466 49.3088 68.8544 49.4083 67.1626C49.596 63.7762 50.6333 60.4914 52.4246 57.6114C54.2159 54.7313 56.7035 52.3486 59.658 50.6829C62.6125 49.0173 65.9388 48.1224 69.3303 48.0806C72.7217 48.0389 76.069 48.8518 79.0636 50.4442C83.6098 52.9207 87.0382 57.0404 88.6475 61.9609C90.2569 66.8814 89.9256 72.2308 87.7214 76.9151L85.8306 80.9952L83.1437 86.8665C81.9496 89.3544 80.8549 91.9418 79.6607 94.5291L77.969 98.3107L76.7748 100.998L73.7894 107.466L73.3913 108.163C72.8258 109.624 72.0551 110.998 71.1025 112.243C69.3721 114.548 66.8539 116.137 64.0278 116.706C61.2017 117.275 58.265 116.784 55.7772 115.328C54.2611 114.568 52.9365 113.475 51.9025 112.131C50.8685 110.787 50.1519 109.226 49.8064 107.566C49.6261 106.913 49.4931 106.247 49.4083 105.575C49.3992 105.235 49.3319 104.898 49.2093 104.58V104.182H46.7214C46.5511 104.14 46.3736 104.136 46.2016 104.171C46.0296 104.205 45.8673 104.277 45.7263 104.381C45.6025 104.532 45.5119 104.708 45.4605 104.897C45.4091 105.085 45.3979 105.283 45.4277 105.476C45.3812 107.842 45.9651 110.177 47.1195 112.243C48.302 114.543 50.0239 116.523 52.1381 118.014C54.2524 119.504 56.696 120.46 59.2602 120.801L61.8476 121C65.4299 120.98 68.9009 119.753 71.6996 117.517C73.9936 115.718 75.7775 113.351 76.8743 110.651L79.5612 104.58L81.0539 101.495L82.5466 98.2112C83.6413 95.8228 84.736 93.335 85.9302 90.9466C85.9302 90.7476 86.2287 90.5486 86.5272 90.449C88.3897 89.9193 89.9869 88.7125 91.0054 87.0656C91.6025 85.8714 92.1996 84.5777 92.6971 83.3835L93.5928 81.4927C95.4369 78.0051 96.5541 74.1795 96.8768 70.2476C97.3494 63.6738 95.4511 57.1483 91.5259 51.8538C87.6007 46.5594 81.9085 42.8466 75.4811 41.3884V41.3884Z" fill="white"/>
<path d="M55.2791 95.027H55.0801V98.3109H56.1748C58.1761 98.2636 60.1441 97.7885 61.9466 96.9177C64.9243 95.5649 67.4166 93.3333 69.0888 90.5226C70.761 87.7119 71.5329 84.4567 71.301 81.1944C71.1905 80.0527 70.9908 78.9215 70.7039 77.8109L70.4054 77.0148C70.0346 75.9945 69.6026 74.9976 69.1117 74.0294C67.1312 70.5822 63.8811 68.0464 60.0558 66.9638L57.966 66.3667L57.0704 66.1677C57.262 65.8627 57.3969 65.5256 57.4685 65.1726C57.6623 64.341 57.9633 63.5382 58.3641 62.7842C59.0073 61.2166 59.964 59.797 61.1755 58.6124C62.387 57.4277 63.8278 56.5031 65.4094 55.8952C66.9911 55.2873 68.6802 55.0089 70.3733 55.0772C72.0663 55.1454 73.7275 55.5589 75.2551 56.2921C76.7827 57.0253 78.1443 58.0629 79.2566 59.3412C80.3688 60.6195 81.2082 62.1115 81.7231 63.7258C82.2381 65.3401 82.4179 67.0425 82.2514 68.7288C82.0848 70.415 81.5756 72.0494 80.7549 73.5318L77.1723 81.0949L76.0777 83.6823L72.1966 92.141L68.5146 100.202L71.7986 101.694L73.5898 98.0124C74.6845 95.5245 75.7791 93.0367 76.9733 90.6483V90.4493C78.8641 86.4687 80.7549 82.2891 82.5461 78.209C82.8188 77.7313 83.0518 77.2321 83.2427 76.7163C84.2365 74.8329 84.9729 72.8247 85.4321 70.7454C86.1296 66.5805 85.1651 62.3082 82.7459 58.847C80.3268 55.3857 76.6461 53.0118 72.4952 52.2357C69.1696 51.53 65.7038 51.9501 62.6432 53.4299C60.3916 54.4828 58.4179 56.0483 56.8799 58.001C55.3419 59.9537 54.2825 62.2394 53.7864 64.675C53.4735 66.3145 53.4065 67.9915 53.5874 69.6507V69.9493H53.7864C56.0636 69.6772 58.3716 70.0399 60.4556 70.9974C62.5395 71.9549 64.3182 73.4699 65.5951 75.3749C66.8719 77.2799 67.5973 79.5008 67.6911 81.7923C67.7848 84.0837 67.2432 86.3565 66.1262 88.3595C65.07 90.3313 63.5093 91.9876 61.6036 93.159C59.6979 94.3304 57.5155 94.975 55.2791 95.027V95.027Z" fill="white"/>
<path d="M116.98 56.6141C116.417 53.0863 115.149 49.7082 113.251 46.6817C111.353 43.6553 108.864 41.0426 105.934 39H105.735L105.337 39.4976L104.739 40.1942C104.61 40.4808 104.443 40.7486 104.242 40.9903L103.943 41.4879L104.142 41.6869C109.319 45.412 112.822 51.0241 113.895 57.3107C114.45 60.4334 114.375 63.6356 113.674 66.7289C112.974 69.8223 111.661 72.7442 109.815 75.3228V75.5218L112.303 77.4126V77.2136C114.449 74.2822 115.972 70.9417 116.776 67.3986C117.581 63.8555 117.65 60.185 116.98 56.6141V56.6141Z" fill="white"/>
<path d="M110.211 57.709C109.758 55.0357 108.777 52.4795 107.324 50.1899C105.872 47.9002 103.978 45.9231 101.752 44.374H101.454L101.056 45.0706C100.757 45.6677 100.359 46.2648 100.061 46.9614V47.1604H100.16C103.08 49.2155 105.274 52.1415 106.429 55.5197C107.922 59.6993 107.723 64.0779 105.832 68.9541C105.618 69.6833 105.205 70.3382 104.638 70.8449C104.516 70.9828 104.446 71.1586 104.439 71.3425C104.43 71.4503 104.443 71.5589 104.477 71.6615C104.511 71.7642 104.566 71.8588 104.638 71.9396L105.932 72.9347L106.629 73.5318V73.3328C108.276 71.1192 109.445 68.5871 110.062 65.8975C110.679 63.2078 110.73 60.4193 110.211 57.709V57.709Z" fill="white"/>
<path d="M98.0703 50.1458L97.8713 49.9468L95.9805 52.4346L96.1795 52.6337C97.3213 53.428 98.2896 54.4464 99.0252 55.6268C99.7609 56.8073 100.249 58.1252 100.459 59.5002C100.944 62.2411 100.337 65.0631 98.7669 67.3618V67.5609L101.255 69.4516L101.454 69.2526C102.513 67.7325 103.26 66.0177 103.653 64.2072C104.046 62.3967 104.076 60.5264 103.743 58.7041C103.437 56.964 102.775 55.3058 101.799 53.8332C100.823 52.3605 99.5538 51.1052 98.0703 50.1458V50.1458Z" fill="white"/>
</svg>
