<svg width="130" height="44" viewBox="0 0 130 44" fill="none" xmlns="http://www.w3.org/2000/svg">
<path d="M0 0H130V44H5C2.23858 44 0 41.7614 0 39V0Z" fill="#FD3268"/>
<path d="M29.9413 20.4714C29.7812 19.9832 29.3281 19.7723 28.9102 19.6551C29.1797 19.3192 29.4218 18.8778 29.2656 18.3896C29.1172 17.9287 28.6797 17.5303 28.0392 17.2686C27.4103 17.0147 26.6291 16.9132 25.7816 16.9718C24.9691 17.0303 24.2231 17.2764 23.6333 17.542C23.7075 16.9327 23.7271 16.1554 23.524 15.3313C23.3169 14.511 22.9771 13.8002 22.5436 13.2768C22.0983 12.7495 21.5827 12.4565 21.0984 12.4565C20.5828 12.4565 20.243 12.8237 20.0047 13.183C19.7665 12.8237 19.4267 12.4565 18.9111 12.4565C18.4229 12.4565 17.9112 12.7495 17.4659 13.2768C17.0285 13.7963 16.6886 14.5071 16.4855 15.3313C16.2902 16.1164 16.2902 16.8858 16.3606 17.5342C15.7747 17.2725 15.0365 17.0264 14.2279 16.9718C13.3804 16.9132 12.5992 17.0147 11.9703 17.2686C11.3298 17.5264 10.8923 17.9248 10.7439 18.3896C10.5837 18.8778 10.8298 19.3192 11.0993 19.6551C10.6853 19.7684 10.2283 19.9832 10.0682 20.4714C9.91583 20.9323 10.0369 21.5104 10.4041 22.1002C10.7634 22.6783 11.3337 23.2173 12.0563 23.6665C12.7437 24.0922 13.4702 24.3344 14.1108 24.4672C13.6733 24.9476 13.2241 25.5725 12.9195 26.3225C12.5992 27.1115 12.4547 27.8848 12.5054 28.5605C12.5523 29.2519 12.7984 29.787 13.1929 30.076C13.6069 30.3768 14.1029 30.283 14.5053 30.1307C14.4857 30.5604 14.5482 31.0603 14.9622 31.3611C15.3567 31.6462 15.9426 31.7126 16.6144 31.5447C17.2745 31.3806 17.9659 31.0056 18.6142 30.4588C19.247 29.9237 19.6884 29.2675 19.9891 28.7168C20.3133 29.2909 20.7742 29.9276 21.4031 30.4588C22.0514 31.0056 22.7467 31.3806 23.4029 31.5447C23.645 31.6071 23.8794 31.6345 24.0942 31.6345C24.4731 31.6345 24.8012 31.5407 25.0551 31.3611C25.4691 31.0603 25.5316 30.5604 25.5121 30.1307C25.9144 30.283 26.4065 30.3768 26.8244 30.076C27.2189 29.7909 27.4611 29.2519 27.508 28.5605C27.5548 27.8848 27.4103 27.1076 27.0939 26.3225C26.7893 25.5686 26.3245 24.9359 25.887 24.4555C26.4885 24.3383 27.2345 24.1156 27.9532 23.6665C28.6758 23.2173 29.2461 22.6744 29.6054 22.1002C29.9726 21.5104 30.0898 20.9323 29.9413 20.4714ZM27.3322 22.6705C26.3167 23.3032 25.223 23.3813 24.7543 23.4126C24.6762 23.4165 24.6176 23.4204 24.5668 23.4282C24.1723 23.4751 24.0473 23.7446 24.0122 23.8539C23.9419 24.0922 24.02 24.3422 24.2192 24.4945C24.602 24.7914 25.5394 25.6077 26.0042 26.756C26.5198 28.0215 26.3362 28.8965 26.1604 29.0957C26.0276 29.0839 25.7308 28.9472 25.598 28.8847C25.2699 28.7285 24.8949 28.5527 24.5512 28.8027C24.2075 29.0527 24.2583 29.4628 24.3051 29.8222C24.3247 29.9667 24.3637 30.2909 24.3325 30.4237C24.0903 30.5291 23.2037 30.4354 22.1569 29.5526C21.2195 28.7637 20.7312 27.627 20.5672 27.1779C20.4813 26.9435 20.2703 26.7912 20.0243 26.7795C20.0165 26.7795 20.0087 26.7795 20.0008 26.7795C19.8251 26.7795 19.5907 26.8498 19.4228 27.1779C19.3915 27.2404 19.3525 27.3224 19.3095 27.42C19.0986 27.8926 18.6533 28.8808 17.8565 29.5526C16.8097 30.4315 15.9231 30.5291 15.6809 30.4237C15.6497 30.2948 15.6887 29.9706 15.7083 29.8222C15.7551 29.4589 15.8059 29.0488 15.4622 28.7988C15.1185 28.5488 14.7435 28.7246 14.4154 28.8808C14.2826 28.9433 13.9858 29.0839 13.853 29.0917C13.6772 28.8925 13.4936 28.0176 14.0092 26.7521C14.474 25.6038 15.4114 24.7875 15.7942 24.4906C15.9895 24.3383 16.0676 24.0805 15.9934 23.8461C15.9153 23.6118 15.7005 23.4516 15.4544 23.4399C14.9701 23.4243 13.7319 23.3149 12.6812 22.6626C11.5172 21.9479 11.1501 21.1315 11.1774 20.8698C11.2907 20.7995 11.6149 20.737 11.7555 20.7097C12.1148 20.6433 12.5172 20.5652 12.65 20.159C12.7828 19.7528 12.4976 19.452 12.2476 19.1864C12.1461 19.0809 11.9235 18.8427 11.8727 18.7177C12.0055 18.4872 12.7828 18.0459 14.1459 18.1396C15.3841 18.2255 16.4465 18.8661 16.8488 19.1395C17.0519 19.2762 17.3214 19.2723 17.5206 19.1278C17.7198 18.9833 17.8096 18.7294 17.7393 18.4911C17.6065 18.0263 17.3253 16.8155 17.6222 15.6125C17.9502 14.2845 18.6143 13.6869 18.872 13.6283C18.9736 13.7142 19.1337 14.0033 19.2001 14.1283C19.3759 14.4485 19.5751 14.8079 20.0008 14.8079C20.4266 14.8079 20.6258 14.4446 20.8015 14.1283C20.8719 13.9994 21.0281 13.7142 21.1296 13.6283C21.3874 13.683 22.0514 14.2845 22.3795 15.6125C22.6686 16.7765 22.403 17.8389 22.2897 18.2919C22.2702 18.3662 22.2545 18.4248 22.2467 18.4755C22.1686 18.8661 22.3834 19.0653 22.4811 19.1356C22.6842 19.2762 22.9498 19.2801 23.1568 19.1395C23.5591 18.87 24.6215 18.2295 25.8597 18.1396C27.2228 18.042 28.0001 18.4872 28.1329 18.7177C28.0821 18.8427 27.8595 19.0809 27.7579 19.1864C27.508 19.452 27.2267 19.7528 27.3556 20.159C27.4884 20.5652 27.8946 20.6394 28.2501 20.7097C28.3946 20.737 28.7149 20.7995 28.8282 20.8698C28.8594 21.1315 28.4962 21.9479 27.3322 22.6705Z" fill="white"/>
<path d="M21.3301 23.5416C21.3887 23.5612 21.4512 23.569 21.5098 23.569C21.7558 23.569 21.9863 23.4127 22.0683 23.1628C22.1699 22.8542 21.998 22.5261 21.6933 22.4245L20.9551 22.1863L21.4121 21.5574C21.6035 21.2957 21.5449 20.9286 21.2832 20.7372C21.0215 20.5458 20.6544 20.6044 20.463 20.8661L20.006 21.4988L19.549 20.87C19.3576 20.6083 18.9944 20.5497 18.7327 20.7411C18.471 20.9325 18.4124 21.2957 18.6038 21.5574L19.0608 22.1863L18.3226 22.4245C18.014 22.5261 17.846 22.8542 17.9476 23.1628C18.0296 23.4088 18.2562 23.569 18.5061 23.569C18.5647 23.569 18.6272 23.5612 18.6858 23.5416L19.424 23.3034V24.0806C19.424 24.4048 19.6857 24.6665 20.0099 24.6665C20.3341 24.6665 20.5958 24.4048 20.5958 24.0806V23.3034L21.3301 23.5416Z" fill="white"/>
<path d="M20.0039 20.4095C20.328 20.4095 20.5897 20.1478 20.5897 19.8236V18.6088C20.5897 18.2846 20.328 18.0229 20.0039 18.0229C19.6797 18.0229 19.418 18.2846 19.418 18.6088V19.8236C19.418 20.1478 19.6797 20.4095 20.0039 20.4095Z" fill="white"/>
<path d="M17.4529 22.2601C17.699 22.2601 17.9294 22.1038 18.0115 21.8539C18.113 21.5453 17.9412 21.2172 17.6365 21.1157L16.4804 20.7407C16.1718 20.6391 15.8437 20.811 15.7422 21.1157C15.6406 21.4203 15.8125 21.7523 16.1171 21.8539L17.2733 22.2288C17.3318 22.2523 17.3943 22.2601 17.4529 22.2601Z" fill="white"/>
<path d="M18.7746 24.1976C18.513 24.0063 18.1458 24.0648 17.9544 24.3265L17.2396 25.3108C17.0482 25.5725 17.1068 25.9397 17.3685 26.1311C17.474 26.2053 17.5912 26.2443 17.7122 26.2443C17.8919 26.2443 18.0716 26.1623 18.1849 26.0022L18.8996 25.0179C19.0949 24.7562 19.0363 24.389 18.7746 24.1976Z" fill="white"/>
<path d="M22.056 24.3265C21.8646 24.0648 21.5013 24.0063 21.2396 24.1976C20.9779 24.389 20.9193 24.7523 21.1107 25.0179L21.8255 26.0022C21.9388 26.1584 22.1184 26.2443 22.2981 26.2443C22.4192 26.2443 22.5364 26.2092 22.6418 26.1311C22.9035 25.9397 22.9621 25.5764 22.7707 25.3147L22.056 24.3265Z" fill="white"/>
<path d="M23.5275 20.7411L22.3714 21.1161C22.0628 21.2177 21.8949 21.5458 21.9964 21.8543C22.0784 22.1004 22.305 22.2605 22.555 22.2605C22.6136 22.2605 22.676 22.2527 22.7346 22.2332L23.8908 21.8582C24.1993 21.7567 24.3673 21.4286 24.2657 21.12C24.1642 20.8114 23.8361 20.6435 23.5275 20.7411Z" fill="white"/>
<path d="M40.3438 23.5C40.3438 24.9948 40.0156 26.1536 39.3594 26.9766C38.7031 27.7943 37.7943 28.2031 36.6328 28.2031C36.1016 28.2031 35.6432 28.1224 35.2578 27.9609V26.1562C35.6172 26.4219 36.0573 26.5547 36.5781 26.5547C37.8385 26.5547 38.4688 25.526 38.4688 23.4688V15.8984H40.3438V23.5ZM53.0781 28H51.0156L49.8828 24.8516H45.0391L43.9609 28H41.8984L46.4609 15.8984H48.5469L53.0781 28ZM49.3594 23.2969L47.6719 18.5234C47.6094 18.3516 47.5469 18.0469 47.4844 17.6094H47.4297C47.3828 17.9688 47.3177 18.2682 47.2344 18.5078L45.5547 23.2969H49.3594ZM56.6406 23.5703V28H54.7656V15.8984H58.4219C59.7917 15.8984 60.8411 16.2161 61.5703 16.8516C62.2995 17.4818 62.6641 18.3984 62.6641 19.6016C62.6641 20.8151 62.2292 21.7917 61.3594 22.5312C60.4896 23.2656 59.4141 23.612 58.1328 23.5703H56.6406ZM56.6406 17.4688V22.0078H57.9844C59.7917 22.0078 60.6953 21.2318 60.6953 19.6797C60.6953 18.2057 59.8281 17.4688 58.0938 17.4688H56.6406ZM74.5938 28H72.5312L71.3984 24.8516H66.5547L65.4766 28H63.4141L67.9766 15.8984H70.0625L74.5938 28ZM70.875 23.2969L69.1875 18.5234C69.125 18.3516 69.0625 18.0469 69 17.6094H68.9453C68.8984 17.9688 68.8333 18.2682 68.75 18.5078L67.0703 23.2969H70.875ZM86.4297 28H84.3359L78.5469 19.0781C78.3333 18.75 78.1771 18.4661 78.0781 18.2266H78.0312C78.0781 18.5391 78.1016 19.1276 78.1016 19.9922V28H76.2812V15.8984H78.5L84.1172 24.6484C84.3828 25.0651 84.5599 25.3542 84.6484 25.5156H84.6875C84.6302 25.1406 84.6016 24.5625 84.6016 23.7812V15.8984H86.4297V28ZM100.93 20.1797H91.1016V15.1172H100.93V20.1797ZM99.4922 18.9141V16.4297H92.5625V18.9141H99.4922ZM102.469 28.7812H101.07V27.9688H98.0781V28.7812H96.6719V21.5859H102.469V28.7812ZM101.07 26.6875V22.9141H98.0781V26.6875H101.07ZM95.3125 28.7812H93.8906V27.9688H90.9297V28.7812H89.5391V21.5859H95.3125V28.7812ZM93.8906 26.6719V22.9141H90.9297V26.6719H93.8906ZM119.039 26.3047H116.781V28.75H115.438V26.3047H110.609V25.0547H115.438V22.8125H114.43C113.81 23.6979 113.133 24.3333 112.398 24.7188L111.344 23.9062C111.828 23.6406 112.307 23.276 112.781 22.8125H110.992V16.1562H113.039C113.299 15.6719 113.508 15.1719 113.664 14.6562L115.125 14.9141C115.031 15.2266 114.859 15.6406 114.609 16.1562H118.305V22.8125H116.781V25.0547H119.039V26.3047ZM116.977 18.8828V17.3906H115.344V18.8828H116.977ZM113.969 18.8828V17.3906H112.32V18.8828H113.969ZM116.977 21.5703V20.1562H115.266C115.234 20.6615 115.159 21.1328 115.039 21.5703H116.977ZM113.906 20.1562H112.32V21.5703H113.617C113.799 20.987 113.896 20.5156 113.906 20.1562ZM110.062 28.75H108.719V23.2031H107.297C107.193 25.4896 106.831 27.4141 106.211 28.9766L105.039 28.1797C105.669 26.6328 105.984 24.5625 105.984 21.9688V14.9609H107.297V18.6562H108.5V14.8516H109.844V19.9531H107.297V21.8594H110.062V28.75Z" fill="white"/>
</svg>
