<svg width="130" height="44" viewBox="0 0 130 44" fill="none" xmlns="http://www.w3.org/2000/svg">
<path d="M0 0H130V44H5C2.23858 44 0 41.7614 0 39V0Z" fill="#FF790C"/>
<path d="M27.598 31.6808L34.8175 24.4613C35.0249 24.254 35.1387 23.9816 35.1387 23.6889C35.1387 23.3963 35.0249 23.1198 34.8175 22.9166L34.1631 22.254C33.9557 22.0467 33.6834 21.9328 33.3907 21.9328C33.098 21.9328 32.8135 22.0467 32.6062 22.254L28.3826 26.4694L28.3826 13.0833C28.3826 12.4776 27.911 12.002 27.3053 12.002L26.3785 12.002C25.7728 12.002 25.2566 12.4776 25.2566 13.0833L25.2566 26.5182L21.0086 22.254C20.8013 22.0467 20.533 21.9328 20.2403 21.9328C19.9476 21.9328 19.6753 22.0467 19.472 22.254L18.8175 22.9085C18.6102 23.1158 18.5005 23.3881 18.5005 23.6808C18.5005 23.9735 18.6143 24.2499 18.8216 24.4532L26.0452 31.6767C26.2525 31.8841 26.5289 31.9979 26.8216 31.9979C27.1143 32.002 27.3907 31.8881 27.598 31.6808Z" fill="white"/>
<path d="M43.5 28V15.8984H47.2812C48.4219 15.8984 49.3203 16.151 49.9766 16.6562C50.638 17.1615 50.9688 17.8411 50.9688 18.6953C50.9688 19.362 50.7682 19.9479 50.3672 20.4531C49.9661 20.9583 49.4375 21.3125 48.7812 21.5156V21.5469C49.6042 21.6406 50.2656 21.9505 50.7656 22.4766C51.2708 23.0026 51.5234 23.6693 51.5234 24.4766C51.5234 25.5286 51.1458 26.3802 50.3906 27.0312C49.6406 27.6771 48.6484 28 47.4141 28H43.5ZM45.375 17.4375V20.9766H46.7344C47.4479 20.9766 48.0026 20.8047 48.3984 20.4609C48.7943 20.1172 48.9922 19.6458 48.9922 19.0469C48.9922 17.974 48.2578 17.4375 46.7891 17.4375H45.375ZM45.375 22.5234V26.4609H47.1406C47.9062 26.4609 48.5 26.2839 48.9219 25.9297C49.3438 25.5755 49.5547 25.0833 49.5547 24.4531C49.5547 23.1667 48.6875 22.5234 46.9531 22.5234H45.375ZM60.5156 28H53.8125V15.8984H60.2422V17.5078H55.6875V21.0703H59.9141V22.6719H55.6875V26.3906H60.5156V28ZM62.1562 25.4922C63.0833 26.2474 64.1745 26.625 65.4297 26.625C67.0339 26.625 67.8359 26.0755 67.8359 24.9766C67.8359 24.6589 67.7474 24.3724 67.5703 24.1172C67.3932 23.862 67.1536 23.6406 66.8516 23.4531C66.5547 23.2604 65.9635 22.9531 65.0781 22.5312C63.9896 22.0104 63.2292 21.4818 62.7969 20.9453C62.3646 20.4089 62.1484 19.7786 62.1484 19.0547C62.1484 18.013 62.5599 17.1927 63.3828 16.5938C64.2057 15.9948 65.2578 15.6953 66.5391 15.6953C67.7526 15.6953 68.6693 15.8438 69.2891 16.1406V18.0625C68.5443 17.5469 67.6146 17.2891 66.5 17.2891C65.7865 17.2891 65.2109 17.4323 64.7734 17.7188C64.3359 18.0052 64.1172 18.3984 64.1172 18.8984C64.1172 19.3516 64.276 19.724 64.5938 20.0156C64.9167 20.3073 65.5938 20.6979 66.625 21.1875C67.8281 21.75 68.6589 22.3151 69.1172 22.8828C69.5755 23.4453 69.8047 24.0938 69.8047 24.8281C69.8047 25.9219 69.4089 26.7578 68.6172 27.3359C67.8255 27.9141 66.7292 28.2031 65.3281 28.2031C64.8125 28.2031 64.2396 28.1406 63.6094 28.0156C62.9792 27.8906 62.4948 27.724 62.1562 27.5156V25.4922ZM79.7031 17.5078H76.2266V28H74.3438V17.5078H70.875V15.8984H79.7031V17.5078ZM85.5156 28V15.8984H89.2969C90.4375 15.8984 91.3359 16.151 91.9922 16.6562C92.6536 17.1615 92.9844 17.8411 92.9844 18.6953C92.9844 19.362 92.7839 19.9479 92.3828 20.4531C91.9818 20.9583 91.4531 21.3125 90.7969 21.5156V21.5469C91.6198 21.6406 92.2812 21.9505 92.7812 22.4766C93.2865 23.0026 93.5391 23.6693 93.5391 24.4766C93.5391 25.5286 93.1615 26.3802 92.4062 27.0312C91.6562 27.6771 90.6641 28 89.4297 28H85.5156ZM87.3906 17.4375V20.9766H88.75C89.4635 20.9766 90.0182 20.8047 90.4141 20.4609C90.8099 20.1172 91.0078 19.6458 91.0078 19.0469C91.0078 17.974 90.2734 17.4375 88.8047 17.4375H87.3906ZM87.3906 22.5234V26.4609H89.1562C89.9219 26.4609 90.5156 26.2839 90.9375 25.9297C91.3594 25.5755 91.5703 25.0833 91.5703 24.4531C91.5703 23.1667 90.7031 22.5234 88.9688 22.5234H87.3906ZM103.031 28H101.203V26.6484H101.164C100.565 27.6849 99.6797 28.2031 98.5078 28.2031C96.4714 28.2031 95.4531 26.9818 95.4531 24.5391V19.3594H97.2812V24.3125C97.2812 25.9271 97.901 26.7344 99.1406 26.7344C99.7448 26.7344 100.24 26.513 100.625 26.0703C101.01 25.6276 101.203 25.0469 101.203 24.3281V19.3594H103.031V28ZM112.977 19.3594L109.172 29.1406C108.417 31.0885 107.323 32.0625 105.891 32.0625C105.422 32.0625 105.042 32.013 104.75 31.9141V30.3672C105.052 30.5026 105.365 30.5703 105.688 30.5703C106.375 30.5703 106.883 30.1875 107.211 29.4219L107.812 27.9844L104.391 19.3594H106.43L108.508 25.5234C108.555 25.6536 108.622 25.9297 108.711 26.3516H108.75C108.776 26.1849 108.846 25.9141 108.961 25.5391L111.125 19.3594H112.977Z" fill="white"/>
</svg>
