<svg width="160" height="160" viewBox="0 0 160 160" fill="none" xmlns="http://www.w3.org/2000/svg">
<rect width="160" height="160" rx="80" fill="#89D0F7"/>
<path d="M98.7021 92.8109C96.8359 83.8946 93.5643 77.0057 92.251 74.4599C88.4955 67.2139 86.9864 48.5748 86.6869 44.4853C87.0587 44.1272 87.3544 43.6978 87.5563 43.2227C87.7582 42.7476 87.8622 42.2367 87.862 41.7205V36.8591C87.862 35.8356 87.4554 34.854 86.7316 34.1303C86.0079 33.4066 85.0263 33 84.0028 33H74.6948C73.6713 33 72.6897 33.4066 71.966 34.1303C71.2422 34.854 70.8357 35.8356 70.8357 36.8591V41.7205C70.8375 42.3011 70.97 42.8738 71.2233 43.3963C71.4765 43.9188 71.8441 44.3776 72.2987 44.7387C72.1604 46.6856 71.7918 51.1207 71.1352 56.0857C69.9947 64.7832 68.4741 71.1421 66.7576 74.4599C65.4329 77.0057 62.1727 83.8946 60.3065 92.8109C58.4979 101.462 58.567 109.261 60.5139 115.989C62.8524 124.087 65.3522 125.792 66.0549 126.126L66.412 126.299H92.5851L92.9537 126.126C93.6564 125.792 96.1562 124.087 98.4947 115.989C100.43 109.261 100.499 101.462 98.7021 92.8109ZM74.4068 36.8591C74.4068 36.7828 74.4371 36.7095 74.4911 36.6555C74.5452 36.6015 74.6184 36.5711 74.6948 36.5711H84.0028C84.0792 36.5711 84.1524 36.6015 84.2064 36.6555C84.2605 36.7095 84.2908 36.7828 84.2908 36.8591V41.7205C84.2878 41.7949 84.2562 41.8652 84.2025 41.9167C84.1488 41.9683 84.0772 41.997 84.0028 41.997H74.6948C74.6204 41.997 74.5488 41.9683 74.4951 41.9167C74.4414 41.8652 74.4098 41.7949 74.4068 41.7205V36.8591ZM95.0619 114.998C93.5643 120.182 92.1243 122.117 91.5598 122.728H67.4488C66.8728 122.117 65.4444 120.182 63.9468 114.998C62.1612 108.835 62.1151 101.612 63.8086 93.5367C65.5711 85.0581 68.6814 78.5148 69.9256 76.1072C73.8193 68.5847 75.409 51.0977 75.8237 45.5681H83.1849C83.5996 51.0977 85.1893 68.5847 89.083 76.1072C90.3272 78.5148 93.4376 85.0581 95.2001 93.5367C96.882 101.612 96.8359 108.835 95.0619 114.998V114.998Z" fill="white"/>
</svg>
