<svg width="130" height="44" viewBox="0 0 130 44" fill="none" xmlns="http://www.w3.org/2000/svg">
<path d="M0 0H130V44H5C2.23858 44 0 41.7614 0 39V0Z" fill="#006DC9"/>
<path d="M43.918 28.2317C43.8672 28.2317 43.8164 28.2239 43.7695 28.2044L32.9336 24.0364C32.7734 23.9739 32.668 23.8215 32.668 23.6458V18.6458C32.668 18.4739 32.7734 18.3176 32.9336 18.2551L43.7656 14.0911C43.8945 14.0403 44.0391 14.0598 44.1523 14.1379C44.2656 14.2161 44.332 14.345 44.332 14.4817V27.8137C44.332 27.9504 44.2656 28.0794 44.1523 28.1575C44.082 28.2044 44 28.2317 43.918 28.2317ZM33.5 23.3606L43.5 27.2083V15.0872L33.5 18.9348V23.3606Z" fill="white"/>
<path d="M33.082 24.064H30.168C29.2461 24.064 28.5 23.3179 28.5 22.396V19.896C28.5 18.978 29.2461 18.228 30.168 18.228H33.0859C33.3164 18.228 33.5039 18.4155 33.5039 18.646V23.646C33.5 23.8765 33.3125 24.064 33.082 24.064ZM30.168 19.064C29.707 19.064 29.3359 19.439 29.3359 19.896V22.396C29.3359 22.8569 29.7109 23.228 30.168 23.228H32.668V19.064H30.168Z" fill="white"/>
<path d="M34.7501 29.8957H32.2501C32.043 29.8957 31.8673 29.7434 31.836 29.5364L31.004 23.7043C30.9727 23.4778 31.129 23.2668 31.3594 23.2317C31.5821 23.2043 31.7969 23.3567 31.8321 23.5872L32.6133 29.0637H34.2852L33.7266 24.1028C33.7032 23.8762 33.8673 23.6692 34.0938 23.6418C34.3165 23.6184 34.5274 23.7825 34.5548 24.009L35.1641 29.4348C35.1758 29.552 35.1407 29.6692 35.0626 29.759C34.9805 29.845 34.8712 29.8957 34.7501 29.8957Z" fill="white"/>
<path d="M45.5818 19.064C45.449 19.064 45.3162 18.9976 45.2341 18.8765C45.1052 18.6851 45.1599 18.4273 45.3513 18.2984L47.8513 16.6304C48.0427 16.5054 48.3005 16.5523 48.4294 16.7476C48.5583 16.939 48.5037 17.1968 48.3122 17.3257L45.8122 18.9937C45.7419 19.0405 45.6638 19.064 45.5818 19.064Z" fill="white"/>
<path d="M48.082 26.5639C48.0039 26.5639 47.9219 26.5405 47.8515 26.4936L45.3515 24.8257C45.1601 24.6968 45.1094 24.4389 45.2344 24.2475C45.3633 24.0561 45.6211 24.0053 45.8125 24.1303L48.3125 25.7983C48.5039 25.9272 48.5547 26.185 48.4297 26.3764C48.3476 26.4975 48.2187 26.5639 48.082 26.5639Z" fill="white"/>
<path d="M48.082 21.9819H45.582C45.3516 21.9819 45.1641 21.7944 45.1641 21.564C45.1641 21.3335 45.3516 21.146 45.582 21.146H48.082C48.3125 21.146 48.5 21.3335 48.5 21.564C48.5 21.7944 48.3125 21.9819 48.082 21.9819Z" fill="white"/>
<path d="M68.5703 22.0781H56.8281C56.7969 25.2031 56.3906 27.4479 55.6094 28.8125L54.5234 27.7734C54.9297 26.9453 55.1875 26.0938 55.2969 25.2188C55.4115 24.3385 55.4688 23.2292 55.4688 21.8906V15.6953H60.9375C60.8177 15.3828 60.6849 15.1224 60.5391 14.9141L62.1406 14.625C62.4062 15.1562 62.5703 15.513 62.6328 15.6953H68.5391V16.9141H56.8125V20.8984H68.5703V22.0781ZM68.1562 18.8281H66.3125V20.3672H59.3906V18.8281H57.2891V17.7891H59.3906V17.2812H60.7188V17.7891H64.9531V17.2812H66.3125V17.7891H68.1562V18.8281ZM64.9531 19.3594V18.8281H60.7188V19.3594H64.9531ZM67.6562 26.8516H58.0781V22.5938H67.6562V26.8516ZM66.3516 24.2578V23.5859H63.5312V24.2578H66.3516ZM62.2188 24.2578V23.5859H59.4062V24.2578H62.2188ZM66.3516 25.8438V25.2031H63.5312V25.8438H66.3516ZM62.2188 25.8438V25.2031H59.4062V25.8438H62.2188ZM68.5078 27.8594L67.9453 29.0234C66.3359 28.5703 64.8177 28.25 63.3906 28.0625L63.9297 26.9766C65.5495 27.1589 67.0755 27.4531 68.5078 27.8594ZM61.9609 28.0469C60.0755 28.5 58.487 28.7943 57.1953 28.9297L56.6172 27.7109C58.2682 27.5807 59.8359 27.3359 61.3203 26.9766L61.9609 28.0469ZM84.4453 21.6016H70.5547V20.3047H76.7969V18.1797H73.3438C72.75 18.888 72.1406 19.4583 71.5156 19.8906L70.4609 18.8984C71.6797 18.0234 72.8151 16.6901 73.8672 14.8984L75.2891 15.3281C75.0078 15.8281 74.6953 16.3359 74.3516 16.8516H76.7969V14.8281H78.2344V16.8516H83.6094V18.1797H78.2344V20.3047H84.4453V21.6016ZM82.7812 28.8125H81.3438V28.0938H73.6953V28.8125H72.2188V23.0547H82.7812V28.8125ZM81.3438 26.75V24.3672H73.6953V26.75H81.3438ZM100.555 16.9297C100.346 19.0078 99.9531 20.7682 99.375 22.2109L98.1875 21.6016C98.5938 20.638 98.8932 19.5391 99.0859 18.3047H96.0625C95.5885 19.4818 95.125 20.3984 94.6719 21.0547L93.6953 20.0312C94.5182 18.7552 95.2266 16.9844 95.8203 14.7188L97.1172 15.0078C96.9297 15.763 96.7422 16.4036 96.5547 16.9297H100.555ZM94.1562 17.1484H91.1953V18.1953H93.625V19.375H87.375V18.1953H89.8047V17.1484H86.8438V15.9219H89.8047V14.7812H91.1953V15.9219H94.1562V17.1484ZM100.766 27.8594L99.8359 28.9297C98.1797 27.4974 97.1927 25.9349 96.875 24.2422C96.5469 25.9557 95.5026 27.5026 93.7422 28.8828L92.7656 27.7891C95.1146 26.3932 96.2891 23.8203 96.2891 20.0703C96.2891 19.7526 96.2812 19.4141 96.2656 19.0547H97.6406C97.6146 20.7318 97.6589 22.0208 97.7734 22.9219C97.8932 23.8229 98.1875 24.6797 98.6562 25.4922C99.125 26.2995 99.8281 27.0885 100.766 27.8594ZM93.6094 21.6016H87.3594V20.3672H93.6094V21.6016ZM94.3516 23.8438H91.1797V27.2656C91.1797 27.7552 91.0651 28.1328 90.8359 28.3984C90.612 28.6693 90.1901 28.8047 89.5703 28.8047C89.4297 28.8047 89.1979 28.7969 88.875 28.7812L88.4609 27.4062C88.5234 27.4167 88.8099 27.4219 89.3203 27.4219C89.6432 27.4219 89.8047 27.2474 89.8047 26.8984V23.8438H86.6172V22.6094H94.3516V23.8438ZM89.1797 24.5625C88.7786 26.0677 88.2552 27.3359 87.6094 28.3672L86.4453 27.6328C87.0495 26.763 87.5547 25.6276 87.9609 24.2266L89.1797 24.5625ZM93.8516 26.3828L92.7188 26.9922C92.4635 26.2526 92.1328 25.5208 91.7266 24.7969L92.8125 24.2422C93.25 24.9245 93.5964 25.638 93.8516 26.3828Z" fill="white"/>
</svg>
