<svg width="130" height="44" viewBox="0 0 130 44" fill="none" xmlns="http://www.w3.org/2000/svg">
<path d="M0 0H130V44H5C2.23858 44 0 41.7614 0 39V0Z" fill="#FF790C"/>
<path d="M35.8636 27.1293H25.1369C25.0213 27.1293 24.9181 27.0594 24.8727 26.9525L22.1683 20.4432C22.1064 20.2993 22.1765 20.1307 22.3252 20.0732C22.4697 20.0115 22.639 20.0814 22.6968 20.2294L25.3268 26.5659H35.6737L38.3038 20.2294C38.3657 20.0855 38.5309 20.0156 38.6754 20.0732C38.8199 20.1348 38.8901 20.2993 38.8323 20.4432L36.1279 26.9525C36.0825 27.0594 35.9792 27.1293 35.8636 27.1293Z" fill="white"/>
<path d="M26.1116 22.3966C26.0497 22.3966 25.9919 22.376 25.9423 22.3431L22.8829 20.1144C22.7549 20.0199 22.726 19.8431 22.821 19.7156C22.9159 19.5881 23.0935 19.5593 23.2214 19.6539L26.058 21.7181L29.4601 17.3183C29.5551 17.1949 29.7367 17.1703 29.8606 17.2649C29.9845 17.3594 30.0092 17.5404 29.9143 17.6637L26.3428 22.2856C26.285 22.3596 26.2025 22.3966 26.1116 22.3966Z" fill="white"/>
<path d="M34.8853 22.3971C34.7986 22.3971 34.7119 22.356 34.6582 22.2861L31.0867 17.6684C30.9918 17.545 31.0124 17.3641 31.1404 17.2695C31.2643 17.175 31.446 17.1955 31.5409 17.323L34.9431 21.7228L37.7796 19.6586C37.9076 19.5681 38.0893 19.601 38.176 19.7285C38.2627 19.8518 38.2379 20.0245 38.114 20.115L35.0546 22.3437C35.005 22.3807 34.9472 22.3971 34.8853 22.3971Z" fill="white"/>
<path d="M36.3336 28.9634H24.6614C24.5045 28.9634 24.3765 28.8359 24.3765 28.6796C24.3765 28.655 24.3806 28.6303 24.3847 28.6097L24.8554 26.7799C24.8885 26.6524 24.9999 26.5661 25.1321 26.5661H35.8629C35.995 26.5661 36.1065 26.6524 36.1395 26.7799L36.6102 28.6097C36.6474 28.7619 36.5565 28.9181 36.4038 28.9551C36.3831 28.9592 36.3584 28.9634 36.3336 28.9634ZM25.0288 28.3918H35.9661L35.6441 27.1294H25.355L25.0288 28.3918Z" fill="white"/>
<path d="M30.5003 18.0793C29.6498 18.0793 28.9603 17.3926 28.9603 16.5455C28.9603 15.6985 29.6498 15.0159 30.5003 15.0159C31.3509 15.0159 32.0404 15.7026 32.0404 16.5496C32.0363 17.3926 31.3509 18.0793 30.5003 18.0793ZM30.5003 15.5833C29.9677 15.5833 29.5342 16.0151 29.5342 16.5455C29.5342 17.076 29.9677 17.5077 30.5003 17.5077C31.0329 17.5077 31.4665 17.076 31.4665 16.5455C31.4665 16.0151 31.0329 15.5833 30.5003 15.5833Z" fill="white"/>
<path d="M38.9606 20.6818C38.1101 20.6818 37.4205 19.9951 37.4205 19.1481C37.4205 18.301 38.1101 17.6143 38.9606 17.6143C39.8111 17.6143 40.5007 18.301 40.5007 19.1481C40.4965 19.9951 39.807 20.6818 38.9606 20.6818ZM38.9606 18.1859C38.428 18.1859 37.9945 18.6176 37.9945 19.1481C37.9945 19.6785 38.428 20.1103 38.9606 20.1103C39.4932 20.1103 39.9267 19.6785 39.9267 19.1481C39.9267 18.6176 39.4932 18.1859 38.9606 18.1859Z" fill="white"/>
<path d="M22.0401 20.6821C21.1895 20.6821 20.5 19.9954 20.5 19.1484C20.5 18.3054 21.1895 17.6187 22.0401 17.6187C22.8906 17.6187 23.5801 18.3054 23.5801 19.1525C23.576 19.9954 22.8906 20.6821 22.0401 20.6821ZM22.0401 18.1862C21.5074 18.1862 21.0739 18.6179 21.0739 19.1484C21.0739 19.6788 21.5074 20.1106 22.0401 20.1106C22.5727 20.1106 23.0062 19.6788 23.0062 19.1484C23.0062 18.6179 22.5727 18.1862 22.0401 18.1862Z" fill="white"/>
<path d="M60.8125 22.0312C60.6875 23.2135 60.513 24.0182 60.2891 24.4453C60.0703 24.8672 59.7552 25.0781 59.3438 25.0781C58.9115 25.0781 58.5781 24.8307 58.3438 24.3359C58.1094 23.8359 57.9766 23.0859 57.9453 22.0859C57.9141 21.0859 57.8984 19.7839 57.8984 18.1797H56.9375C56.9062 19.2318 56.8099 20.2552 56.6484 21.25C57.0599 21.7969 57.4245 22.3724 57.7422 22.9766L56.7188 23.7891C56.5417 23.4349 56.3594 23.1146 56.1719 22.8281C55.7865 23.7812 55.3333 24.6042 54.8125 25.2969L53.5938 24.5938C54.3281 23.599 54.8672 22.5469 55.2109 21.4375C54.8099 20.9062 54.3828 20.4062 53.9297 19.9375L54.9375 19.1172C55.1354 19.2891 55.3333 19.513 55.5312 19.7891C55.6406 19.2891 55.6771 18.7526 55.6406 18.1797H54.25V16.8828H55.6562C55.6823 15.9974 55.6901 15.3073 55.6797 14.8125H56.9688C56.9688 15.349 56.9583 16.0391 56.9375 16.8828H59.2422C59.2109 18.3516 59.1953 19.5625 59.1953 20.5156C59.1953 21.5885 59.2161 22.2943 59.2578 22.6328C59.2995 22.9714 59.3255 23.1797 59.3359 23.2578C59.3516 23.3359 59.3906 23.375 59.4531 23.375C59.4688 23.375 59.487 23.3698 59.5078 23.3594C59.5339 23.349 59.5807 23.1224 59.6484 22.6797C59.7161 22.2318 59.763 21.8021 59.7891 21.3906L60.8125 22.0312ZM53.7266 18.8672H52.4453V19.3281C52.4453 19.5104 52.5677 19.6016 52.8125 19.6016H53.7266V20.7812H52.25C51.5365 20.7812 51.1797 20.3984 51.1797 19.6328V18.8672H49.8828C49.638 19.8932 48.7109 20.7083 47.1016 21.3125L46.4766 20.2266C47.5078 19.9089 48.1641 19.4557 48.4453 18.8672H46.7188V17.6641H49.6094V16.9141H47.1172V15.7266H49.6094V14.8125H50.9688V15.7266H53.3438V16.9141H50.9688V17.6641H53.7266V18.8672ZM53.6406 24.2109C51.4688 24.6589 49.2292 25.0312 46.9219 25.3281L46.6484 24.0938C47.8724 23.9792 48.8646 23.8516 49.625 23.7109V22.6562H47.3203V21.4531H49.6094V20.1953H50.9688V21.4531H53.2109V22.6562H50.9688V23.4844L53.6406 23.0234V24.2109ZM60.5547 28.4141L59.2266 28.9297C58.7995 27.8359 58.2344 26.7995 57.5312 25.8203L58.8438 25.2344C59.5833 26.401 60.1536 27.4609 60.5547 28.4141ZM56.7656 28.4609L55.4219 28.8125C55.099 27.7083 54.6875 26.7005 54.1875 25.7891L55.5312 25.375C56.0677 26.375 56.4792 27.4036 56.7656 28.4609ZM52.9844 28.5469L51.5781 28.7969C51.4948 27.9115 51.2552 26.8828 50.8594 25.7109L52.2188 25.3906C52.5938 26.4688 52.849 27.5208 52.9844 28.5469ZM49.5312 25.9062C49.0885 27.0781 48.5286 28.0599 47.8516 28.8516L46.6172 28.1562C47.3047 27.3281 47.8542 26.4115 48.2656 25.4062L49.5312 25.9062ZM68.5547 17.6797L67.6562 18.75C67.0208 17.9844 66.3281 17.2917 65.5781 16.6719C65.2031 17.3021 64.7656 17.9323 64.2656 18.5625H67.1797V19.8594H66.0469V21.0547H68.0312V22.3516H66.0469V26.4766C66.7188 26.3151 67.3203 26.1406 67.8516 25.9531L67.9453 27.2188C66.0755 27.849 64.3802 28.3281 62.8594 28.6562L62.4922 27.375C63.4141 27.1979 64.1458 27.0339 64.6875 26.8828V22.3516H62.7656V21.0547H64.6875V19.8594H63.6953V19.1875C63.513 19.3385 63.3359 19.4766 63.1641 19.6016L62.3516 18.4141C63.4297 17.5599 64.3359 16.3281 65.0703 14.7188L66.3984 15.0859C66.3568 15.2474 66.2865 15.3932 66.1875 15.5234C67.1562 16.2839 67.9453 17.0026 68.5547 17.6797ZM76.1562 27.4844C76.1562 27.8125 76.0469 28.1042 75.8281 28.3594C75.6146 28.6146 75.2943 28.7552 74.8672 28.7812C74.4453 28.8125 74.112 28.8281 73.8672 28.8281C73.6224 28.8281 73.388 28.8177 73.1641 28.7969L72.75 27.4375C72.9427 27.4583 73.1589 27.4688 73.3984 27.4688C74.0495 27.4688 74.4401 27.4349 74.5703 27.3672C74.7005 27.2943 74.7656 27.1745 74.7656 27.0078V25.0859C73.4271 25.6224 72.0547 26.0911 70.6484 26.4922L70.1875 25.4531C70.0781 26.75 69.651 27.9505 68.9062 29.0547L67.7422 28.0312C68.487 27.099 68.8594 25.8724 68.8594 24.3516V19.6016H71.7578V14.8672H73.1953V19.6016H76.1562V27.4844ZM74.7656 23.7891V20.9141H70.25V21.7266C71.8542 21.9245 73.0807 22.1589 73.9297 22.4297L73.5312 23.6797C72.4219 23.3151 71.3385 23.0651 70.2812 22.9297C70.2552 23.9922 70.2292 24.7708 70.2031 25.2656C71.6042 24.9531 73.125 24.4609 74.7656 23.7891ZM76.6016 15.8906C76.2734 16.8646 75.7682 17.9505 75.0859 19.1484L73.8516 18.4609C74.4297 17.487 74.9089 16.4635 75.2891 15.3906L76.6016 15.8906ZM71.0703 18.4922L69.8672 19.1328C69.3672 17.9401 68.8125 16.901 68.2031 16.0156L69.4375 15.3906C70.151 16.4531 70.6953 17.487 71.0703 18.4922ZM68.0156 23.0078C67.974 23.8516 67.8333 24.7786 67.5938 25.7891L66.4609 25.5078C66.6745 24.7943 66.8073 23.8698 66.8594 22.7344L68.0156 23.0078ZM64.3125 26.0938L63.1328 26.3672C63.0495 25.3203 62.8828 24.2422 62.6328 23.1328L63.7891 22.8516C64.0651 23.9714 64.2396 25.0521 64.3125 26.0938ZM92.7656 17.7578L92.125 18.9453C91.3802 18.6641 90.6536 18.3229 89.9453 17.9219V18.3828H85.6094V17.9688C84.8177 18.4427 84.1406 18.7995 83.5781 19.0391L82.9375 17.8047C84.9948 16.8516 86.4844 15.8073 87.4062 14.6719L88.75 15.1016C88.7135 15.1745 88.6589 15.2552 88.5859 15.3438C89.4818 16.1458 90.875 16.9505 92.7656 17.7578ZM88.9375 17.2812C88.651 17.0885 88.2422 16.7786 87.7109 16.3516C87.4089 16.6484 87.0443 16.9583 86.6172 17.2812H88.9375ZM83.0391 22.0156C82.4245 22.3385 81.9974 22.5573 81.7578 22.6719V27.6016C81.7578 27.8255 81.6589 28.0755 81.4609 28.3516C81.2682 28.6276 80.7969 28.7656 80.0469 28.7656C79.875 28.7656 79.6458 28.7604 79.3594 28.75L78.8125 27.3594C79.1146 27.3802 79.3958 27.3906 79.6562 27.3906C80.0156 27.3906 80.2266 27.3724 80.2891 27.3359C80.3516 27.2995 80.3828 27.2318 80.3828 27.1328V23.2969C79.9922 23.4635 79.5052 23.6458 78.9219 23.8438L78.5391 22.5312C79.1276 22.3385 79.7422 22.0911 80.3828 21.7891V18.7656H78.6484V17.3906H80.3828V14.8125H81.7578V17.3906H82.7188V18.7656H81.7578V21.1875L82.8125 20.6406L83.0391 22.0156ZM92.125 28.7812H90.7344V28.1406H86.3984V28.7812H85.0234V25.6797C84.7161 26.9297 84.1875 27.9688 83.4375 28.7969L82.2812 27.8906C82.8073 27.3594 83.2161 26.6771 83.5078 25.8438C83.7995 25.0052 83.9453 23.8307 83.9453 22.3203V19.1719H91.7422V23.6016H85.2891C85.2891 23.8724 85.2734 24.1432 85.2422 24.4141H92.125V28.7812ZM90.3281 20.8828V20.2578H85.3594V20.8828H90.3281ZM90.3281 22.5469V21.8203H85.3594V22.5469H90.3281ZM90.7344 27.0078V25.5391H86.3984V27.0078H90.7344ZM108.555 26.3047H107.547V27.3438C107.547 27.875 107.432 28.2578 107.203 28.4922C106.974 28.7318 106.529 28.8516 105.867 28.8516C105.602 28.8516 105.271 28.8333 104.875 28.7969L104.398 27.4531C104.664 27.4792 104.948 27.4922 105.25 27.4922C105.714 27.4922 105.982 27.4661 106.055 27.4141C106.133 27.362 106.172 27.2682 106.172 27.1328V26.3047H101.641V28.8281H100.25V26.3047H99.3047V25.1719H100.25V21.4844H103.258V20.625H99.3438V19.4844H101.453V18.7031H100.125V17.6641H101.453V16.8984H99.7578V15.8047H101.453V14.8984H102.828V15.8047H105.133V14.8984H106.508V15.8047H108.414V16.8984H106.508V17.6641H107.805V18.7031H106.508V19.4844H108.555V20.625H104.672V21.4844H107.547V25.1719H108.555V26.3047ZM105.133 17.6328V16.8984H102.828V17.6328H105.133ZM105.133 19.4844V18.7031H102.828V19.4844H105.133ZM106.172 23.375V22.6406H104.672V23.375H106.172ZM103.258 23.375V22.6406H101.641V23.375H103.258ZM106.172 25.1719V24.4297H104.672V25.1719H106.172ZM103.258 25.1719V24.4297H101.641V25.1719H103.258ZM98.9844 24.9766H96.0938L96.9844 25.5391C96.5938 26.8984 96.125 28.0026 95.5781 28.8516L94.4141 28.0312C95.0026 27.0781 95.4505 26.0599 95.7578 24.9766H94.9688V15.25H98.9844V24.9766ZM97.6562 18.0938V16.5938H96.2969V18.0938H97.6562ZM97.6562 20.8516V19.3281H96.2969V20.8516H97.6562ZM97.6562 23.6641V22.0938H96.2969V23.6641H97.6562ZM99.625 27.8906L98.3672 28.4141C98.1432 27.5495 97.7578 26.6536 97.2109 25.7266L98.3672 25.2031C98.8307 25.9115 99.25 26.8073 99.625 27.8906Z" fill="white"/>
</svg>
