<svg width="130" height="44" viewBox="0 0 130 44" fill="none" xmlns="http://www.w3.org/2000/svg">
<path d="M0 0H130V44H5C2.23858 44 0 41.7614 0 39V0Z" fill="#006DC9"/>
<path d="M31.598 31.6808L38.8175 24.4613C39.0249 24.254 39.1387 23.9816 39.1387 23.6889C39.1387 23.3963 39.0249 23.1198 38.8175 22.9166L38.1631 22.254C37.9557 22.0467 37.6834 21.9328 37.3907 21.9328C37.098 21.9328 36.8135 22.0467 36.6062 22.254L32.3826 26.4694L32.3826 13.0833C32.3826 12.4776 31.911 12.002 31.3053 12.002L30.3785 12.002C29.7728 12.002 29.2566 12.4776 29.2566 13.0833L29.2566 26.5182L25.0086 22.254C24.8013 22.0467 24.533 21.9328 24.2403 21.9328C23.9476 21.9328 23.6753 22.0467 23.472 22.254L22.8175 22.9085C22.6102 23.1158 22.5005 23.3881 22.5005 23.6808C22.5005 23.9735 22.6143 24.2499 22.8216 24.4532L30.0452 31.6767C30.2525 31.8841 30.5289 31.9979 30.8216 31.9979C31.1143 32.002 31.3907 31.8881 31.598 31.6808Z" fill="white"/>
<path d="M60.4922 16.6406H53.5469V19.2188C56.0729 20.5365 57.9974 21.7474 59.3203 22.8516L58.4297 24.0781C57.2057 23.0208 55.5781 21.9323 53.5469 20.8125V28.7656H52.0938V16.6406H46.5859V15.2344H60.4922V16.6406ZM69.625 18.7969L68.6328 19.7266C67.987 19.1432 67.3047 18.6146 66.5859 18.1406C65.6849 18.9531 64.6667 19.6953 63.5312 20.3672L62.6172 19.2656C63.6901 18.6823 64.5911 18.0469 65.3203 17.3594C64.6016 16.9219 63.8411 16.5208 63.0391 16.1562L63.8516 15.0391C64.7422 15.5078 65.5677 15.9714 66.3281 16.4297C66.875 15.8672 67.3255 15.2969 67.6797 14.7188L68.9375 15.2656C68.5885 15.8698 68.1146 16.5104 67.5156 17.1875C68.2031 17.6302 68.9062 18.1667 69.625 18.7969ZM76.5078 20.5781H74.8906C74.0833 20.5781 73.6797 20.1406 73.6797 19.2656V16.5781H71.8047C71.8047 18.5417 71.3724 20.0234 70.5078 21.0234L69.375 20.2109C70.099 19.3411 70.4609 18.1875 70.4609 16.75V15.2344H75.0547V18.9609C75.0547 19.1432 75.1432 19.2344 75.3203 19.2344H76.5078V20.5781ZM69.2891 20.7031L68.5078 21.4062C68.1016 20.9896 67.6693 20.638 67.2109 20.3516L67.9609 19.6484C68.4036 19.9036 68.8464 20.2552 69.2891 20.7031ZM69.3203 22.8516H66.875V28.8125H65.5312V22.8516H62.7656V21.5391H65.5312V19.6484H66.875V21.5391H69.3203V22.8516ZM76.7031 27.6328L75.9766 28.8516C74.8203 28.4661 73.7656 27.8828 72.8125 27.1016C71.9896 27.7995 70.9557 28.388 69.7109 28.8672L68.8438 27.6953C70.0521 27.2839 71.0651 26.7656 71.8828 26.1406C71.1849 25.1823 70.6849 24.0729 70.3828 22.8125H69.9297V21.4531H75.6797V22.8125C75.0182 24.3542 74.3828 25.4635 73.7734 26.1406C74.3568 26.6719 75.3333 27.1693 76.7031 27.6328ZM74.2188 22.8125H71.7266C71.9766 23.7083 72.3594 24.5052 72.875 25.2031C73.3958 24.5573 73.8438 23.7604 74.2188 22.8125ZM69.7578 26.9766H68.5859C67.8828 26.9766 67.5312 26.6094 67.5312 25.875V23.4531H68.8594V25.4062C68.8594 25.6094 68.9661 25.7109 69.1797 25.7109H69.7578V26.9766ZM64.8594 23.4531C64.7865 25.6875 64.3542 27.3099 63.5625 28.3203L62.4766 27.4531C63.1589 26.5781 63.5208 25.2448 63.5625 23.4531H64.8594ZM92.5078 28.4141H78.5547V27.0391H81.8672L83.0703 21.2188H79.8828V19.7891H83.3203L83.9766 16.625H79.1484V15.2188H91.9141V16.625H85.5L84.8438 19.7891H90.2812V27.0391H92.5078V28.4141ZM88.7969 27.0391V21.2188H84.5703L83.4219 27.0391H88.7969ZM108.461 21.2188H106.266V28.7969H104.828V21.2188H101.977C101.997 24.7031 101.299 27.2344 99.8828 28.8125L98.7031 28C99.2135 27.4688 99.651 26.6745 100.016 25.6172C100.385 24.5599 100.57 22.8854 100.57 20.5938V16.0625C103.419 15.8594 105.719 15.4271 107.469 14.7656L108.141 16.0781C106.734 16.6198 104.68 17.0365 101.977 17.3281V19.8203H108.461V21.2188ZM99.9453 21.875C99.4818 22.1198 98.8438 22.401 98.0312 22.7188V27.5234C98.0312 28.3568 97.4427 28.7734 96.2656 28.7734C95.9688 28.7734 95.6224 28.7656 95.2266 28.75L94.6484 27.3594C95.4661 27.375 95.9974 27.3776 96.2422 27.3672C96.4922 27.3516 96.6172 27.2474 96.6172 27.0547V23.2812C96.112 23.474 95.526 23.6823 94.8594 23.9062L94.4766 22.5469L96.6172 21.7578V18.8125H94.6016V17.4219H96.6172V14.8672H98.0312V17.4219H99.7578V18.8125H98.0312V21.1875C98.5885 20.9792 99.1589 20.7318 99.7422 20.4453L99.9453 21.875Z" fill="white"/>
</svg>
