<svg width="200" height="28" viewBox="0 0 200 28" fill="none" xmlns="http://www.w3.org/2000/svg">
<g clip-path="url(#clip0)">
<path d="M154.689 26.9502H133.26V27.7654H154.689V26.9502Z" fill="#A6A797" stroke="#A6A797" stroke-width="0.061176"/>
<path d="M155.537 26.9502H155.223V27.7654H155.537V26.9502Z" fill="#A6A797" stroke="#A6A797" stroke-width="0.061176"/>
<path d="M156.261 26.9502H155.947V27.7654H156.261V26.9502Z" fill="#A6A797" stroke="#A6A797" stroke-width="0.061176"/>
<path d="M159.843 26.9502H156.826V27.7654H159.843V26.9502Z" fill="#A6A797" stroke="#A6A797" stroke-width="0.061176"/>
<path d="M163.015 26.9502H162.701V27.7654H163.015V26.9502Z" fill="#A6A797" stroke="#A6A797" stroke-width="0.061176"/>
<path d="M163.771 26.9502H163.457V27.7654H163.771V26.9502Z" fill="#A6A797" stroke="#A6A797" stroke-width="0.061176"/>
<path d="M199.968 26.9502H164.305V27.7654H199.968V26.9502Z" fill="#A6A797" stroke="#A6A797" stroke-width="0.061176"/>
<path d="M160.597 26.9502H160.283V27.7654H160.597V26.9502Z" fill="#A6A797" stroke="#A6A797" stroke-width="0.061176"/>
<path d="M162.199 26.9502H161.131V27.7654H162.199V26.9502Z" fill="#A6A797" stroke="#A6A797" stroke-width="0.061176"/>
<path d="M170.934 24.2534H167.918V25.0687H170.934V24.2534Z" fill="#A6A797" stroke="#A6A797" stroke-width="0.061176"/>
<path d="M174.107 24.2534H173.793V25.0687H174.107V24.2534Z" fill="#A6A797" stroke="#A6A797" stroke-width="0.061176"/>
<path d="M174.863 24.2534H174.549V25.0687H174.863V24.2534Z" fill="#A6A797" stroke="#A6A797" stroke-width="0.061176"/>
<path d="M199.968 24.2534H175.396V25.0687H199.968V24.2534Z" fill="#A6A797" stroke="#A6A797" stroke-width="0.061176"/>
<path d="M171.689 24.2534H171.375V25.0687H171.689V24.2534Z" fill="#A6A797" stroke="#A6A797" stroke-width="0.061176"/>
<path d="M173.291 24.2534H172.223V25.0687H173.291V24.2534Z" fill="#A6A797" stroke="#A6A797" stroke-width="0.061176"/>
<path d="M189.474 21.5569H189.16V22.3721H189.474V21.5569Z" fill="#A6A797" stroke="#A6A797" stroke-width="0.061176"/>
<path d="M190.228 21.5569H189.914V22.3721H190.228V21.5569Z" fill="#A6A797" stroke="#A6A797" stroke-width="0.061176"/>
<path d="M200 21.5569H190.793V22.3721H200V21.5569Z" fill="#A6A797" stroke="#A6A797" stroke-width="0.061176"/>
<path d="M188.656 21.5569H187.588V22.3721H188.656V21.5569Z" fill="#A6A797" stroke="#A6A797" stroke-width="0.061176"/>
<path d="M34.9093 9.0771C36.1976 8.95168 36.3233 7.85422 36.4176 7.41524C36.4804 7.1644 36.4176 7.10169 36.4804 6.75677C37.4231 6.50593 40.0939 5.91017 39.5912 6.69406C39.4655 6.88219 39.1827 6.88219 38.8999 7.00762C37.9572 7.57202 37.3602 7.85422 36.7946 8.04236C36.449 8.44998 36.5747 8.82625 37.1403 9.20252C37.9572 9.45337 38.24 9.45337 36.449 10.5508C36.3233 10.6762 36.1034 11.1779 36.7946 11.4915C37.3916 12.2754 35.9148 12.7771 35.2864 13.0906C34.8779 13.3415 33.6525 13.7178 33.6525 13.9372C33.9981 14.8152 34.8779 14.8779 35.4749 14.7525C35.6006 14.6898 35.8206 14.6271 36.229 14.3762C36.5747 14.0627 36.9832 13.9372 37.3288 13.6864C37.7373 13.3101 37.9887 13.122 38.3971 12.9025C38.3971 12.7771 39.7483 12.2754 40.3139 11.9932C40.4396 11.8051 40.5653 11.6169 40.6281 11.3347C40.6595 11.3974 40.6595 11.4288 40.6909 11.4915H40.9737C41.5707 11.4288 42.0735 11.2406 42.3877 10.2059C42.262 10.0805 42.1049 10.0805 42.0421 9.89235C41.9792 9.57879 42.3249 9.26523 42.5762 9.10845C42.7019 9.04574 42.7648 8.98303 42.9847 8.98303C43.2675 9.17117 43.3304 9.61015 43.1733 10.0491C43.0476 10.3627 42.9847 10.5822 42.6391 10.7703C42.6391 10.9584 42.7648 11.5228 42.7019 11.7423L41.5393 12.1186C41.3508 12.1813 41.1308 12.244 40.9423 12.3695C39.7169 12.7457 38.3657 13.3415 37.9572 13.7178C38.0201 14.4389 37.2031 19.5499 38.2086 20.2398C38.3657 20.6787 36.9203 21.5881 36.7318 21.8389C36.3862 22.2152 36.3861 22.6855 36.449 23.8143C37.266 23.8143 37.7373 22.9363 38.0829 22.466C38.4914 21.8389 38.8999 21.3686 39.2455 20.8042C39.5912 20.0203 40.1253 20.3025 40.9423 20.0203C41.2251 19.8321 41.8221 19.7067 42.1678 19.9576C42.2306 20.3338 41.9792 20.522 41.885 20.7414C42.2935 21.4626 43.2361 22.9363 44.273 23.8143C44.7444 24.1906 45.2157 24.4414 45.687 24.4414C46.7868 24.0652 46.8496 22.0584 45.8127 21.6194C45.4671 21.3686 44.9329 20.9923 44.5872 20.5847C44.3987 19.8321 44.6501 20.6474 44.87 18.7974C44.5244 17.0728 44.7444 13.3415 44.87 13.0279C45.0586 12.3381 44.0531 11.3661 45.1214 11.0525L47.2895 11.1152C47.698 11.0525 48.4521 10.6135 48.2322 10.6762C48.6407 10.0491 48.3893 9.86099 48.1065 9.32794C47.8237 9.01439 47.7608 8.88896 47.4781 8.7949C47.0696 8.54405 46.4097 8.35592 45.4356 8.54405C45.09 8.92032 45.3728 9.29659 45.7184 9.76693C45.8441 9.6415 45.4356 10.739 44.3673 10.4254C44.1473 9.45337 44.4301 9.0771 44.493 8.60676C44.5558 8.2932 45.1843 7.69744 45.2471 7.7288C45.7184 6.81948 47.698 6.63135 48.6407 7.00762C49.5205 7.19575 49.9918 6.69406 49.9918 6.12966V6.00423C49.9918 5.50254 49.6462 4.96949 48.9863 4.59322C49.0491 4.40509 48.1693 4.09153 47.698 3.96611C47.4781 3.96611 47.1324 4.02882 46.9439 4.02882C46.284 4.62458 45.5927 4.43645 44.2416 4.40509H43.4246C43.4246 3.96611 43.5503 4.34238 43.299 3.58984C42.8276 2.99408 42.3563 2.68052 40.9109 2.49239C40.848 2.49239 40.848 2.49239 40.848 2.49239C40.3767 2.42968 39.4969 2.5551 39.277 2.74323C38.9942 3.24493 39.4341 4.71865 39.1513 4.71865C39.1513 5.09492 37.1089 5.15763 36.5747 5.15763C36.5747 4.90678 36.449 4.71865 36.449 4.53051C36.2605 4.12289 35.7577 3.80933 35.0979 3.93475L34.5637 4.96949C34.5008 4.96949 34.1552 5.56525 34.0924 5.56525V5.69068C34.0924 5.69068 33.4011 6.3805 33.2754 7.54067C33.4639 8.04236 33.621 8.76354 34.9093 9.0771ZM42.7648 17.8881C42.4191 18.5152 41.6022 19.1109 41.0052 19.2991C40.9423 19.2991 40.9423 19.2991 40.9423 19.2991C40.4081 19.4245 39.7797 19.2991 39.3712 19.1109C39.2455 18.7974 39.0884 17.9508 39.0884 17.5745C39.1513 16.8533 38.6799 14.8152 39.2141 14.1881C39.5598 13.8118 40.1568 13.6237 40.9737 13.3415C41.3194 13.2161 41.665 13.0906 42.0735 12.8398C43.6446 12.8084 42.7019 17.355 42.7648 17.8881ZM42.6391 5.62796C42.7648 5.31441 43.0476 5.31441 43.8017 5.09492C43.9274 5.09492 44.1473 5.0322 44.3359 5.0322C44.8072 4.96949 45.4042 5.0322 45.907 5.0322C46.5668 5.5339 45.7184 5.78474 45.3728 5.78474C45.0271 5.84745 44.6815 6.03559 44.3359 6.28644C43.9274 6.53728 43.5189 6.85084 43.1104 6.78813C42.5134 6.59999 42.5134 5.94152 42.6391 5.62796ZM39.7169 7.10169L40.1882 7.03897C40.3767 7.10169 40.5967 7.22711 40.7852 7.41524L40.5653 8.63812C40.9737 9.32794 40.4081 10.6135 40.5967 11.2406C40.0311 10.833 38.8056 11.5542 38.8685 10.8957L39.2141 10.4881C39.2141 10.4881 39.3398 10.3627 39.4969 10.1746C39.5598 10.0178 39.6854 9.76693 39.6854 9.76693C39.6854 9.6415 39.5598 9.39066 39.5598 9.20252C39.2141 8.82625 39.2141 8.88896 39.1513 8.70083C39.3398 8.38727 39.5598 8.13643 39.6854 7.54067L39.7169 7.10169Z" fill="#F9E700"/>
<path d="M41.0057 16.8532C40.6601 16.9786 40.2516 17.1041 40.063 17.2295C39.5289 17.4176 38.9004 17.7939 39.5917 17.888C40.063 18.2956 40.5972 18.3896 41.0057 18.2956C41.477 18.2329 41.8855 17.888 41.9484 17.6371C42.1369 17.3235 42.2312 17.01 41.9484 16.7278C41.7598 16.6651 41.3513 16.7905 41.0057 16.8532Z" fill="#F9E700"/>
<path d="M41.0059 14.4702H40.4717C40.126 14.6583 39.9375 14.6583 39.7804 14.9092C39.7176 15.16 40.2517 15.8185 41.0059 15.8812C41.3515 15.8812 41.76 15.7558 42.1685 15.3795C42.1056 14.7838 41.6029 14.5329 41.0059 14.4702Z" fill="#F9E700"/>
<path d="M55.1131 9.6415C55.6787 9.95506 55.6787 9.95506 57.2184 9.76692C57.7526 9.57879 58.4439 8.79489 58.4439 8.98303C58.4439 10.2686 57.9097 14.0627 58.0982 15.9754C58.1611 16.2262 58.3182 16.7593 58.5067 17.0101C58.6952 17.3864 58.978 17.5118 59.1037 17.6686C59.4494 18.8287 58.2239 19.0796 57.8154 19.1423C57.3441 19.1423 57.4698 18.3584 57.4698 18.233C57.3441 17.261 56.7785 16.4457 56.2443 16.5084C55.7102 16.5711 55.4274 18.2957 55.3017 18.8287C55.176 19.1423 55.0189 19.5186 55.176 19.8321C55.7102 20.4906 56.1186 20.4279 56.9356 21.055C58.2239 20.616 61.0204 19.7067 63.0629 19.7067H63.1257C64.194 19.8948 64.4768 20.0203 64.6968 19.8948C65.5766 19.2991 65.5766 19.2991 65.8594 18.7974C65.8594 18.1703 65.5766 18.0762 65.1681 17.6372C65.1053 17.5745 65.0424 17.2609 64.9482 17.1982C65.231 17.1355 65.9537 17.1355 66.2993 17.1982C67.1791 17.3237 66.9906 17.3237 67.3048 17.4491C67.242 18.4838 67.4305 18.5465 66.8963 19.9575C66.1422 21.6821 65.8594 21.3058 64.1626 21.1177C64.0998 21.494 64.3197 23.2185 65.7966 23.6889C68.0904 23.1245 69.0016 22.7796 70.4784 20.9923C71.4211 19.5813 71.641 19.205 71.861 17.4804C71.861 16.1949 70.9812 15.8186 70.1642 15.5677C69.1587 15.2855 67.4305 15.2228 67.1163 15.1601C66.425 15.1601 65.7023 15.2855 64.9482 15.3482C64.2569 15.4737 63.6599 15.5364 63.0629 15.6618C63 15.6618 62.9058 15.7245 62.8429 15.7245C61.9631 15.9127 61.3032 15.9754 60.392 16.1635C60.3606 15.4423 60.392 14.6898 60.4234 13.9372C60.612 14.3135 60.9576 14.6271 61.209 14.6898C61.806 14.9406 62.3716 14.7525 63.0314 14.4389C63.3771 14.3135 63.7856 14.1254 64.1626 13.9999C65.3252 13.561 65.7337 13.4983 65.7337 13.0906C65.6709 12.5262 64.7282 12.2754 64.3197 12.2127C63.8484 12.2127 63.4399 12.3381 63.0314 12.5262C62.8115 12.5889 62.623 12.6517 62.4658 12.7144C61.1776 13.1533 60.7691 13.4983 60.4234 13.655C60.4863 12.8084 60.5491 11.9305 60.612 11.0212C61.0204 11.272 60.8633 11.3347 61.4604 11.6169C62.1516 11.6796 62.5287 11.7423 63.0314 11.6796C63.22 11.6169 63.4399 11.5542 63.6285 11.4915C64.0998 11.3034 64.9796 10.8644 65.1053 10.3627C65.1681 10.0491 65.5766 9.82963 65.4509 9.45336C65.3252 8.95167 65.3881 9.39065 65.3881 8.73218C65.3252 7.97964 67.9018 6.22372 67.5562 5.06356C67.3362 4.43644 67.1477 4.31102 66.7392 4.21695C65.9222 3.84068 65.5766 4.02882 64.9168 4.21695C64.3197 4.40508 63.817 5.18898 63.4399 5.3144C63.7227 4.53051 63.5028 3.90339 63.0314 3.52712C62.4659 3.08814 61.586 2.99408 60.5805 3.33899C59.2294 3.84068 60.1721 3.84068 59.2922 4.68729C58.0668 5.91016 55.6787 7.44659 55.0817 8.73218C54.7989 9.45336 54.579 9.39065 55.1131 9.6415ZM60.7691 17.355C61.0833 17.4177 62.2773 17.1042 62.9372 17.1042C63 17.2296 63.0943 17.355 63.0943 17.4804C63.0943 17.5432 63.0943 17.6059 63.0943 17.6059C63.0943 17.7313 63.0314 17.8567 63.0314 18.0448C62.9686 18.2957 62.4973 18.233 62.0888 18.233C61.0204 18.4525 60.6748 18.4525 60.7691 17.355ZM61.586 6.63134C62.1202 6.31779 62.6858 5.78474 63.0943 5.5966C63.1571 5.53389 63.2828 5.53389 63.3457 5.53389C63.5342 5.5966 63.9427 6.56863 63.817 6.9449C63.6285 7.07032 63.3457 7.07033 63.0629 7.13304C62.7801 7.13304 62.4973 7.19575 62.1831 7.25846C61.7117 7.44659 61.3032 7.57202 61.2404 7.50931C60.8948 7.2271 61.0833 6.9449 61.586 6.63134ZM60.8319 8.60676C60.8948 7.91693 61.3661 8.04235 61.5232 8.35591C62.1202 8.54405 62.5915 8.54405 63.0943 8.48133C63.9113 8.41862 64.3826 8.16778 64.4454 8.41862C64.5083 8.66947 63.8798 9.20252 63.0943 9.70421C62.403 10.0805 61.5232 10.3627 60.7062 10.3627C60.7376 10.0491 60.7376 9.73557 60.7691 9.39065C60.7691 9.26523 60.6748 8.88896 60.8319 8.60676Z" fill="#F9E700"/>
<path d="M106.017 18.2015H106.079C106.551 18.0134 106.991 17.5431 106.928 17.1981C106.865 16.9159 106.519 16.3515 106.079 16.1321C105.891 16.038 105.64 15.9439 105.294 16.038C105.231 16.1948 105.42 16.4456 105.482 16.9159C105.545 17.3236 105.482 17.1041 105.545 17.5117C105.608 17.8566 105.482 18.2642 106.017 18.2015Z" fill="#F9E700"/>
<path d="M123.079 19.0797C122.734 19.3932 122.294 19.6754 122.011 19.8949C121.697 20.2712 121.477 20.2712 120.974 20.6788C119.466 21.2119 118.398 21.4 117.612 20.6788C117.486 20.4907 117.675 20.083 117.612 19.55C117.549 18.7661 117.675 17.8254 117.675 17.1042C117.675 16.1949 117.675 16.1636 117.738 15.9127C117.926 15.85 118.146 15.9127 118.335 15.6932C118.523 15.6932 118.586 15.2543 118.649 14.9093C118.837 14.439 119.183 13.7805 119.372 13.4983C120.283 12.589 120.817 11.5229 120.094 11.3661C119.309 10.8331 118.24 10.4882 117.549 10.7704C117.298 10.8331 116.952 11.0212 116.481 11.178C115.444 11.5856 114.124 12.1814 113.213 12.4322C112.742 12.6831 112.427 12.5577 112.302 12.8399C112.302 13.1534 112.427 13.6238 112.49 13.906C112.616 14.7839 112.962 15.6305 112.962 16.5085C112.899 16.6339 112.899 17.167 113.684 17.3551C113.244 18.2331 112.647 19.0797 111.799 19.9576C111.673 20.083 111.61 20.2085 111.485 20.2712C111.296 20.522 110.888 20.8669 110.699 21.0551C111.076 21.1178 111.422 21.0551 111.799 20.8669C113.119 20.3339 114.376 18.8602 115.412 17.3864C115.601 17.1356 116.072 16.6653 116.261 16.6653C116.324 17.8568 115.884 20.2398 116.387 21.2432C116.449 21.3059 116.449 21.3686 116.512 21.4313C117.235 22.6229 118.492 23.2813 120.189 23.1559C121.634 23.0305 122.105 22.811 122.734 22.2152C123.331 21.6822 123.708 21.2746 123.519 20.3339C123.456 19.8636 123.519 19.5186 123.079 19.0797ZM116.889 14.7526C116.826 14.8153 116.701 14.878 116.512 14.9407C116.261 15.0661 115.915 15.1288 115.601 15.2856C114.627 15.7246 114.281 15.8187 114.03 15.6619C113.904 15.1915 113.779 14.4704 113.684 13.7492C113.684 13.5297 113.747 13.561 113.747 13.5297C113.873 13.467 114.281 13.2788 114.47 13.2161C115.444 12.8399 116.041 12.5577 116.512 12.3695C117.361 11.9619 117.361 11.8365 117.958 11.7738C118.021 12.0246 117.832 13.1848 117.581 14.0314C117.298 14.4077 117.235 14.4704 116.889 14.7526Z" fill="#F9E700"/>
<path d="M117.296 6.56864C117.422 6.50592 117.611 6.44321 117.768 6.3805C118.742 5.97288 118.93 5.78474 119.15 5.59661C119.496 5.40847 119.087 5.06356 118.899 4.87542C118.459 4.87542 118.113 4.75 117.642 5.00085C117.516 5.00085 117.328 5.06356 117.171 5.12627C117.233 4.37373 117.296 4.40509 116.919 4.06017C116.794 3.99746 116.668 3.87204 116.542 3.80933C116.165 3.55848 115.694 3.43306 115.285 3.55848C114.814 3.6839 115.16 4.21695 115.16 4.75V5.62796C114.845 5.69067 114.751 5.75339 114.311 5.87881C113.84 6.00423 113.777 6.00423 113.777 6.06694C113.714 6.31779 114.028 6.6627 114.248 6.72541C114.531 6.85084 114.374 6.85084 114.594 6.85084C114.657 6.91355 115.065 7.03897 115.191 7.10168C115.254 7.1644 115.254 7.50931 115.442 7.57202C115.977 7.50931 116.291 7.38389 116.574 7.22711C116.699 7.16439 116.762 7.10168 116.825 7.03897C116.888 7.38389 116.762 7.69744 116.574 7.97965C116.448 8.16778 116.322 8.32456 116.197 8.51269C116.071 8.82625 115.662 9.17116 115.411 9.23388C115.348 8.88896 115.285 8.63812 115.128 8.48134C115.002 8.23049 114.877 8.07371 114.468 7.94829C113.211 7.50931 113.746 8.66947 113.683 9.23388C113.62 9.51608 113.62 9.76692 113.494 9.89235C112.897 10.1745 112.52 10.2373 111.86 10.4881C111.735 10.4881 111.672 10.5508 111.546 10.5508C111.295 10.8644 111.42 11.2093 111.86 11.4915C112.049 11.6169 112.332 11.711 112.646 11.7737H112.709C114.814 10.8957 115.662 10.394 116.574 10.1118C117.422 9.82964 118.333 9.6415 120.376 9.45337C120.91 9.45337 122.544 9.86099 122.732 9.51608C122.921 9.17116 123.047 9.29659 122.921 8.85761C122.732 8.38727 122.512 8.13642 121.884 8.04236C121.413 7.91693 121.413 8.16778 120.753 8.16778C119.779 8.2932 119.056 8.48134 118.396 8.5754C118.585 8.35591 118.585 8.35591 118.71 8.16778C119.244 7.38389 118.899 7.22711 118.71 7.10168C118.396 6.85084 117.736 6.69406 117.391 6.56864C117.359 6.56864 117.359 6.56864 117.296 6.56864Z" fill="#F9E700"/>
<path d="M116.511 13.0278C116.323 13.0905 116.134 13.0905 115.977 13.1533C115.506 13.216 114.972 13.2787 114.72 13.4355C114.532 13.5609 114.72 13.9058 114.846 14.0939C115.569 14.2821 114.595 15.4109 116.354 14.5643C116.417 14.5643 116.417 14.5643 116.48 14.5016C116.794 14.2821 117.203 13.9058 117.328 13.5609C117.423 13.0905 116.983 13.0278 116.511 13.0278Z" fill="#F9E700"/>
<path d="M107.651 9.61008C108.122 8.85754 108.405 8.6694 108.845 7.85415C108.97 7.66602 109.159 7.44653 109.222 7.32111C109.63 7.38382 109.473 7.38382 110.196 7.69737C110.604 7.88551 110.919 8.04229 111.578 8.04229C111.641 8.04229 111.704 8.04229 111.767 7.97958C112.113 7.91687 112.175 7.69738 112.238 7.19568C112.301 6.66263 112.175 6.34908 111.767 6.1923C111.704 6.1923 111.704 6.1923 111.641 6.12959C110.981 6.00416 110.07 6.06687 109.473 6.1923C109.41 5.84738 109.096 5.47111 108.499 5.00078C107.651 4.87536 107.368 4.78129 107.054 5.59654C106.677 6.4745 106.331 7.13297 106.08 7.63466C105.483 8.95161 105.294 9.35923 104.76 10.6448C104.163 11.899 103.503 13.1219 103.314 13.5923C103.566 13.5295 103.974 13.4982 104.351 13.3101C104.666 13.1219 105.263 12.6516 105.86 11.9304C105.922 11.8677 105.985 11.7423 106.048 11.7109C106.237 11.5228 106.362 11.366 106.519 11.1779C106.708 11.4287 106.802 11.1779 107.179 11.7109C107.431 12.1813 107.556 12.4321 106.771 13.3101C106.582 13.5295 106.3 13.4982 106.111 13.9685C106.048 14.6897 106.582 14.6897 107.431 15.0346C107.494 15.0346 107.776 16.916 107.431 18.2956C106.959 18.4838 106.519 18.6405 106.048 18.8287C105.671 19.0168 105.2 19.1422 104.728 19.2363C104.069 19.4244 104.006 19.8948 104.194 20.2397C104.791 21.0236 105.388 21.3058 105.891 21.1176C105.954 21.0549 106.017 21.0549 106.017 21.0549C107.462 20.5219 108.719 19.8007 109.882 19.2049C110.95 18.7346 111.61 18.327 111.484 17.8566C111.264 17.2609 110.824 17.2609 109.787 17.4804C109.787 17.3863 110.164 17.2609 110.164 17.1355C110.636 16.7278 111.264 16.1948 111.736 15.6617C111.861 15.5363 111.924 15.4109 112.018 15.2855C112.27 14.8151 112.144 14.627 111.736 14.4702C111.673 14.4702 111.61 14.4075 111.61 14.4075C111.076 14.2507 110.824 14.4702 110.353 14.9406C110.102 15.2228 109.756 15.3482 109.567 15.4736C109.505 15.2855 109.693 14.7524 109.756 14.5329C110.007 13.9999 110.604 13.2787 110.604 12.6516C110.604 12.5262 110.604 12.4007 110.541 12.4007V12.338C110.353 11.8677 109.819 12.0558 109.41 11.8677C109.222 11.6796 109.222 11.5541 109.599 11.2092C110.447 10.7389 110.856 10.3626 110.573 9.86092C110.322 9.32788 109.442 9.13974 109.253 9.13974C108.593 9.20245 108.53 9.26516 107.619 9.54737C107.682 9.61008 107.651 9.61008 107.651 9.61008Z" fill="#F9E700"/>
<path d="M77.8002 7.88556L77.9887 8.10505L78.1144 8.35589L78.4601 8.70081L78.6486 8.88894L79.1199 9.4847C79.2456 9.73555 79.3084 9.95504 79.3084 10.2686C79.3084 11.9305 79.497 13.5923 79.3084 15.1601L79.1828 15.6931L79.0571 16.0381V16.6965L79.1199 17.0101L79.2456 17.3236L79.3084 17.5431L79.3713 17.9194L79.497 18.1389L79.5598 18.327L79.6227 18.4524L79.7484 18.5779L79.8112 18.7033L79.9997 18.8914L80.2511 19.1423L80.5025 19.3931L80.8167 19.5813H81.1623L81.4137 19.4558L81.4766 19.2677L81.6022 19.205C81.7279 19.4872 81.6651 19.8007 81.7279 20.1457L81.8536 20.3652L81.9165 20.4906C82.1678 20.616 82.2307 20.5533 82.3878 20.3652L82.4506 20.2397C82.5135 20.177 82.5763 20.1143 82.5763 20.0516C82.6392 19.8635 82.6392 19.644 82.6392 19.4558C82.702 19.2677 82.6392 19.3931 82.702 19.1736C82.7649 18.3897 82.702 18.1075 82.702 17.6372V16.2575L82.8905 15.944L83.0162 15.7559L83.1419 15.5364L83.2676 15.3482L83.3933 15.1287L83.519 14.8779L83.5818 14.6898L83.7075 14.4389L83.896 14.094V13.7491L83.9589 13.216L84.0217 12.683L84.0846 12.2754L84.2103 11.7423L84.2731 11.3347L84.3988 10.8644L84.5245 10.4254L84.5873 10.0805L84.713 9.73555L84.9015 9.32792L85.1529 8.98301L85.5614 8.60674V10.7703L85.4986 12.683L85.3729 13.7491L85.2472 16.0694L85.1843 17.4804L84.933 19.1423L84.6816 21.1177C84.6816 21.3372 84.8073 21.8389 84.8701 22.0584C84.9958 22.3092 85.4043 22.8423 85.7185 22.905C86.0956 22.9677 86.2527 22.905 86.6297 22.6541C87.0068 22.4033 87.3524 22.2465 87.6038 22.0584C87.9495 21.8389 88.3265 21.588 88.8607 21.2431L90.0547 20.3024L90.966 19.3931L91.6887 19.9262C92.4114 20.5219 92.9455 20.9296 93.7311 21.2431C94.5795 21.4626 95.1136 21.4626 95.8363 21.3685C95.962 21.3058 96.559 21.2431 96.7476 21.149L97.2189 20.8982C97.4703 20.7728 97.6588 20.616 97.9416 20.3652L97.596 19.9575L96.9361 19.7067L94.8623 18.5779L94.4538 18.3584L93.9196 18.1075L93.3226 17.7626L92.9141 17.5118L92.5999 17.355L92.1914 17.0414L91.94 16.8219L91.6258 16.4143L91.94 16.3516C93.1969 15.8186 93.7939 15.4109 94.3909 14.627L94.5166 14.4389L94.6423 14.2821L94.7052 14.094C94.768 13.8118 94.768 13.6237 94.768 13.3101C94.6423 13.0279 94.5166 12.7771 94.2338 12.7143C93.8568 12.5262 93.5111 12.4321 92.7884 12.7771C92.2542 13.3728 91.7829 13.9059 91.1231 14.5016L90.6517 14.8465L90.526 14.9092C90.2747 15.1601 89.929 15.1915 89.6148 15.1601L89.4263 15.0974L89.2378 15.0347L89.0492 14.9092L88.9235 14.7838L88.735 14.6584C88.5465 14.4076 88.4208 14.1254 88.5465 13.8745L88.6093 13.8118L88.735 13.7491L88.9235 13.6864L89.0492 13.6237L89.1749 13.561L89.3634 13.4669L89.4891 13.4042L89.6148 13.2787L89.7405 13.1533L89.8662 13.0279L90.0547 12.9652L90.1804 12.8398L90.2433 12.7143L90.3689 12.5262L90.5575 12.4635L90.6832 12.2127L90.8088 12.0245L90.8717 11.8364L90.9345 11.6482L91.0602 11.4601L91.1231 11.0525L91.1859 10.6449L91.2487 10.2372L91.3116 9.39064L91.4373 9.04572L91.563 8.57538L91.6887 8.26183L92.3485 7.32115L92.4742 7.16438L92.9141 6.56862L93.2597 6.2237L93.4483 6.03557L93.6682 5.72201L93.9196 5.31439C93.9196 5.0949 93.9196 4.96947 93.7939 4.78134C93.6054 4.62456 93.3226 4.37371 93.1341 4.18558C93.0712 4.12287 93.0084 4.06016 92.9455 3.99744C92.757 3.87202 92.5056 3.71524 92.2857 3.58982C92.0971 3.52711 91.94 3.4644 91.8143 3.43304C91.4373 3.30762 91.0916 3.30762 90.6832 3.30762C90.5575 3.37033 90.3689 3.37033 90.149 3.43304L89.8033 3.55846L89.3949 3.68389L89.0492 3.87202L88.9235 3.99744L88.735 4.12287L88.5465 4.24829L88.2951 4.37371L87.9809 4.62456L87.8552 4.56185L87.7295 4.37371H87.6667L87.6038 4.18558L87.3524 4.06016L86.6297 3.99744L85.7813 4.24829L85.4986 4.65591L85.7813 5.06354V7.38387L85.6557 7.79149L85.4043 8.07369L85.2786 8.19912L85.1529 8.32454L85.0272 8.44996L84.7758 8.66945L84.6502 8.79488L84.5245 8.9203L84.3988 9.10843L84.2417 9.29657L84.116 9.54741L83.9903 9.79826L83.8646 10.1432L83.7389 10.4254L83.6761 10.7076L83.6132 11.0525L83.4876 11.366L83.4247 11.6169L83.3619 11.8677L83.1733 12.2127L83.1105 12.4008L83.0476 12.5889L82.922 12.6516L82.7963 12.7771V10.8016L82.8591 10.2059L83.0476 9.61012L83.1733 9.32792L83.299 9.07708L83.3619 8.95165L83.5504 8.82623L83.6761 8.66945L83.8646 8.54403L83.9903 8.41861L84.116 8.29318L84.2417 8.16776L84.3674 8.04234L84.4931 7.91691L84.5559 7.8542L84.6816 7.72878L84.8073 7.66607L84.8701 7.54064L84.9958 7.41522L85.1215 7.2898L85.31 7.10166V6.97624C85.4357 6.25506 85.3729 6.38048 85.1843 5.84743L84.9958 5.6593L84.7444 5.40845L84.5559 5.25167L83.896 4.81269C83.7075 4.74998 83.4247 4.68727 83.2362 4.65591C82.8277 4.65591 82.5135 4.71863 82.105 4.81269C81.6965 5.00083 81.3823 5.18896 81.0366 5.40845C81.0366 5.47116 80.9738 5.53388 80.9738 5.53388V6.25506L81.0366 6.5059L81.1623 6.75675L81.4137 6.94489L81.6022 7.13302L81.8536 7.32115L82.2621 7.572C82.4506 7.91691 82.4506 8.48132 82.2621 8.76352C82.0107 9.29657 81.6022 9.29657 81.3509 9.07708C81.288 8.85759 81.3509 8.23047 81.2252 7.94827L81.0995 7.76014L81.0366 7.60336L80.8481 7.47793L80.5025 7.2898L80.1883 7.10166L79.9997 7.03895L79.874 6.97624L79.6855 6.91353L79.5598 6.85082L79.3713 6.78811L79.1828 6.7254L78.9314 6.66268H77.863L77.5488 6.85082C77.5488 7.13302 77.6117 7.44658 77.7374 7.66607L77.8002 7.88556ZM87.7609 6.91353C87.7609 6.85082 87.8238 6.78811 87.8238 6.7254C88.0123 6.53726 88.4208 6.19235 88.6093 5.9415C88.955 5.72201 88.8921 5.40845 89.2692 5.40845C89.7405 5.53388 89.8662 7.0076 89.8662 8.07369C89.8033 8.1364 89.8662 8.44996 89.8033 8.73216C89.0178 8.79487 88.2951 8.73216 87.8238 8.54403C87.7609 8.48132 87.7609 8.41861 87.6981 8.41861C87.3524 7.69742 87.541 7.16438 87.7609 6.91353ZM88.0751 9.95504C88.0123 10.3 87.918 10.3 87.8238 10.3627C87.6981 10.4254 87.6352 10.2059 87.6352 9.95504C87.6352 9.89233 87.5724 9.82961 87.6352 9.7669C87.6352 9.7669 87.6352 9.70419 87.6352 9.64148C87.6981 9.64148 87.6981 9.57877 87.7609 9.57877C87.7609 9.51606 87.8238 9.57877 87.8238 9.57877C87.8866 9.57877 87.8866 9.57877 87.8866 9.57877C87.9495 9.57877 88.0123 9.57877 88.0123 9.64148C88.0751 9.73555 88.138 9.86097 88.0751 9.95504ZM87.2268 12.1186L87.6352 11.805L87.8238 11.5542L88.2951 11.272L88.735 10.7389L89.0178 10.2059C89.332 9.86097 89.4891 9.54741 89.8033 9.67284C89.8662 9.92368 89.8033 10.8644 89.7405 11.2093L89.552 11.805C89.4891 12.0559 89.3634 12.1499 89.1435 12.2754C88.955 12.4635 88.6093 12.5262 88.2322 12.6203C88.1066 12.683 87.9495 12.683 87.8238 12.7457C87.5096 12.8084 87.3524 12.8084 87.1639 12.8084C87.1011 12.8084 86.8183 12.4008 87.2268 12.1186ZM86.504 18.0135V17.4804L86.6297 16.4143C86.6926 16.1635 86.6926 16.0067 86.8811 15.8813L87.7295 16.477L87.7923 16.5397L88.5779 17.1982L89.3006 17.9194L90.2118 18.6719L89.0806 19.5185L88.1694 20.2397C88.0437 20.3024 87.8866 20.3652 87.7609 20.4279C87.1011 20.7414 86.7868 20.8355 86.3784 20.9609L86.2213 20.7101L86.504 18.0135ZM81.6651 15.1601L81.4766 15.4109L81.3509 15.5364L81.288 15.5991L81.1623 15.7245L81.0995 15.7872L81.0366 15.8499C80.9738 15.9126 80.911 15.944 80.8481 16.0381C80.6596 16.1008 80.3139 16.3203 80.1883 16.0381C80.1254 15.4423 80.1254 14.5957 80.1883 13.8432L80.2511 13.561L80.5025 13.3728H81.508L81.6965 13.4982L81.8222 13.6864C81.885 13.9999 81.885 14.7838 81.6651 15.1601ZM79.9683 10.8644L80.0312 10.6762L80.1568 10.3L80.2197 10.1745C80.2825 10.0491 80.3454 9.98639 80.4082 9.98639C80.4711 9.98639 80.6596 9.98639 81.0052 10.0491C81.2252 10.0491 81.4137 10.1745 81.7279 10.2372L81.8536 10.3313L81.9165 10.4567V10.7389L81.9793 10.9898V11.4601L81.9165 12.3067L81.8536 12.5576L81.7279 12.7457L81.5394 12.8084H81.288C81.288 12.8084 81.2252 12.8084 81.0366 12.8084C81.0366 12.8084 81.0367 12.8084 80.9738 12.8084C80.6282 12.8084 80.4396 12.8711 80.2511 12.5576L80.1883 12.3694L79.9997 11.4288V10.8644H79.9683Z" fill="#F9E700"/>
<path d="M26.4258 0.234863H0V26.6051H26.4258V0.234863Z" fill="#E50012"/>
<path d="M23.7855 9.95516C23.7855 9.17127 23.2513 8.57551 22.5286 8.57551H17.9724V7.82297C17.9096 7.76026 17.6582 7.41534 17.5639 7.28992V6.78823C17.5639 6.28654 17.3754 5.65942 17.2183 5.2518C17.0926 4.78146 16.9355 4.40519 16.7784 4.1857V3.24503L16.4328 2.99418C15.8043 2.52384 14.7674 2.17893 14.2018 2.02215L13.7619 1.89673L13.4477 2.273C12.9764 2.90011 12.4422 3.52723 11.8766 4.12299L11.7509 4.27977C10.9025 5.22044 10.1798 6.00433 9.64564 6.8823L9.58279 6.97636L9.17431 8.57551H4.11539C3.73833 8.57551 3.39269 8.73228 3.17274 9.04584C2.95278 9.32804 2.88994 9.73567 2.95278 10.1433V10.1747C2.98421 10.4255 3.32985 12.1187 3.86402 14.9094L3.89544 15.0034C3.98971 15.7246 4.68099 16.2263 5.24658 16.2263H7.41469V16.3831L10.2112 20.8983C10.3055 20.961 10.9968 21.3373 11.2796 21.4941C11.4367 21.9017 12.3165 23.9712 12.4108 24.2534H13.4163L13.4791 24.8805H15.5215V21.4941C15.6786 21.1805 17.6582 17.3865 18.2866 16.2577V16.2263H21.366C21.963 16.2263 22.6229 15.7246 22.7171 15.0348L22.7485 14.8467H22.78L23.754 10.0492L23.7855 9.95516ZM10.714 8.66957C10.7768 8.38737 10.8711 8.10517 10.9025 7.91704L10.9654 7.76026C11.4367 7.00772 12.0651 6.28653 12.8192 5.50264C13.3848 4.90688 13.8562 4.34248 14.2646 3.80943L14.2961 3.77807H14.3275C14.6417 3.87214 14.9559 3.99756 15.2701 4.15434H15.3016V4.62468L15.4273 4.84417C15.6158 5.15773 15.7415 5.47129 15.8043 5.72213L15.8357 5.8162L15.8672 5.91027C15.9928 6.22382 16.0871 6.60009 16.0871 6.75687V7.85432C16.15 7.91704 16.4013 8.26195 16.4956 8.41873V8.57551H16.4642C15.8672 8.57551 15.333 9.13991 15.0816 9.54753L15.0188 9.6416L13.9818 11.178H13.9504C13.7305 11.178 13.5105 11.178 13.322 11.1467C13.0706 11.1467 12.8507 11.1153 12.6936 11.1153H12.6621V11.084C12.4108 10.7077 11.8452 9.86109 11.6566 9.61025L11.5938 9.51618C11.4367 9.23398 11.1225 8.88906 10.7454 8.70093L10.714 8.66957ZM5.30942 14.5958L5.24658 14.3136C5.08947 13.4984 4.61814 10.9585 4.49245 10.2687V10.206H10.1484C10.2112 10.2374 10.3055 10.3314 10.3369 10.3941L10.3683 10.4569C10.3683 10.4569 10.9968 11.3975 11.3424 11.9306L11.3738 11.9619V11.9933C11.2481 12.2128 11.1225 12.4323 11.1225 12.4323C11.1225 12.4636 10.0227 14.3136 9.89701 14.5331V14.5645H9.86559H9.83417H5.30942V14.5958ZM14.0447 21.0865V22.5915H13.3534V22.5602C13.102 21.9644 12.4422 20.428 12.3793 20.2712C12.2536 20.2085 11.4367 19.7382 11.1853 19.6127H11.1539C10.9968 19.3619 9.70848 17.2924 9.14289 16.3204L9.11146 16.2577H9.7399C10.3683 16.2577 10.6826 15.9755 10.8397 15.7873L10.9339 15.6933L12.2851 13.3416C12.2851 13.3416 12.4422 13.0594 12.5993 12.8085V12.7772H12.6307C12.9449 12.7772 13.5105 12.8085 13.919 12.8085H13.9504L14.0133 12.9026L15.6158 15.6619L15.6786 15.7246C15.8672 15.9128 16.1185 16.1009 16.527 16.195H16.5899L14.0447 21.0865ZM22.2144 10.2687C22.0573 11.084 21.3974 14.345 21.3346 14.5331V14.5645H16.8727H16.8412H16.8098V14.5331C16.747 14.439 16.527 14.0314 16.2442 13.5611C15.8672 12.9026 15.3958 12.056 15.333 11.9933L15.3016 11.9619L15.333 11.9306C15.6786 11.3975 16.3071 10.4569 16.3071 10.4569L16.3385 10.4255C16.3699 10.3628 16.4642 10.2687 16.527 10.206H22.2458L22.2144 10.2687Z" fill="white"/>
</g>
<defs>
<clipPath id="clip0">
<rect width="200" height="27.5304" fill="white" transform="translate(0 0.234863)"/>
</clipPath>
</defs>
</svg>
