<?xml version="1.0" encoding="utf-8"?>
<!-- Generator: Adobe Illustrator 25.2.1, SVG Export Plug-In . SVG Version: 6.00 Build 0)  -->
<svg version="1.1" id="圖層_1" xmlns="http://www.w3.org/2000/svg" xmlns:xlink="http://www.w3.org/1999/xlink" x="0px" y="0px"
	 viewBox="0 0 393.3 84.1" style="enable-background:new 0 0 393.3 84.1;" xml:space="preserve">
<style type="text/css">
	.st0{fill:#F9E700;}
	.st1{fill:#E50012;}
	.st2{fill:#FFFFFF;}
</style>
<g>
	<path class="st0" d="M111.1,28.2c4.1-0.4,4.5-3.9,4.8-5.3c0.2-0.8,0-1,0.2-2.1c3-0.8,11.5-2.7,9.9-0.2c-0.4,0.6-1.3,0.6-2.2,1
		c-3,1.8-4.9,2.7-6.7,3.3c-1.1,1.3-0.7,2.5,1.1,3.7c2.6,0.8,3.5,0.8-2.2,4.3c-0.4,0.4-1.1,2,1.1,3c1.9,2.5-2.8,4.1-4.8,5.1
		c-1.3,0.8-5.2,2-5.2,2.7c1.1,2.8,3.9,3,5.8,2.6c0.4-0.2,1.1-0.4,2.4-1.2c1.1-1,2.4-1.4,3.5-2.2c1.3-1.2,2.1-1.8,3.4-2.5
		c0-0.4,4.3-2,6.1-2.9c0.4-0.6,0.8-1.2,1-2.1c0.1,0.2,0.1,0.3,0.2,0.5h0.9c1.9-0.2,3.5-0.8,4.5-4.1c-0.4-0.4-0.9-0.4-1.1-1
		c-0.2-1,0.9-2,1.7-2.5c0.4-0.2,0.6-0.4,1.3-0.4c0.9,0.6,1.1,2,0.6,3.4c-0.4,1-0.6,1.7-1.7,2.3c0,0.6,0.4,2.4,0.2,3.1l-3.7,1.2
		c-0.6,0.2-1.3,0.4-1.9,0.8c-3.9,1.2-8.2,3.1-9.5,4.3c0.2,2.3-2.4,18.6,0.8,20.8c0.5,1.4-4.1,4.3-4.7,5.1c-1.1,1.2-1.1,2.7-0.9,6.3
		c2.6,0,4.1-2.8,5.2-4.3c1.3-2,2.6-3.5,3.7-5.3c1.1-2.5,2.8-1.6,5.4-2.5c0.9-0.6,2.8-1,3.9-0.2c0.2,1.2-0.6,1.8-0.9,2.5
		c1.3,2.3,4.3,7,7.6,9.8c1.5,1.2,3,2,4.5,2c3.5-1.2,3.7-7.6,0.4-9c-1.1-0.8-2.8-2-3.9-3.3c-0.6-2.4,0.2,0.2,0.9-5.7
		c-1.1-5.5-0.4-17.4,0-18.4c0.6-2.2-2.6-5.3,0.8-6.3l6.9,0.2c1.3-0.2,3.7-1.6,3-1.4c1.3-2,0.5-2.6-0.4-4.3c-0.9-1-1.1-1.4-2-1.7
		c-1.3-0.8-3.4-1.4-6.5-0.8c-1.1,1.2-0.2,2.4,0.9,3.9c0.4-0.4-0.9,3.1-4.3,2.1c-0.7-3.1,0.2-4.3,0.4-5.8c0.2-1,2.2-2.9,2.4-2.8
		c1.5-2.9,7.8-3.5,10.8-2.3c2.8,0.6,4.3-1,4.3-2.8v-0.4c0-1.6-1.1-3.3-3.2-4.5c0.2-0.6-2.6-1.6-4.1-2c-0.7,0-1.8,0.2-2.4,0.2
		c-2.1,1.9-4.3,1.3-8.6,1.2h-2.6c0-1.4,0.4-0.2-0.4-2.6c-1.5-1.9-3-2.9-7.6-3.5c-0.2,0-0.2,0-0.2,0c-1.5-0.2-4.3,0.2-5,0.8
		c-0.9,1.6,0.5,6.3-0.4,6.3c0,1.2-6.5,1.4-8.2,1.4c0-0.8-0.4-1.4-0.4-2c-0.6-1.3-2.2-2.3-4.3-1.9l-1.7,3.3c-0.2,0-1.3,1.9-1.5,1.9
		v0.4c0,0-2.2,2.2-2.6,5.9C106.5,24.9,107,27.2,111.1,28.2z M136.1,56.3c-1.1,2-3.7,3.9-5.6,4.5c-0.2,0-0.2,0-0.2,0
		c-1.7,0.4-3.7,0-5-0.6c-0.4-1-0.9-3.7-0.9-4.9c0.2-2.3-1.3-8.8,0.4-10.8c1.1-1.2,3-1.8,5.6-2.7c1.1-0.4,2.2-0.8,3.5-1.6
		C138.9,40.1,135.9,54.6,136.1,56.3z M135.7,17.2c0.4-1,1.3-1,3.7-1.7c0.4,0,1.1-0.2,1.7-0.2c1.5-0.2,3.4,0,5,0
		c2.1,1.6-0.6,2.4-1.7,2.4c-1.1,0.2-2.2,0.8-3.3,1.6c-1.3,0.8-2.6,1.8-3.9,1.6C135.3,20.3,135.3,18.2,135.7,17.2z M126.4,21.9
		l1.5-0.2c0.6,0.2,1.3,0.6,1.9,1.2l-0.7,3.9c1.3,2.2-0.5,6.3,0.1,8.3c-1.8-1.3-5.7,1-5.5-1.1l1.1-1.3c0,0,0.4-0.4,0.9-1
		c0.2-0.5,0.6-1.3,0.6-1.3c0-0.4-0.4-1.2-0.4-1.8c-1.1-1.2-1.1-1-1.3-1.6c0.6-1,1.3-1.8,1.7-3.7L126.4,21.9L126.4,21.9z"/>
	<path class="st0" d="M130.5,53c-1.1,0.4-2.4,0.8-3,1.2c-1.7,0.6-3.7,1.8-1.5,2.1c1.5,1.3,3.2,1.6,4.5,1.3c1.5-0.2,2.8-1.3,3-2.1
		c0.6-1,0.9-2,0-2.9C132.9,52.4,131.6,52.8,130.5,53z"/>
	<path class="st0" d="M130.5,45.4h-1.7c-1.1,0.6-1.7,0.6-2.2,1.4c-0.2,0.8,1.5,2.9,3.9,3.1c1.1,0,2.4-0.4,3.7-1.6
		C134,46.4,132.4,45.6,130.5,45.4z"/>
</g>
<path class="st0" d="M175.4,30c1.8,1,1.8,1,6.7,0.4c1.7-0.6,3.9-3.1,3.9-2.5c0,4.1-1.7,16.2-1.1,22.3c0.2,0.8,0.7,2.5,1.3,3.3
	c0.6,1.2,1.5,1.6,1.9,2.1c1.1,3.7-2.8,4.5-4.1,4.7c-1.5,0-1.1-2.5-1.1-2.9c-0.4-3.1-2.2-5.7-3.9-5.5c-1.7,0.2-2.6,5.7-3,7.4
	c-0.4,1-0.9,2.2-0.4,3.2c1.7,2.1,3,1.9,5.6,3.9c4.1-1.4,13-4.3,19.5-4.3h0.2c3.4,0.6,4.3,1,5,0.6c2.8-1.9,2.8-1.9,3.7-3.5
	c0-2-0.9-2.3-2.2-3.7c-0.2-0.2-0.4-1.2-0.7-1.4c0.9-0.2,3.2-0.2,4.3,0c2.8,0.4,2.2,0.4,3.2,0.8c-0.2,3.3,0.4,3.5-1.3,8
	c-2.4,5.5-3.3,4.3-8.7,3.7c-0.2,1.2,0.5,6.7,5.2,8.2c7.3-1.8,10.2-2.9,14.9-8.6c3-4.5,3.7-5.7,4.4-11.2c0-4.1-2.8-5.3-5.4-6.1
	c-3.2-0.9-8.7-1.1-9.7-1.3c-2.2,0-4.5,0.4-6.9,0.6c-2.2,0.4-4.1,0.6-6,1c-0.2,0-0.5,0.2-0.7,0.2c-2.8,0.6-4.9,0.8-7.8,1.4
	c-0.1-2.3,0-4.7,0.1-7.1c0.6,1.2,1.7,2.2,2.5,2.4c1.9,0.8,3.7,0.2,5.8-0.8c1.1-0.4,2.4-1,3.6-1.4c3.7-1.4,5-1.6,5-2.9
	c-0.2-1.8-3.2-2.6-4.5-2.8c-1.5,0-2.8,0.4-4.1,1c-0.7,0.2-1.3,0.4-1.8,0.6c-4.1,1.4-5.4,2.5-6.5,3c0.2-2.7,0.4-5.5,0.6-8.4
	c1.3,0.8,0.8,1,2.7,1.9c2.2,0.2,3.4,0.4,5,0.2c0.6-0.2,1.3-0.4,1.9-0.6c1.5-0.6,4.3-2,4.7-3.6c0.2-1,1.5-1.7,1.1-2.9
	c-0.4-1.6-0.2-0.2-0.2-2.3c-0.2-2.4,8-8,6.9-11.7c-0.7-2-1.3-2.4-2.6-2.7c-2.6-1.2-3.7-0.6-5.8,0c-1.9,0.6-3.5,3.1-4.7,3.5
	c0.9-2.5,0.2-4.5-1.3-5.7c-1.8-1.4-4.6-1.7-7.8-0.6c-4.3,1.6-1.3,1.6-4.1,4.3c-3.9,3.9-11.5,8.8-13.4,12.9
	C174.4,29.4,173.7,29.2,175.4,30z M193.4,54.6c1,0.2,4.8-0.8,6.9-0.8c0.2,0.4,0.5,0.8,0.5,1.2c0,0.2,0,0.4,0,0.4
	c0,0.4-0.2,0.8-0.2,1.4c-0.2,0.8-1.7,0.6-3,0.6C194.2,58.1,193.1,58.1,193.4,54.6z M196,20.4c1.7-1,3.5-2.7,4.8-3.3
	c0.2-0.2,0.6-0.2,0.8-0.2c0.6,0.2,1.9,3.3,1.5,4.5c-0.6,0.4-1.5,0.4-2.4,0.6c-0.9,0-1.8,0.2-2.8,0.4c-1.5,0.6-2.8,1-3,0.8
	C193.8,22.3,194.4,21.4,196,20.4z M193.6,26.7c0.2-2.2,1.7-1.8,2.2-0.8c1.9,0.6,3.4,0.6,5,0.4c2.6-0.2,4.1-1,4.3-0.2
	c0.2,0.8-1.8,2.5-4.3,4.1c-2.2,1.2-5,2.1-7.6,2.1c0.1-1,0.1-2,0.2-3.1C193.4,28.8,193.1,27.6,193.6,26.7z"/>
<g>
	<path class="st0" d="M337.4,57.3h0.2c1.5-0.6,2.9-2.1,2.7-3.2c-0.2-0.9-1.3-2.7-2.7-3.4c-0.6-0.3-1.4-0.6-2.5-0.3
		c-0.2,0.5,0.4,1.3,0.6,2.8c0.2,1.3,0,0.6,0.2,1.9C336.1,56.2,335.7,57.5,337.4,57.3z"/>
	<path class="st0" d="M391.7,60.1c-1.1,1-2.5,1.9-3.4,2.6c-1,1.2-1.7,1.2-3.3,2.5c-4.8,1.7-8.2,2.3-10.7,0c-0.4-0.6,0.2-1.9,0-3.6
		c-0.2-2.5,0.2-5.5,0.2-7.8c0-2.9,0-3,0.2-3.8c0.6-0.2,1.3,0,1.9-0.7c0.6,0,0.8-1.4,1-2.5c0.6-1.5,1.7-3.6,2.3-4.5
		c2.9-2.9,4.6-6.3,2.3-6.8c-2.5-1.7-5.9-2.8-8.1-1.9c-0.8,0.2-1.9,0.8-3.4,1.3c-3.3,1.3-7.5,3.2-10.4,4c-1.5,0.8-2.5,0.4-2.9,1.3
		c0,1,0.4,2.5,0.6,3.4c0.4,2.8,1.5,5.5,1.5,8.3c-0.2,0.4-0.2,2.1,2.3,2.7c-1.4,2.8-3.3,5.5-6,8.3c-0.4,0.4-0.6,0.8-1,1
		c-0.6,0.8-1.9,1.9-2.5,2.5c1.2,0.2,2.3,0,3.5-0.6c4.2-1.7,8.2-6.4,11.5-11.1c0.6-0.8,2.1-2.3,2.7-2.3c0.2,3.8-1.2,11.4,0.4,14.6
		c0.2,0.2,0.2,0.4,0.4,0.6c2.3,3.8,6.3,5.9,11.7,5.5c4.6-0.4,6.1-1.1,8.1-3c1.9-1.7,3.1-3,2.5-6C392.9,62.6,393.1,61.5,391.7,60.1z
		 M372,46.3c-0.2,0.2-0.6,0.4-1.2,0.6c-0.8,0.4-1.9,0.6-2.9,1.1c-3.1,1.4-4.2,1.7-5,1.2c-0.4-1.5-0.8-3.8-1.1-6.1
		c0-0.7,0.2-0.6,0.2-0.7c0.4-0.2,1.7-0.8,2.3-1c3.1-1.2,5-2.1,6.5-2.7c2.7-1.3,2.7-1.7,4.6-1.9c0.2,0.8-0.4,4.5-1.2,7.2
		C373.3,45.2,373.1,45.4,372,46.3z"/>
	<path class="st0" d="M373.3,20.2c0.4-0.2,1-0.4,1.5-0.6c3.1-1.3,3.7-1.9,4.4-2.5c1.1-0.6-0.2-1.7-0.8-2.3c-1.4,0-2.5-0.4-4,0.4
		c-0.4,0-1,0.2-1.5,0.4c0.2-2.4,0.4-2.3-0.8-3.4c-0.4-0.2-0.8-0.6-1.2-0.8c-1.2-0.8-2.7-1.2-4-0.8c-1.5,0.4-0.4,2.1-0.4,3.8v2.8
		c-1,0.2-1.3,0.4-2.7,0.8c-1.5,0.4-1.7,0.4-1.7,0.6c-0.2,0.8,0.8,1.9,1.5,2.1c0.9,0.4,0.4,0.4,1.1,0.4c0.2,0.2,1.5,0.6,1.9,0.8
		c0.2,0.2,0.2,1.3,0.8,1.5c1.7-0.2,2.7-0.6,3.6-1.1c0.4-0.2,0.6-0.4,0.8-0.6c0.2,1.1-0.2,2.1-0.8,3c-0.4,0.6-0.8,1.1-1.2,1.7
		c-0.4,1-1.7,2.1-2.5,2.3c-0.2-1.1-0.4-1.9-0.9-2.4c-0.4-0.8-0.8-1.3-2.1-1.7c-4-1.4-2.3,2.3-2.5,4.1c-0.2,0.9-0.2,1.7-0.6,2.1
		c-1.9,0.9-3.1,1.1-5.2,1.9c-0.4,0-0.6,0.2-1,0.2c-0.8,1-0.4,2.1,1,3c0.6,0.4,1.5,0.7,2.5,0.9h0.2c6.7-2.8,9.4-4.4,12.3-5.3
		c2.7-0.9,5.6-1.5,12.1-2.1c1.7,0,6.9,1.3,7.5,0.2s1-0.7,0.6-2.1c-0.6-1.5-1.3-2.3-3.3-2.6c-1.5-0.4-1.5,0.4-3.6,0.4
		c-3.1,0.4-5.4,1-7.5,1.3c0.6-0.7,0.6-0.7,1-1.3c1.7-2.5,0.6-3,0-3.4c-1-0.8-3.1-1.3-4.2-1.7C373.5,20.2,373.5,20.2,373.3,20.2"/>
	<path class="st0" d="M370.8,40.8c-0.6,0.2-1.2,0.2-1.7,0.4c-1.5,0.2-3.2,0.4-4,0.9c-0.6,0.4,0,1.5,0.4,2.1c2.3,0.6-0.8,4.2,4.8,1.5
		c0.2,0,0.2,0,0.4-0.2c1-0.7,2.3-1.9,2.7-3C373.7,41,372.3,40.8,370.8,40.8z"/>
	<path class="st0" d="M342.6,29.9c1.5-2.4,2.4-3,3.8-5.6c0.4-0.6,1-1.3,1.2-1.7c1.3,0.2,0.8,0.2,3.1,1.2c1.3,0.6,2.3,1.1,4.4,1.1
		c0.2,0,0.4,0,0.6-0.2c1.1-0.2,1.3-0.9,1.5-2.5c0.2-1.7-0.2-2.7-1.5-3.2c-0.2,0-0.2,0-0.4-0.2c-2.1-0.4-5-0.2-6.9,0.2
		c-0.2-1.1-1.2-2.3-3.1-3.8c-2.7-0.4-3.6-0.7-4.6,1.9c-1.2,2.8-2.3,4.9-3.1,6.5c-1.9,4.2-2.5,5.5-4.2,9.6c-1.9,4-4,7.9-4.6,9.4
		c0.8-0.2,2.1-0.3,3.3-0.9c1-0.6,2.9-2.1,4.8-4.4c0.2-0.2,0.4-0.6,0.6-0.7c0.6-0.6,1-1.1,1.5-1.7c0.6,0.8,0.9,0,2.1,1.7
		c0.8,1.5,1.2,2.3-1.3,5.1c-0.6,0.7-1.5,0.6-2.1,2.1c-0.2,2.3,1.5,2.3,4.2,3.4c0.2,0,1.1,6,0,10.4c-1.5,0.6-2.9,1.1-4.4,1.7
		c-1.2,0.6-2.7,1-4.2,1.3c-2.1,0.6-2.3,2.1-1.7,3.2c1.9,2.5,3.8,3.4,5.4,2.8c0.2-0.2,0.4-0.2,0.4-0.2c4.6-1.7,8.6-4,12.3-5.9
		c3.4-1.5,5.5-2.8,5.1-4.3c-0.7-1.9-2.1-1.9-5.4-1.2c0-0.3,1.2-0.7,1.2-1.1c1.5-1.3,3.5-3,5-4.7c0.4-0.4,0.6-0.8,0.9-1.2
		c0.8-1.5,0.4-2.1-0.9-2.6c-0.2,0-0.4-0.2-0.4-0.2c-1.7-0.5-2.5,0.2-4,1.7c-0.8,0.9-1.9,1.3-2.5,1.7c-0.2-0.6,0.4-2.3,0.6-3
		c0.8-1.7,2.7-4,2.7-6c0-0.4,0-0.8-0.2-0.8v-0.2c-0.6-1.5-2.3-0.9-3.6-1.5c-0.6-0.6-0.6-1,0.6-2.1c2.7-1.5,4-2.7,3.1-4.3
		c-0.8-1.7-3.6-2.3-4.2-2.3c-2.1,0.2-2.3,0.4-5.2,1.3C342.7,29.9,342.6,29.9,342.6,29.9"/>
</g>
<path class="st0" d="M247.6,24.4l0.6,0.7l0.4,0.8l1.1,1.1l0.6,0.6l1.5,1.9c0.4,0.8,0.6,1.5,0.6,2.5c0,5.3,0.6,10.6,0,15.6l-0.4,1.7
	l-0.4,1.1v2.1l0.2,1l0.4,1l0.2,0.7l0.2,1.2l0.4,0.7l0.2,0.6l0.2,0.4l0.4,0.4l0.2,0.4l0.6,0.6l0.8,0.8l0.8,0.8l1,0.6h1.1l0.8-0.4
	l0.2-0.6l0.4-0.2c0.4,0.9,0.2,1.9,0.4,3l0.4,0.7l0.2,0.4c0.8,0.4,1,0.2,1.5-0.4l0.2-0.4c0.2-0.2,0.4-0.4,0.4-0.6
	c0.2-0.6,0.2-1.3,0.2-1.9c0.2-0.6,0-0.2,0.2-0.9c0.2-2.5,0-3.4,0-4.9v-4.4l0.6-1l0.4-0.6l0.4-0.7l0.4-0.6l0.4-0.7l0.4-0.8l0.2-0.6
	l0.4-0.8l0.6-1.1v-1.1l0.2-1.7l0.2-1.7l0.2-1.3l0.4-1.7l0.2-1.3l0.4-1.5l0.4-1.4l0.2-1.1l0.4-1.1l0.6-1.3l0.8-1.1l1.3-1.2v6.9
	l-0.2,6.1l-0.4,3.4l-0.4,7.4l-0.2,4.5l-0.8,5.3l-0.8,6.3c0,0.7,0.4,2.3,0.6,3c0.4,0.8,1.7,2.5,2.7,2.7c1.2,0.2,1.7,0,2.9-0.8
	c1.2-0.8,2.3-1.3,3.1-1.9c1.1-0.7,2.3-1.5,4-2.6l3.8-3l2.9-2.9l2.3,1.7c2.3,1.9,4,3.2,6.5,4.2c2.7,0.7,4.4,0.7,6.7,0.4
	c0.4-0.2,2.3-0.4,2.9-0.7l1.5-0.8c0.8-0.4,1.4-0.9,2.3-1.7l-1.1-1.3l-2.1-0.8l-6.6-3.6l-1.3-0.7l-1.7-0.8l-1.9-1.1l-1.3-0.8l-1-0.5
	l-1.3-1l-0.8-0.7l-1-1.3l1-0.2c4-1.7,5.9-3,7.8-5.5l0.4-0.6l0.4-0.5l0.2-0.6c0.2-0.9,0.2-1.5,0.2-2.5c-0.4-0.9-0.8-1.7-1.7-1.9
	c-1.2-0.6-2.3-0.9-4.6,0.2c-1.7,1.9-3.2,3.6-5.3,5.5l-1.5,1.1l-0.4,0.2c-0.8,0.8-1.9,0.9-2.9,0.8l-0.6-0.2l-0.6-0.2l-0.6-0.4
	l-0.4-0.4l-0.6-0.4c-0.6-0.8-1-1.7-0.6-2.5l0.2-0.2l0.4-0.2l0.6-0.2l0.4-0.2l0.4-0.2l0.6-0.3l0.4-0.2l0.4-0.4l0.4-0.4l0.4-0.4
	l0.6-0.2l0.4-0.4l0.2-0.4l0.4-0.6l0.6-0.2l0.4-0.8l0.4-0.6l0.2-0.6l0.2-0.6l0.4-0.6l0.2-1.3l0.2-1.3l0.2-1.3l0.2-2.7l0.4-1.1
	l0.4-1.5l0.4-1l2.1-3l0.4-0.5l1.4-1.9l1.1-1.1l0.6-0.6l0.7-1l0.8-1.3c0-0.7,0-1.1-0.4-1.7c-0.6-0.5-1.5-1.3-2.1-1.9
	c-0.2-0.2-0.4-0.4-0.6-0.6c-0.6-0.4-1.4-0.9-2.1-1.3c-0.6-0.2-1.1-0.4-1.5-0.5c-1.2-0.4-2.3-0.4-3.6-0.4c-0.4,0.2-1,0.2-1.7,0.4
	l-1.1,0.4l-1.3,0.4l-1.1,0.6L283,12l-0.6,0.4l-0.6,0.4l-0.8,0.4l-1,0.8l-0.4-0.2l-0.4-0.6H279l-0.2-0.6l-0.8-0.4l-2.3-0.2l-2.7,0.8
	l-0.9,1.3l0.9,1.3v7.4l-0.4,1.3l-0.8,0.9l-0.4,0.4l-0.4,0.4l-0.4,0.4l-0.8,0.7l-0.4,0.4l-0.4,0.4l-0.4,0.6l-0.5,0.6l-0.4,0.8
	l-0.4,0.8l-0.4,1.1l-0.4,0.9l-0.2,0.9l-0.2,1.1l-0.4,1l-0.2,0.8l-0.2,0.8l-0.6,1.1l-0.2,0.6l-0.2,0.6l-0.4,0.2l-0.4,0.4v-6.3
	l0.2-1.9l0.6-1.9l0.4-0.9l0.4-0.8l0.2-0.4l0.6-0.4l0.4-0.5l0.6-0.4l0.4-0.4l0.4-0.4l0.4-0.4l0.4-0.4l0.4-0.4l0.2-0.2l0.4-0.4
	l0.4-0.2l0.2-0.4l0.4-0.4l0.4-0.4l0.6-0.6v-0.4c0.4-2.3,0.2-1.9-0.4-3.6l-0.6-0.6l-0.8-0.8l-0.6-0.5l-2.1-1.4
	c-0.6-0.2-1.5-0.4-2.1-0.5c-1.3,0-2.3,0.2-3.6,0.5c-1.3,0.6-2.3,1.2-3.4,1.9c0,0.2-0.2,0.4-0.2,0.4v2.3l0.2,0.8l0.4,0.8l0.8,0.6
	l0.6,0.6l0.8,0.6l1.3,0.8c0.6,1.1,0.6,2.9,0,3.8c-0.8,1.7-2.1,1.7-2.9,1c-0.2-0.7,0-2.7-0.4-3.6l-0.4-0.6l-0.2-0.5l-0.6-0.4
	l-1.1-0.6l-1-0.6l-0.6-0.2l-0.4-0.2l-0.6-0.2l-0.4-0.2l-0.6-0.2l-0.6-0.2l-0.8-0.2h-3.4l-1,0.6c0,0.9,0.2,1.9,0.6,2.6L247.6,24.4z
	 M279.3,21.3c0-0.2,0.2-0.4,0.2-0.6c0.6-0.6,1.9-1.7,2.5-2.5c1.1-0.7,0.9-1.7,2.1-1.7c1.5,0.4,1.9,5.1,1.9,8.5
	c-0.2,0.2,0,1.2-0.2,2.1c-2.5,0.2-4.8,0-6.3-0.6c-0.2-0.2-0.2-0.4-0.4-0.4C278,23.8,278.6,22.1,279.3,21.3z M280.3,31
	c-0.2,1.1-0.5,1.1-0.8,1.3c-0.4,0.2-0.6-0.5-0.6-1.3c0-0.2-0.2-0.4,0-0.6c0,0,0-0.2,0-0.4c0.2,0,0.2-0.2,0.4-0.2c0-0.2,0.2,0,0.2,0
	c0.2,0,0.2,0,0.2,0c0.2,0,0.4,0,0.4,0.2C280.3,30.3,280.5,30.7,280.3,31z M277.6,37.9l1.3-1l0.6-0.8l1.5-0.9l1.4-1.7l0.9-1.7
	c1-1.1,1.5-2.1,2.5-1.7c0.2,0.8,0,3.8-0.2,4.9l-0.6,1.9c-0.2,0.8-0.6,1.1-1.3,1.5c-0.6,0.6-1.7,0.8-2.9,1.1
	c-0.4,0.2-0.9,0.2-1.3,0.4c-1,0.2-1.5,0.2-2.1,0.2C277.2,40.1,276.3,38.8,277.6,37.9z M275.3,56.7V55l0.4-3.4
	c0.2-0.8,0.2-1.3,0.8-1.7l2.7,1.9l0.2,0.2l2.5,2.1l2.3,2.3l2.9,2.4l-3.6,2.7l-2.9,2.3c-0.4,0.2-0.9,0.4-1.3,0.6
	c-2.1,1-3.1,1.3-4.4,1.7l-0.5-0.8L275.3,56.7z M259.9,47.6l-0.6,0.8l-0.4,0.4l-0.2,0.2l-0.4,0.4l-0.2,0.2l-0.2,0.2
	c-0.2,0.2-0.4,0.3-0.6,0.6c-0.6,0.2-1.7,0.9-2.1,0c-0.2-1.9-0.2-4.6,0-7l0.2-0.9l0.8-0.6h3.2l0.6,0.4l0.4,0.6
	C260.6,43.9,260.6,46.4,259.9,47.6z M254.5,33.9l0.2-0.6l0.4-1.2l0.2-0.4c0.2-0.4,0.4-0.6,0.6-0.6s0.8,0,1.9,0.2
	c0.7,0,1.3,0.4,2.3,0.6l0.4,0.3l0.2,0.4v0.9l0.2,0.8v1.5l-0.2,2.7l-0.2,0.8l-0.4,0.6l-0.6,0.2h-0.8c0,0-0.2,0-0.8,0c0,0,0,0-0.2,0
	c-1.1,0-1.7,0.2-2.3-0.8l-0.2-0.6l-0.6-3v-1.8H254.5z"/>
<rect class="st1" width="84.1" height="84.1"/>
<path class="st2" d="M75.7,31c0-2.5-1.7-4.4-4-4.4H57.2v-2.4c-0.2-0.2-1-1.3-1.3-1.7l0,0v-1.6c0-1.6-0.6-3.6-1.1-4.9
	c-0.4-1.5-0.9-2.7-1.4-3.4l0,0v-3l-1.1-0.8c-2-1.5-5.3-2.6-7.1-3.1l-1.4-0.4l-1,1.2c-1.5,2-3.2,4-5,5.9l-0.4,0.5
	c-2.7,3-5,5.5-6.7,8.3l-0.2,0.3l-1.3,5.1H13.1c-1.2,0-2.3,0.5-3,1.5c-0.7,0.9-0.9,2.2-0.7,3.5v0.1l0,0c0.1,0.8,1.2,6.2,2.9,15.1
	l0.1,0.3c0.3,2.3,2.5,3.9,4.3,3.9h6.9v0.5l8.9,14.4c0.3,0.2,2.5,1.4,3.4,1.9l0,0l0,0c0.5,1.3,3.3,7.9,3.6,8.8h3.2l0.2,2h6.5V67.8
	c0.5-1,6.8-13.1,8.8-16.7V51H68c1.9,0,4-1.6,4.3-3.8l0,0l0.1-0.6h0.1l3.1-15.3L75.7,31z M34.1,26.9c0.2-0.9,0.5-1.8,0.6-2.4l0.2-0.5
	c1.5-2.4,3.5-4.7,5.9-7.2c1.8-1.9,3.3-3.7,4.6-5.4l0.1-0.1h0.1c1,0.3,2,0.7,3,1.2h0.1V14l0.4,0.7c0.6,1,1,2,1.2,2.8l0.1,0.3l0.1,0.3
	c0.4,1,0.7,2.2,0.7,2.7v3.5c0.2,0.2,1,1.3,1.3,1.8l0,0v0.5h-0.1c-1.9,0-3.6,1.8-4.4,3.1l0,0L47.8,30l0,0l-3.3,4.9h-0.1
	c-0.7,0-1.4,0-2-0.1c-0.8,0-1.5-0.1-2-0.1h-0.1v-0.1c-0.8-1.2-2.6-3.9-3.2-4.7l0,0l-0.2-0.3l0,0c-0.5-0.9-1.5-2-2.7-2.6L34.1,26.9
	L34.1,26.9z M16.9,45.8l-0.2-0.9c-0.5-2.6-2-10.7-2.4-12.9v-0.2h18l0,0c0.2,0.1,0.5,0.4,0.6,0.6l0.1,0.2c0,0,2,3,3.1,4.7l0.1,0.1
	v0.1c-0.4,0.7-0.8,1.4-0.8,1.4c0,0.1-3.5,6-3.9,6.7v0.1h-0.1h-0.1l0,0H16.9V45.8z M44.7,66.5v4.8h-2.2v-0.1
	c-0.8-1.9-2.9-6.8-3.1-7.3c-0.4-0.2-3-1.7-3.8-2.1h-0.1c-0.5-0.8-4.6-7.4-6.4-10.5L29,51.1h2c2,0,3-0.9,3.5-1.5l0.3-0.3l4.3-7.5
	c0,0,0.5-0.9,1-1.7V40h0.1c1,0,2.8,0.1,4.1,0.1h0.1l0.2,0.3l5.1,8.8l0.2,0.2c0.6,0.6,1.4,1.2,2.7,1.5h0.2L44.7,66.5z M70.7,32
	c-0.5,2.6-2.6,13-2.8,13.6v0.1H53.7h-0.1h-0.1v-0.1c-0.2-0.3-0.9-1.6-1.8-3.1c-1.2-2.1-2.7-4.8-2.9-5l-0.1-0.1l0.1-0.1
	c1.1-1.7,3.1-4.7,3.1-4.7l0.1-0.1c0.1-0.2,0.4-0.5,0.6-0.7l0,0h18.2L70.7,32z"/>
</svg>
