<?xml version="1.0" encoding="utf-8"?>
<!-- Generator: Adobe Illustrator 25.0.1, SVG Export Plug-In . SVG Version: 6.00 Build 0)  -->
<svg version="1.1" id="圖層_1" xmlns="http://www.w3.org/2000/svg" xmlns:xlink="http://www.w3.org/1999/xlink" x="0px" y="0px"
	 viewBox="0 0 20 20" style="enable-background:new 0 0 20 20;" xml:space="preserve">
<style type="text/css">
	.st0{fill:#FF614C;}
</style>
<g>
	<path class="st0" d="M2.9,2.9C-1,6.8-1,13.2,2.9,17.1c3.9,3.9,10.2,3.9,14.1,0s3.9-10.2,0-14.1C13.2-1,6.8-1,2.9,2.9z M14.9,6.7
		c0.2,0.2,0.2,0.5,0,0.7L12.3,10l2.6,2.6c0.2,0.2,0.2,0.5,0,0.7l-1.6,1.6c-0.2,0.2-0.5,0.2-0.7,0L10,12.3l-2.6,2.6
		c-0.2,0.2-0.5,0.2-0.7,0l-1.6-1.6c-0.2-0.2-0.2-0.5,0-0.7L7.7,10L5.1,7.4c-0.2-0.2-0.2-0.5,0-0.7l1.6-1.6c0.2-0.2,0.5-0.2,0.7,0
		L10,7.7l2.6-2.6c0.2-0.2,0.5-0.2,0.7,0L14.9,6.7z"/>
</g>
</svg>
