<svg width="41" height="41" viewBox="0 0 41 41" fill="none" xmlns="http://www.w3.org/2000/svg">
<path d="M37.4757 10.3619L34.0873 5.55385C33.6521 4.24135 32.4266 3.35742 31.0405 3.35742H9.9601C8.57394 3.35742 7.34849 4.24135 6.91323 5.55385L3.52483 10.3619C3.41769 10.69 3.35742 11.0315 3.35742 11.3797V33.7592C3.35742 35.5338 4.79715 36.9735 6.57171 36.9735H34.4288C36.2034 36.9735 37.6431 35.5338 37.6431 33.7592V11.3797C37.6431 11.0315 37.5896 10.69 37.4757 10.3619ZM34.2547 10.8574H22.1074V6.57171H31.0405L34.2547 10.8574ZM9.9601 6.57171H18.8931V10.8574H6.74581L9.9601 6.57171ZM6.57171 33.7592V14.0717H34.4288V33.7592H6.57171Z" fill="#006DC9"/>
<path fill-rule="evenodd" clip-rule="evenodd" d="M30.37 19.9254H24.5307V18.5928L22.9771 14.7021H20.8276L17.245 18.2847L16.4548 19.8651V19.9254H10.6289L11.6133 26.6955H15.7985V26.7892L17.9146 30.3182L19.2003 31.6039L20.0106 33.2245H22.5753V30.1575L23.7405 28.9923L24.5307 27.412V26.6955H29.3789L30.37 19.9254ZM18.5173 19.1955L21.4637 16.249H21.9258L22.9838 18.8874V19.9254H22.207L20.4994 22.4298L18.7919 19.9187H18.1557L18.5173 19.1955ZM12.4235 21.4722H17.9749L19.0128 22.9923L17.9146 25.1486H12.966L12.4235 21.4722ZM22.9838 27.0437L22.4682 28.0749L21.0218 29.5213V31.6776H20.9682L20.4727 30.6865L19.1468 29.3606L17.553 26.6955H18.8588L20.4994 23.4745L22.1401 26.6955H22.9771V27.0437H22.9838ZM28.0396 25.1486H23.091L21.9927 22.9923L23.0307 21.4722H28.582L28.0396 25.1486Z" fill="#EF3D3B"/>
</svg>
