<?xml version="1.0" encoding="utf-8"?>
<!-- Generator: Adobe Illustrator 25.2.1, SVG Export Plug-In . SVG Version: 6.00 Build 0)  -->
<svg version="1.1" id="圖層_1" xmlns="http://www.w3.org/2000/svg" xmlns:xlink="http://www.w3.org/1999/xlink" x="0px" y="0px"
	 viewBox="0 0 160 160" style="enable-background:new 0 0 160 160;" xml:space="preserve">
<style type="text/css">
	.st0{fill:#FFFFFF;}
</style>
<g>
	<path class="st0" d="M80.1,118.5c-21.1,0-38.3-17.2-38.3-38.3S59,41.9,80.1,41.9s38.3,17.2,38.3,38.3
		C118.4,101.3,101.2,118.5,80.1,118.5z M80.1,45.9c-18.9,0-34.3,15.4-34.3,34.3s15.4,34.3,34.3,34.3s34.3-15.4,34.3-34.3
		S99,45.9,80.1,45.9z"/>
	<path class="st0" d="M79.9,91c-1.1,0-2-0.9-2-2v-6c0-1.1,0.9-2,2-2c5.7,0,10.3-4.6,10.3-10.3c0-5.7-4.6-10.3-10.3-10.3
		S69.6,65,69.6,70.7c0,1.1-0.9,2-2,2s-2-0.9-2-2c0-7.9,6.4-14.3,14.3-14.3s14.3,6.4,14.3,14.3c0,7.2-5.4,13.2-12.3,14.2V89
		C81.9,90.1,81,91,79.9,91z"/>
	<circle class="st0" cx="79.3" cy="98.9" r="3.1"/>
</g>
</svg>
