<?xml version="1.0" encoding="utf-8"?>
<!-- Generator: Adobe Illustrator 25.0.1, SVG Export Plug-In . SVG Version: 6.00 Build 0)  -->
<svg version="1.1" id="圖層_1" xmlns="http://www.w3.org/2000/svg" xmlns:xlink="http://www.w3.org/1999/xlink" x="0px" y="0px"
	 viewBox="0 0 20 20" style="enable-background:new 0 0 20 20;" xml:space="preserve">
<style type="text/css">
	.st0{fill:#424242;}
</style>
<g>
	<path class="st0" d="M11.2,3.9c0,0,0.1-0.1,0.1-0.1c0,0,0.1,0,0.2,0h3.2c0.1,0,0.1,0,0.1,0c0,0,0.1,0.1,0.1,0.1
		c0,0,0.1,0.1,0.1,0.1c0,0,0,0.1,0,0.1l-0.2,1.6c0,0.1-0.1,0.1-0.1,0.2C14.5,6,14.4,6,14.4,6h-2.8c-0.1,0-0.1,0-0.2,0
		c-0.1,0-0.1-0.1-0.1-0.1l-0.5-1c0-0.1,0-0.1,0-0.2c0-0.1,0-0.1,0.1-0.2L11.2,3.9z M11.2,3c-0.1,0-0.2,0-0.3,0.1
		c-0.1,0-0.2,0.1-0.2,0.2L10,4.3C9.9,4.4,9.9,4.5,9.9,4.6c0,0.1,0,0.2,0.1,0.3l0.8,1.5c0.1,0.1,0.1,0.2,0.2,0.2
		c0.1,0.1,0.2,0.1,0.3,0.1h3.5c0.1,0,0.3-0.1,0.4-0.1c0.1-0.1,0.2-0.2,0.2-0.4l0.4-2.5c0-0.1,0-0.2,0-0.3c0-0.1-0.1-0.2-0.1-0.2
		c-0.1-0.1-0.1-0.1-0.2-0.2C15.3,3,15.2,3,15.1,3H11.2z"/>
	<path class="st0" d="M8.7,4.5c0,0.1,0.1,0.1,0.1,0.2c0,0.1,0,0.1,0,0.2l-0.5,1c0,0.1-0.1,0.1-0.1,0.1C8,6,8,6,7.9,6H5.1
		C5,6,4.9,6,4.9,5.9C4.8,5.9,4.7,5.8,4.7,5.7L4.5,4.1c0-0.1,0-0.1,0-0.1c0,0,0-0.1,0.1-0.1c0,0,0.1-0.1,0.1-0.1c0,0,0.1,0,0.1,0H8
		c0.1,0,0.1,0,0.2,0c0.1,0,0.1,0.1,0.1,0.1L8.7,4.5z M4.3,3C4.2,3,4.1,3,4.1,3C4,3.1,3.9,3.1,3.9,3.2C3.8,3.3,3.8,3.3,3.7,3.4
		c0,0.1,0,0.2,0,0.3l0.4,2.5c0,0.1,0.1,0.3,0.2,0.4c0.1,0.1,0.2,0.1,0.4,0.1h3.5c0.1,0,0.2,0,0.3-0.1c0.1-0.1,0.2-0.1,0.2-0.2
		l0.8-1.5c0-0.1,0.1-0.2,0.1-0.3c0-0.1,0-0.2-0.1-0.3L8.7,3.2C8.7,3.2,8.6,3.1,8.5,3.1C8.4,3,8.3,3,8.2,3H4.3z"/>
	<path class="st0" d="M9.2,4.9V4.4h1.1v0.5H9.2z"/>
	<path class="st0" d="M13.3,3.4c-0.2-0.7-0.7-1.3-1.3-1.8c-0.6-0.4-1.4-0.7-2.1-0.7c-0.7,0-1.4,0.2-1.9,0.6C7.3,1.9,6.9,2.4,6.6,3
		C6.5,3.1,6.5,3.3,6.4,3.4L5.6,3.1c0-0.2,0.1-0.3,0.2-0.4c0.4-0.8,0.9-1.5,1.7-1.9C8.1,0.2,9,0,9.9,0c1,0,1.9,0.3,2.7,0.9
		c0.8,0.6,1.4,1.3,1.7,2.3L13.3,3.4z"/>
	<path class="st0" d="M9.9,9.3C9,9.3,8.2,9.1,7.5,8.7c-0.7-0.4-1.3-1-1.7-1.8l0-0.1L5.7,6.5l0.9-0.2l0.1,0.3C7,7.1,7.5,7.6,8,7.9
		c0.6,0.3,1.2,0.5,1.8,0.5c0.6,0,1.3-0.2,1.8-0.5c0.6-0.3,1-0.8,1.3-1.4l0.1-0.2L14,6.7L13.8,7c-0.4,0.7-1,1.3-1.7,1.7
		C11.5,9.1,10.7,9.3,9.9,9.3z"/>
	<path class="st0" d="M3.8,20c0,0,0-3.4,0-4.7v-0.5c0-2.8,2.8-5,6.3-5c3.5,0,6.2,2.2,6.2,5V20h-0.9v-5.2c0-2.3-2.3-4-5.2-4
		c-2.9,0-5.3,1.8-5.3,4.1h0c0,0.1,0,0.1,0,0.2v5H3.8z"/>
</g>
</svg>
