<svg width="41" height="41" viewBox="0 0 41 41" fill="none" xmlns="http://www.w3.org/2000/svg">
<g clip-path="url(#clip0_4062_59029)">
<path d="M34.25 6H30.5V1.9375C30.5 1.68886 30.4012 1.4504 30.2254 1.27459C30.0496 1.09877 29.8111 1 29.5625 1H28.9375C28.6895 1.00204 28.4522 1.10147 28.2768 1.27684C28.1015 1.45222 28.002 1.68949 28 1.9375V6H13V1.9375C13 1.68886 12.9012 1.4504 12.7254 1.27459C12.5496 1.09877 12.3111 1 12.0625 1H11.4375C11.1895 1.00204 10.9522 1.10147 10.7768 1.27684C10.6015 1.45222 10.502 1.68949 10.5 1.9375V6H6.75C5.75607 6.00206 4.80344 6.39781 4.10063 7.10063C3.39781 7.80344 3.00206 8.75607 3 9.75V37.25C3.00206 38.2439 3.39781 39.1965 4.10063 39.8994C4.80344 40.6022 5.75607 40.9979 6.75 41H34.25C34.7427 41.001 35.2308 40.9047 35.6863 40.7166C36.1417 40.5285 36.5555 40.2524 36.9039 39.9039C37.2524 39.5555 37.5285 39.1417 37.7166 38.6863C37.9047 38.2308 38.001 37.7427 38 37.25V9.75C38.001 9.25725 37.9047 8.76915 37.7166 8.31372C37.5285 7.85828 37.2524 7.44448 36.9039 7.09605C36.5555 6.74763 36.1417 6.47144 35.6863 6.28335C35.2308 6.09526 34.7427 5.99897 34.25 6V6ZM35.5 16V37.25C35.5 37.5815 35.3683 37.8995 35.1339 38.1339C34.8995 38.3683 34.5815 38.5 34.25 38.5H6.75C6.41911 38.4979 6.10236 38.3656 5.86838 38.1316C5.6344 37.8976 5.50205 37.5809 5.5 37.25V9.75C5.50205 9.41911 5.6344 9.10236 5.86838 8.86838C6.10236 8.6344 6.41911 8.50205 6.75 8.5H34.25C34.5815 8.5 34.8995 8.63169 35.1339 8.86612C35.3683 9.10054 35.5 9.41848 35.5 9.75V16Z" fill="#006DC9"/>
<path d="M15.8047 36.4687H12.8047V17.3281C12.0781 18.0156 11.1328 18.7031 9.95313 19.3906C8.77344 20.0781 7.72656 20.6016 6.79688 20.9453V18.0391C8.47917 17.2474 9.94531 16.2917 11.1953 15.1719C12.4531 14.0469 13.3437 12.9609 13.8672 11.8984H15.8047V36.4687Z" fill="#E50012"/>
<path d="M18.375 15.2031V12.3203H34.2187V14.6563C32.6562 16.3125 31.112 18.5156 29.5859 21.2656C28.0825 23.9458 26.8923 26.79 26.0391 29.7422C25.4401 31.7891 25.0547 34.0312 24.8828 36.4687H21.7969C21.8281 34.5391 22.2109 32.2187 22.9297 29.4922C23.663 26.7512 24.7089 24.1036 26.0469 21.6016C27.3984 19.0781 28.8359 16.9375 30.3594 15.2031H18.375Z" fill="#E50012"/>
</g>
<defs>
<clipPath id="clip0_4062_59029">
<rect width="40" height="40" fill="white" transform="translate(0.214844 0.5)"/>
</clipPath>
</defs>
</svg>
