<?xml version="1.0" encoding="utf-8"?>
<!-- Generator: Adobe Illustrator 25.0.1, SVG Export Plug-In . SVG Version: 6.00 Build 0)  -->
<svg version="1.1" id="圖層_1" xmlns="http://www.w3.org/2000/svg" xmlns:xlink="http://www.w3.org/1999/xlink" x="0px" y="0px"
	 viewBox="0 0 65 65" style="enable-background:new 0 0 65 65;" xml:space="preserve">
<style type="text/css">
	.st0{fill:#424242;}
</style>
<g>
	<path class="st0" d="M51.7,11.2H13.3C6,11.2,0,17.1,0,24.4v16.1c0,7.3,6,13.3,13.3,13.3h38.4c7.3,0,13.3-6,13.3-13.3V24.4
		C65,17.1,59,11.2,51.7,11.2z M61.7,40.6c0,5.5-4.5,10-10,10H13.3c-5.5,0-10-4.5-10-10V24.4c0-5.5,4.5-10,10-10h38.4
		c5.5,0,10,4.5,10,10V40.6z"/>
	<path class="st0" d="M26.6,25.1c0,0-0.4-0.5-0.6-0.7c0-0.2,0-0.6,0-0.6c0-0.7-0.2-1.4-0.5-1.9c-0.2-0.5-0.3-1-0.6-1.3
		c0-0.2,0-1.2,0-1.2l-0.5-0.3c-0.9-0.6-2.3-1.1-3.1-1.2l-0.7-0.2l-0.4,0.5c-0.7,0.8-1.6,1.7-2.3,2.5c-1.1,1.1-2.2,2.2-2.9,3.2
		l-0.1,0.2l-0.6,2h-7c-0.5,0-1,0.2-1.3,0.6c-0.3,0.4-0.4,0.9-0.3,1.4l1.2,6.1c0.2,0.9,1.1,1.6,1.9,1.6h2.9V36l3.9,5.6
		c0,0,1.1,0.6,1.5,0.7c0.2,0.6,1.6,3.5,1.6,3.5s0.5,0,0.7,0c0,0.2,0.1,0.8,0.1,0.8h3.7v-4.2c0.2-0.4,3-5.1,3.8-6.6h4.2
		c0.9,0,2-0.7,2-1.8v0.2l1.4-6.2v-1.9h-8.1L26.6,25.1L26.6,25.1z M16.9,25c0.7-0.9,1.6-1.8,2.6-2.8c0.7-0.7,1.3-1.4,2-2.2
		c0.4,0.1,0.9,0.3,1.3,0.5c0,0.1,0,0.6,0,0.6l0.2,0.2c0.2,0.4,0.4,0.7,0.5,1.1v0.2l0.1,0.1c0.2,0.4,0.3,0.8,0.3,1.1v1.4
		c0,0,0.4,0.5,0.6,0.7V26c-0.8,0-1.6,0.7-1.9,1.2l-1.5,2c-0.6,0-1.4,0-1.7-0.1c-0.4-0.6-1.5-2-1.5-2l0.1,0.1
		c-0.2-0.4-0.7-0.9-1.2-1.2C16.6,25.7,16.8,25.2,16.9,25z M9,33.6c0-0.3-0.9-4.4-1-5.4h7.7c0.1,0.1,0.2,0.2,0.2,0.2v0.1
		c0,0,0.9,1.2,1.4,1.8c-0.2,0.2-0.3,0.6-0.3,0.6s-1.5,2.4-1.7,2.7h-0.1C15.3,33.6,9.3,33.6,9,33.6z M21,41.7c0,0,0,1.1,0,1.8h-0.8
		c-0.4-0.8-1.3-2.9-1.3-2.9s-1.3-0.7-1.7-0.8c-0.2-0.3-2-2.9-2.8-4.2h0.7c0.9,0,1.3-0.4,1.6-0.6l0.1-0.1l0.1-0.2l1.8-2.8
		c0,0,0.2-0.3,0.4-0.7c0.4,0,1.2,0,1.8,0.1l0.1,0.1l2.2,3.5l0.1,0.1c0.2,0.2,0.6,0.5,1.2,0.6L21,41.7z M32.3,28.2
		c-0.2,1-1.2,5.1-1.2,5.4c-0.3,0-6.1,0-6.1,0s0,0-0.1,0c-0.2-0.2-2.1-3.2-2.1-3.2c0.5-0.7,1.3-1.8,1.3-1.8v-0.1
		c0.1-0.1,0.2-0.2,0.2-0.2L32.3,28.2L32.3,28.2z"/>
	<path class="st0" d="M57.7,21.8H38.6v14.1h19.1C57.7,35.9,57.7,21.8,57.7,21.8z M55.2,33.4H41.1v-9.1h14.1
		C55.2,24.3,55.2,33.4,55.2,33.4z"/>
	<path class="st0" d="M41.8,38h-3.2v2.5h3.2V38z"/>
	<path class="st0" d="M46,41.6h-7.5v2.5H46V41.6z"/>
	<path class="st0" d="M51.8,41.6h-3.9v2.5h3.9V41.6z"/>
	<path class="st0" d="M57.7,41.6h-4v2.5h4V41.6z"/>
	<path class="st0" d="M57.7,38H43.3v2.5h14.4C57.7,40.5,57.7,38,57.7,38z"/>
</g>
</svg>
