<?xml version="1.0" encoding="utf-8"?>
<!-- Generator: Adobe Illustrator 25.2.1, SVG Export Plug-In . SVG Version: 6.00 Build 0)  -->
<svg version="1.1" id="圖層_1" xmlns="http://www.w3.org/2000/svg" xmlns:xlink="http://www.w3.org/1999/xlink" x="0px" y="0px"
	 viewBox="0 0 160 160" style="enable-background:new 0 0 160 160;" xml:space="preserve">
<style type="text/css">
	.st0{fill:#FFFFFF;}
</style>
<g>
	<path class="st0" d="M72.6,91.3H57c-1,0-1.8-0.7-2-1.7l-2.2-15.3c-0.1-0.6,0.1-1.2,0.5-1.6s0.9-0.7,1.5-0.7h18
		c0.6,0,1.2,0.3,1.6,0.8l5,6.5c0.5,0.6,0.6,1.5,0.1,2.2l-5.2,8.8C74,90.9,73.3,91.3,72.6,91.3z M58.7,87.3h12.7l3.9-6.7L71.8,76
		H57.1L58.7,87.3z"/>
	<path class="st0" d="M102.3,91.3H86.7c-0.7,0-1.4-0.4-1.7-1l-5.2-8.8c-0.4-0.7-0.4-1.6,0.1-2.3l5.1-6.5c0.4-0.5,1-0.8,1.6-0.8h18
		c0.6,0,1.1,0.3,1.5,0.7c0.4,0.4,0.5,1,0.5,1.6l-2.3,15.3C104.1,90.6,103.3,91.3,102.3,91.3z M87.8,87.3h12.7l1.7-11.3H87.6
		l-3.7,4.7L87.8,87.3z"/>
	<path class="st0" d="M81,82.7h-3c-1.1,0-2-0.9-2-2s0.9-2,2-2h3c1.1,0,2,0.9,2,2S82.1,82.7,81,82.7z"/>
</g>
<path class="st0" d="M100.3,114.4H59c-9.9,0-18-8.1-18-18V67.6c0-9.9,8.1-18,18-18h41.3c9.9,0,18,8.1,18,18v28.8
	C118.3,106.3,110.2,114.4,100.3,114.4z M59,53.6c-7.7,0-14,6.3-14,14v28.8c0,7.7,6.3,14,14,14h41.3c7.7,0,14-6.3,14-14V67.6
	c0-7.7-6.3-14-14-14H59z"/>
</svg>
