<?xml version="1.0" encoding="utf-8"?>
<!-- Generator: Adobe Illustrator 25.0.1, SVG Export Plug-In . SVG Version: 6.00 Build 0)  -->
<svg version="1.1" id="圖層_1" xmlns="http://www.w3.org/2000/svg" xmlns:xlink="http://www.w3.org/1999/xlink" x="0px" y="0px"
	 viewBox="0 0 20 20" style="enable-background:new 0 0 20 20;" xml:space="preserve">
<style type="text/css">
	.st0{clip-path:url(#SVGID_2_);}
	.st1{fill:#424242;}
</style>
<g>
	<defs>
		<rect id="SVGID_1_" width="20" height="20"/>
	</defs>
	<clipPath id="SVGID_2_">
		<use xlink:href="#SVGID_1_"  style="overflow:visible;"/>
	</clipPath>
	<g class="st0">
		<path class="st1" d="M19.6,8.3C19.5,8.2,19.4,8,19.2,8c-0.1-0.1-0.3-0.1-0.5-0.1h-4.1c0.4-2.1,1.1-7-0.2-7.6
			c-0.5-0.2-1-0.2-1.6-0.1c-0.5,0.2-0.9,0.5-1.2,1l-3,8.3H4.7v0.8h4.5l3.1-8.7c0.1-0.2,0.2-0.3,0.3-0.4c0.1-0.1,0.3-0.2,0.4-0.2
			c0.2-0.1,0.3-0.1,0.5-0.1c0.2,0,0.3,0.1,0.5,0.1c0.7,0.3,0.5,4.1-0.2,7.3v0.5h5l0.3,0.2c0.2,0.5,0.2,1,0.1,1.4
			c-0.3,1.7-2.6,7.2-3.1,8.5H6.8l-1.4-2l-0.6,0.5l1.6,2.3h10.1l0.2-0.3c0.1-0.2,2.9-6.8,3.3-8.8C20,10.1,20,9.7,20,9.3
			C19.9,9,19.8,8.6,19.6,8.3z"/>
		<path class="st1" d="M0,19.7h3.8v-6.4H3v5.6H0.8V7.7H3v1.4h0.8V6.9H0V19.7z"/>
	</g>
</g>
</svg>
