<svg width="31" height="30" viewBox="0 0 31 30" fill="none" xmlns="http://www.w3.org/2000/svg">
<path d="M30.2109 6.62891L27.2461 2.42188C26.8652 1.27344 25.793 0.5 24.5801 0.5H6.13477C4.92188 0.5 3.84961 1.27344 3.46875 2.42188L0.503906 6.62891C0.410156 6.91602 0.357422 7.21484 0.357422 7.51953V27.1016C0.357422 28.6543 1.61719 29.9141 3.16992 29.9141H27.5449C29.0977 29.9141 30.3574 28.6543 30.3574 27.1016V7.51953C30.3574 7.21484 30.3105 6.91602 30.2109 6.62891ZM27.3926 7.0625H16.7637V3.3125H24.5801L27.3926 7.0625ZM6.13477 3.3125H13.9512V7.0625H3.32227L6.13477 3.3125ZM3.16992 27.1016V9.875H27.5449V27.1016H3.16992Z" fill="#006DC9"/>
<path fill-rule="evenodd" clip-rule="evenodd" d="M23.9941 14.9971H18.8848V13.8311L17.5254 10.4268H15.6445L12.5098 13.5615L11.8184 14.9443V14.9971H6.7207L7.58203 20.9209H11.2441V21.0029L13.0957 24.0908L14.2207 25.2158L14.9297 26.6338H17.1738V23.9502L18.1934 22.9307L18.8848 21.5479V20.9209H23.127L23.9941 14.9971ZM13.623 14.3584L16.2012 11.7803H16.6055L17.5312 14.0889V14.9971H16.8516L15.3574 17.1885L13.8633 14.9912H13.3066L13.623 14.3584ZM8.29102 16.3506H13.1484L14.0566 17.6807L13.0957 19.5674H8.76562L8.29102 16.3506ZM17.5312 21.2256L17.0801 22.1279L15.8145 23.3936V25.2803H15.7676L15.334 24.4131L14.1738 23.2529L12.7793 20.9209H13.9219L15.3574 18.1025L16.793 20.9209H17.5254V21.2256H17.5312ZM21.9551 19.5674H17.625L16.6641 17.6807L17.5723 16.3506H22.4297L21.9551 19.5674Z" fill="#EF3D3B"/>
</svg>
