<?xml version="1.0" encoding="utf-8"?>
<!-- Generator: Adobe Illustrator 25.0.1, SVG Export Plug-In . SVG Version: 6.00 Build 0)  -->
<svg version="1.1" id="圖層_1" xmlns="http://www.w3.org/2000/svg" xmlns:xlink="http://www.w3.org/1999/xlink" x="0px" y="0px"
	 viewBox="0 0 90 90" style="enable-background:new 0 0 90 90;" xml:space="preserve">
<style type="text/css">
	.st0{clip-path:url(#SVGID_2_);}
	.st1{fill:#FF614C;}
</style>
<g>
	<defs>
		<rect id="SVGID_1_" x="0" y="1.5" width="90" height="87"/>
	</defs>
	<clipPath id="SVGID_2_">
		<use xlink:href="#SVGID_1_"  style="overflow:visible;"/>
	</clipPath>
	<g class="st0">
		<path class="st1" d="M16,71.6c0-0.3,0.1-0.5,0.2-0.7c0.1-0.1,0.3-0.2,0.5-0.2v4.2c0,0.3,0,0.5-0.1,0.6c-0.1,0.1-0.2,0.2-0.3,0.2
			V77h2.6v-1.3c-0.2,0-0.2-0.1-0.3-0.2c0-0.1-0.1-0.3-0.1-0.6v-4.2c0.3,0,0.4,0.1,0.5,0.2c0.1,0.1,0.2,0.3,0.2,0.7v0.8h1.4v-3.1
			h-6.1v3.1H16V71.6z M26.9,74.4h-1.7v0.3c0,0.3-0.1,0.5-0.2,0.7c-0.1,0.1-0.3,0.2-0.6,0.2h-0.8v-1.9h2.1v-1.3h-2.1v-1.6h0.7
			c0.3,0,0.6,0.1,0.7,0.2c0.1,0.1,0.2,0.3,0.2,0.6v0.1h1.7v-2.4h-5.4v1.2c0.2,0,0.3,0.1,0.3,0.2c0.1,0.1,0.1,0.3,0.1,0.6v3.6
			c0,0.3,0,0.5-0.1,0.6c-0.1,0.1-0.2,0.2-0.3,0.2v1.3h5.4V74.4z M28.4,76.3c0.2,0.3,0.5,0.4,0.8,0.6c0.3,0.1,0.8,0.2,1.4,0.2
			c0.4,0,0.9,0,1.3-0.2c0.4-0.1,0.8-0.2,1.2-0.4v-2.6h-1.7v0.5c0,0.4-0.1,0.7-0.2,0.9c-0.1,0.2-0.3,0.3-0.6,0.3
			c-0.3,0-0.5-0.1-0.6-0.3c-0.1-0.2-0.2-0.5-0.2-0.9v-2.6c0-0.4,0.1-0.7,0.2-0.9c0.1-0.2,0.3-0.3,0.6-0.3c0.3,0,0.5,0.1,0.6,0.3
			c0.1,0.2,0.2,0.4,0.2,0.8v0.2h1.7v-2.2c-0.4-0.2-0.8-0.3-1.2-0.4c-0.4-0.1-0.8-0.1-1.2-0.1c-0.6,0-1.1,0.1-1.5,0.2
			c-0.4,0.2-0.7,0.4-0.8,0.7c-0.1,0.2-0.2,0.4-0.2,0.6c0,0.2-0.1,0.6-0.1,1.2v2.5c0,0.6,0,1,0.1,1.3C28.2,75.9,28.3,76.2,28.4,76.3z
			 M36.9,75.6c-0.2,0-0.2-0.1-0.3-0.2c0-0.1-0.1-0.3-0.1-0.6v-1.2h1.6v1.2c0,0.3,0,0.5-0.1,0.6c0,0.1-0.2,0.2-0.3,0.2v1.3h2.6v-1.3
			c-0.2,0-0.3-0.1-0.3-0.2c-0.1-0.1-0.1-0.3-0.1-0.6v-3.5c0-0.3,0-0.5,0.1-0.6c0.1-0.1,0.2-0.2,0.3-0.2v-1.2h-2.6v1.2
			c0.2,0,0.2,0.1,0.3,0.2c0,0.1,0.1,0.3,0.1,0.6v1h-1.6v-1c0-0.3,0-0.5,0.1-0.6c0.1-0.1,0.2-0.2,0.3-0.2v-1.2h-2.6v1.2
			c0.2,0,0.3,0.1,0.3,0.2c0.1,0.1,0.1,0.3,0.1,0.6v3.6c0,0.3,0,0.5-0.1,0.6c-0.1,0.1-0.2,0.2-0.3,0.2V77h2.6V75.6z M45,70.5
			c0.2,0,0.3,0.1,0.3,0.2c0.1,0.1,0.1,0.3,0.1,0.6v2.3l-1.9-4.3h-2v1.2c0.2,0,0.2,0.1,0.3,0.2c0.1,0.1,0.1,0.2,0.1,0.5v3.7
			c0,0.3,0,0.5-0.1,0.6c-0.1,0.1-0.2,0.2-0.3,0.2V77h2.4v-1.3c-0.2,0-0.3-0.1-0.3-0.2c-0.1-0.1-0.1-0.3-0.1-0.6v-2.3l1.9,4.4h1.6
			v-5.6c0-0.3,0-0.5,0.1-0.6c0.1-0.1,0.2-0.2,0.3-0.2v-1.2H45L45,70.5L45,70.5z M49,76.3c0.2,0.3,0.5,0.4,0.8,0.6
			c0.3,0.1,0.8,0.2,1.4,0.2s1-0.1,1.3-0.2c0.3-0.1,0.6-0.3,0.8-0.6c0.2-0.2,0.3-0.4,0.3-0.7c0.1-0.3,0.1-0.7,0.1-1.3v-2.5
			c0-0.6,0-1-0.1-1.3c-0.1-0.3-0.2-0.5-0.3-0.7c-0.2-0.3-0.5-0.4-0.8-0.6c-0.3-0.1-0.8-0.2-1.3-0.2s-1,0.1-1.4,0.2
			c-0.3,0.1-0.6,0.3-0.8,0.6c-0.2,0.2-0.3,0.4-0.3,0.7c-0.1,0.3-0.1,0.7-0.1,1.3v2.5c0,0.6,0,1.1,0.1,1.3
			C48.7,75.9,48.8,76.2,49,76.3z M50.3,71.8c0-0.4,0.1-0.7,0.2-0.9c0.1-0.2,0.3-0.3,0.6-0.3c0.3,0,0.5,0.1,0.6,0.3
			c0.1,0.2,0.2,0.5,0.2,0.9v2.6c0,0.4-0.1,0.7-0.2,0.9s-0.3,0.3-0.6,0.3c-0.3,0-0.5-0.1-0.6-0.3c-0.1-0.2-0.2-0.5-0.2-0.9V71.8z
			 M60.1,73.5h-1.6v0.9c0,0.5-0.1,0.8-0.2,1c-0.1,0.1-0.4,0.2-0.7,0.2H57v-4.2c0-0.3,0-0.5,0.1-0.6c0.1-0.1,0.2-0.2,0.3-0.2v-1.2
			h-2.5v1.2c0.2,0,0.3,0.1,0.3,0.2c0.1,0.1,0.1,0.3,0.1,0.6v3.6c0,0.3,0,0.5-0.1,0.6c-0.1,0.1-0.2,0.2-0.3,0.2V77h5.2L60.1,73.5
			L60.1,73.5z M65.7,76.3c0.2-0.2,0.3-0.4,0.3-0.7c0.1-0.3,0.1-0.7,0.1-1.3v-2.5c0-0.6,0-1-0.1-1.3c-0.1-0.3-0.2-0.5-0.3-0.7
			c-0.2-0.3-0.5-0.4-0.8-0.6c-0.3-0.1-0.8-0.2-1.3-0.2c-0.5,0-1,0.1-1.4,0.2c-0.3,0.1-0.6,0.3-0.8,0.6c-0.2,0.2-0.3,0.4-0.3,0.7
			C61,70.8,61,71.2,61,71.9v2.5c0,0.6,0,1.1,0.1,1.3c0.1,0.3,0.2,0.5,0.3,0.7c0.2,0.3,0.5,0.4,0.8,0.6c0.3,0.1,0.8,0.2,1.4,0.2
			c0.5,0,1-0.1,1.3-0.2C65.3,76.8,65.5,76.6,65.7,76.3z M64.4,74.4c0,0.4-0.1,0.7-0.2,0.9c-0.1,0.2-0.3,0.3-0.6,0.3
			c-0.3,0-0.5-0.1-0.6-0.3c-0.1-0.2-0.2-0.5-0.2-0.9v-2.6c0-0.4,0.1-0.7,0.2-0.9c0.1-0.2,0.3-0.3,0.6-0.3c0.3,0,0.5,0.1,0.6,0.3
			c0.1,0.2,0.2,0.5,0.2,0.9V74.4z M67.8,76.3c0.2,0.3,0.5,0.4,0.8,0.6c0.3,0.1,0.8,0.2,1.4,0.2c0.5,0,0.9-0.1,1.3-0.2
			c0.4-0.1,0.8-0.3,1.2-0.5v-3.5h-2.4v1.2h0.7v0.3c0,0.4-0.1,0.7-0.2,0.9c-0.1,0.2-0.3,0.3-0.6,0.3c-0.3,0-0.5-0.1-0.6-0.3
			c-0.1-0.2-0.2-0.5-0.2-0.9v-2.6c0-0.4,0.1-0.7,0.2-0.9c0.1-0.2,0.3-0.3,0.6-0.3c0.3,0,0.5,0.1,0.6,0.2c0.1,0.2,0.2,0.4,0.2,0.8v0
			h1.7v-2.1c-0.4-0.2-0.8-0.3-1.2-0.4c-0.4-0.1-0.8-0.1-1.2-0.1c-0.6,0-1.1,0.1-1.5,0.2c-0.4,0.2-0.7,0.4-0.8,0.7
			c-0.1,0.2-0.2,0.4-0.2,0.6c0,0.2-0.1,0.6-0.1,1.2v2.5c0,0.6,0,1,0.1,1.3C67.5,75.9,67.6,76.2,67.8,76.3z M73.7,70.9l1.5,3v0.9
			c0,0.2,0,0.4-0.1,0.5c-0.1,0.1-0.2,0.2-0.3,0.2V77h2.6v-1.3c-0.2,0-0.2-0.1-0.3-0.2C77,75.4,77,75.2,77,74.9v-1l1.5-3
			c0.1-0.1,0.1-0.2,0.2-0.3c0.1-0.1,0.1-0.1,0.2-0.1v-1.2h-2v0.9c0,0.2,0,0.3,0,0.5c0,0.1-0.1,0.3-0.1,0.4l-0.5,1L75.7,71
			c0-0.1-0.1-0.2-0.1-0.3c0-0.1,0-0.3,0-0.5v-0.9h-2.3v1.2c0.1,0,0.2,0.1,0.2,0.1C73.6,70.7,73.6,70.8,73.7,70.9z M20.3,80.6
			c0.2,0,0.3,0.1,0.3,0.2c0.1,0.1,0.1,0.2,0.1,0.3c0,0,0,0.1,0,0.2c0,0.1,0,0.2,0,0.2l-0.5,4.2l-1.2-6.7h-1.7l-1.1,6.8l-0.7-4.4
			c0-0.1,0-0.1,0-0.2c0-0.1,0-0.1,0-0.2c0-0.2,0-0.3,0.1-0.3c0.1-0.1,0.2-0.1,0.3-0.1v-1.5h-3.1v1.5c0.2,0,0.3,0.1,0.3,0.3
			c0.1,0.1,0.2,0.3,0.2,0.6l1.3,7H17l0.8-5.2l1,5.2h2.5l1.1-6.9c0-0.3,0.1-0.6,0.2-0.7c0.1-0.1,0.2-0.2,0.3-0.3v-1.5h-2.7V80.6z
			 M30.5,86.6c-0.1-0.1-0.2-0.3-0.2-0.6l-1.5-7h-3.2l-1.3,6.8c-0.1,0.4-0.2,0.6-0.2,0.7c-0.1,0.1-0.2,0.2-0.3,0.3v1.6h2.9v-1.6
			c-0.2,0-0.3,0-0.4-0.1C26,86.7,26,86.6,26,86.4c0,0,0-0.1,0-0.1s0-0.1,0-0.2l0.1-0.3h1.8l0.1,0.4c0,0,0,0.1,0,0.2c0,0,0,0.1,0,0.1
			c0,0.1,0,0.2-0.1,0.3c-0.1,0.1-0.2,0.1-0.3,0.1v1.6h3.2v-1.6C30.7,86.8,30.6,86.8,30.5,86.6z M26.4,84.4l0.6-3.6l0.6,3.6H26.4z
			 M38.4,86.6c-0.1-0.1-0.1-0.4-0.1-0.7v-0.5c0-0.5-0.1-0.8-0.3-1c-0.2-0.2-0.5-0.4-0.9-0.5c0.5-0.1,0.8-0.4,1.1-0.7
			c0.2-0.4,0.4-0.9,0.4-1.4c0-0.9-0.2-1.6-0.7-2.1c-0.5-0.4-1.3-0.7-2.4-0.7h-3.7v1.5c0.2,0,0.3,0.1,0.4,0.2
			c0.1,0.1,0.1,0.4,0.1,0.7v4.4c0,0.4,0,0.6-0.1,0.7c-0.1,0.1-0.2,0.2-0.4,0.2v1.6h3.1v-1.6c-0.2,0-0.3-0.1-0.4-0.2
			c-0.1-0.1-0.1-0.3-0.1-0.7v-1.2H35c0.4,0,0.7,0.1,0.9,0.2c0.2,0.2,0.2,0.5,0.2,0.9v1.2c0,0.4,0,0.7,0,0.9c0,0.2,0.1,0.3,0.2,0.5
			h2.3v-1.6C38.5,86.9,38.4,86.8,38.4,86.6z M36.1,82.8c-0.2,0.2-0.5,0.3-0.9,0.3h-0.9v-2.3h0.9c0.4,0,0.7,0.1,0.9,0.3
			c0.2,0.2,0.3,0.5,0.3,0.9C36.3,82.3,36.3,82.6,36.1,82.8z M46.7,86.6c-0.1-0.1-0.1-0.4-0.1-0.7v-0.5c0-0.5-0.1-0.8-0.3-1
			c-0.2-0.2-0.5-0.4-0.9-0.5c0.5-0.1,0.8-0.4,1.1-0.7c0.2-0.4,0.4-0.9,0.4-1.4c0-0.9-0.2-1.6-0.7-2.1c-0.5-0.4-1.3-0.7-2.4-0.7H40
			v1.5c0.2,0,0.3,0.1,0.4,0.2c0.1,0.1,0.1,0.4,0.1,0.7v4.4c0,0.4,0,0.6-0.1,0.7c-0.1,0.1-0.2,0.2-0.4,0.2v1.6h3.1v-1.6
			c-0.2,0-0.3-0.1-0.4-0.2c-0.1-0.1-0.1-0.3-0.1-0.7v-1.2h0.7c0.4,0,0.7,0.1,0.9,0.2c0.2,0.2,0.2,0.5,0.2,0.9v1.2c0,0.4,0,0.7,0,0.9
			c0,0.2,0.1,0.3,0.2,0.5H47v-1.6C46.8,86.9,46.7,86.8,46.7,86.6z M44.4,82.8c-0.2,0.2-0.5,0.3-0.9,0.3h-0.9v-2.3h0.9
			c0.4,0,0.7,0.1,0.9,0.3c0.2,0.2,0.3,0.5,0.3,0.9C44.7,82.3,44.6,82.6,44.4,82.8z M54.8,86.6c-0.1-0.1-0.2-0.3-0.2-0.6l-1.5-7h-3.2
			l-1.3,6.8c-0.1,0.4-0.2,0.6-0.2,0.7c-0.1,0.1-0.2,0.2-0.3,0.3v1.6h2.9v-1.6c-0.2,0-0.3,0-0.4-0.1c-0.1-0.1-0.1-0.2-0.1-0.3
			c0,0,0-0.1,0-0.1s0-0.1,0-0.2l0.1-0.3h1.8l0.1,0.4c0,0,0,0.1,0,0.2c0,0,0,0.1,0,0.1c0,0.1,0,0.2-0.1,0.3c-0.1,0.1-0.2,0.1-0.3,0.1
			v1.6h3.2v-1.6C55,86.8,54.9,86.8,54.8,86.6z M50.7,84.4l0.6-3.6l0.6,3.6H50.7z M60.4,80.6c0.2,0,0.3,0.1,0.4,0.2
			c0.1,0.1,0.1,0.4,0.1,0.7v2.8L58.5,79h-2.4v1.5c0.2,0,0.3,0.1,0.4,0.2c0.1,0.1,0.1,0.3,0.1,0.6v4.6c0,0.4,0,0.6-0.1,0.7
			c-0.1,0.1-0.2,0.2-0.4,0.2v1.6h3v-1.6c-0.2,0-0.3-0.1-0.4-0.2c-0.1-0.1-0.1-0.4-0.1-0.7v-2.8l2.4,5.4h2v-6.8c0-0.4,0-0.7,0.1-0.8
			c0.1-0.1,0.2-0.2,0.4-0.3v-1.5h-3V80.6z M64.4,82.9h1.7v-1c0-0.4,0.1-0.7,0.2-0.8c0.1-0.2,0.3-0.3,0.7-0.3v5.1
			c0,0.4,0,0.6-0.1,0.7c-0.1,0.1-0.2,0.2-0.4,0.2v1.6h3.1v-1.6c-0.2,0-0.3-0.1-0.4-0.2c-0.1-0.1-0.1-0.3-0.1-0.7v-5.1
			c0.3,0,0.5,0.1,0.7,0.3c0.1,0.2,0.2,0.4,0.2,0.8v1h1.7v-3.8h-7.4L64.4,82.9L64.4,82.9z M76.8,79.1v1.2c0,0.2,0,0.4,0,0.6
			c0,0.2-0.1,0.3-0.2,0.5L76,82.5l-0.6-1.3c-0.1-0.1-0.1-0.3-0.1-0.4c0-0.2,0-0.3,0-0.6v-1.2h-2.8v1.5c0.1,0,0.2,0.1,0.3,0.2
			c0.1,0.1,0.2,0.2,0.2,0.4l1.8,3.7V86c0,0.3,0,0.5-0.1,0.6c-0.1,0.1-0.2,0.2-0.4,0.3v1.6h3.1v-1.6c-0.2,0-0.3-0.1-0.4-0.2
			c-0.1-0.1-0.1-0.3-0.1-0.7v-1.2l1.8-3.6c0.1-0.2,0.2-0.3,0.2-0.4c0.1-0.1,0.2-0.2,0.3-0.2v-1.5H76.8L76.8,79.1z"/>
		<path class="st1" d="M77.2,12.5h-4.6v6.7h4.6c1.4,0,2.5-1.1,2.5-2.5V15C79.7,13.7,78.6,12.5,77.2,12.5z"/>
		<path class="st1" d="M13,19.3h4.6v-6.7H13c-1.4,0-2.5,1.1-2.5,2.5v1.8C10.5,18.2,11.6,19.3,13,19.3z"/>
		<path class="st1" d="M41.2,20.6H17.3c-0.9,0-1.6-0.7-1.6-1.6v-6.3c0-0.9,0.7-1.6,1.6-1.6h22.8V13H17.5v5.9h23.7V20.6L41.2,20.6z"
			/>
		<path class="st1" d="M72.7,20.6H48.6v-1.7h23.9V13H49.7v-1.7h23c0.9,0,1.6,0.7,1.6,1.6V19C74.3,19.9,73.6,20.6,72.7,20.6z"/>
		<path class="st1" d="M48.2,8.1h-6.3V4c0-1.4,1.1-2.5,2.5-2.5h1.2c1.4,0,2.5,1.1,2.5,2.5L48.2,8.1L48.2,8.1z M43.7,6.3h2.8V4
			c0-0.4-0.3-0.8-0.8-0.8h-1.2c-0.4,0-0.8,0.3-0.8,0.8L43.7,6.3L43.7,6.3z"/>
		<path class="st1" d="M44.9,21.9c-3.5,0-6.4-2.9-6.4-6.4s2.9-6.4,6.4-6.4c3.5,0,6.5,2.9,6.5,6.4S48.5,21.9,44.9,21.9z M44.9,10.8
			c-2.6,0-4.7,2.1-4.7,4.7s2.1,4.7,4.7,4.7c2.6,0,4.7-2.1,4.7-4.7C49.6,12.9,47.5,10.8,44.9,10.8z"/>
		<path class="st1" d="M44.9,18.6c-1.7,0-3.1-1.4-3.1-3.1s1.4-3.1,3.1-3.1s3.1,1.4,3.1,3.1C48.1,17.2,46.7,18.6,44.9,18.6z
			 M44.9,14.1c-0.7,0-1.4,0.6-1.4,1.4s0.6,1.4,1.4,1.4c0.7,0,1.4-0.6,1.4-1.4S45.7,14.1,44.9,14.1z"/>
		<path class="st1" d="M45.8,7.1h-1.7v3.3h1.7V7.1z"/>
		<path class="st1" d="M13,30.4l-1.2-1.2c3.2-3.2,6.6-3.9,8.2-4.1v-4.9h1.7v6.6h-0.9C20.8,26.7,16.6,26.7,13,30.4z"/>
		<path class="st1" d="M40.9,45.7c-0.4,0-0.7-0.3-0.9-0.7c0,0-0.8-3.1-3-6c-2.8-3.9-6.6-5.9-11.2-5.9c-6.4,0-8.6,2.7-8.6,2.7
			l-1.4-1.1c0.1-0.1,2.7-3.4,10-3.4c5.2,0,9.6,2.3,12.7,6.6c0.6,0.8,1.1,1.6,1.5,2.4V20.1h1.7v24.7c0,0.4-0.3,0.8-0.8,0.9
			C40.9,45.7,40.9,45.7,40.9,45.7z"/>
		<path class="st1" d="M24.5,61.6c-6.1,0-11-4.9-11-11c0-6.1,4.9-11,11-11c6.1,0,11,4.9,11,11C35.6,56.7,30.6,61.6,24.5,61.6z
			 M24.5,41.3c-5.1,0-9.3,4.2-9.3,9.3s4.2,9.3,9.3,9.3c5.1,0,9.3-4.2,9.3-9.3S29.7,41.3,24.5,41.3z"/>
		<path class="st1" d="M24.5,57.3c-0.3,0-0.5-0.2-0.5-0.5s0.2-0.5,0.5-0.5c3.1,0,5.6-2.5,5.6-5.6c0-0.3,0.2-0.5,0.5-0.5
			s0.5,0.2,0.5,0.5C31.2,54.3,28.2,57.3,24.5,57.3z"/>
		<path class="st1" d="M24.5,65.6c-8.3,0-15-6.7-15-15c0-2.6,0.6-5.1,1.7-7.2l-5.9-4.7c-1.3-0.9-2.1-2.3-2.1-3.9
			c0-2.6,2.1-4.6,4.6-4.6c1.5,0,2.9,0.7,3.8,1.9l4.7,5.8c2.4-1.6,5.2-2.4,8.1-2.4c8.3,0,15,6.7,15,15S32.8,65.6,24.5,65.6z
			 M12.9,44.1c-1.1,1.9-1.6,4.1-1.6,6.5c0,7.3,6,13.3,13.3,13.3s13.3-5.9,13.3-13.3s-6-13.3-13.3-13.3c-2.7,0-5.4,0.8-7.6,2.4
			c0,0,0,0-0.1,0l-0.2,0.1c-0.4,0.2-0.9,0.1-1.1-0.2l-5.3-6.5c0,0,0,0,0,0c-0.5-0.8-1.4-1.2-2.4-1.2c-1.6,0-2.9,1.3-2.9,2.9
			c0,1,0.5,1.9,1.4,2.4c0,0,0.1,0,0.1,0.1l6.5,5.2c0.3,0.3,0.4,0.8,0.2,1.2L12.9,44.1z"/>
		<path class="st1" d="M4.6,61.7c-0.5,0-1-0.1-1.5-0.3c-0.9-0.4-1.5-1.2-1.8-2.2C-2,47.8,2,39,2.2,38.7l1.6,0.7L3,39l0.8,0.4
			c0,0.1-3.9,8.5-0.8,19.3c0.2,0.5,0.5,0.9,0.9,1.1C4.2,60,4.6,60,5,59.9c1.5-0.3,2.6-1.6,2.4-2.9c-0.1-0.6-0.2-1-0.3-1.5
			c-0.2-0.8-0.5-1.8-0.6-4c-0.2-3.5,1.3-7.9,1.4-8.1l1.7,0.5c0,0-1.4,4.3-1.3,7.5c0.1,2,0.3,2.8,0.5,3.7c0.1,0.5,0.2,1,0.3,1.7
			c0.3,2.2-1.4,4.3-3.8,4.8C5.1,61.7,4.8,61.7,4.6,61.7z"/>
		<path class="st1" d="M13.3,34.7c-0.2,0-0.3-0.1-0.5-0.2c-0.2-0.2-0.1-0.6,0.2-0.8l5.1-3.5l-0.5-0.8c-0.2-0.2-0.1-0.6,0.2-0.8
			c0.2-0.2,0.6-0.1,0.8,0.2l0.9,1.3c0.2,0.2,0.1,0.6-0.2,0.8l-5.6,3.8C13.5,34.7,13.4,34.7,13.3,34.7z"/>
		<path class="st1" d="M3.9,56.3c-0.3,0-0.5-0.2-0.5-0.5c0-0.3,0.2-0.6,0.5-0.6l0.7-0.1c-0.2-1.3-0.6-4.6-0.4-7.8
			c0.3-4,2.6-7.5,2.7-7.6c0.2-0.2,0.5-0.3,0.8-0.2C8,39.8,8,40.1,7.9,40.4c0,0-2.3,3.3-2.5,7.1c-0.3,3.8,0.4,8,0.5,8.1
			c0,0.2,0,0.3-0.1,0.4c-0.1,0.1-0.2,0.2-0.4,0.2L3.9,56.3C4,56.3,3.9,56.3,3.9,56.3z"/>
		<path class="st1" d="M24.1,23.9h-0.9v1.9h0.9V23.9z"/>
		<path class="st1" d="M36.7,23.9h-0.9v1.9h0.9V23.9z"/>
		<path class="st1" d="M32.5,23.9h-0.9v1.9h0.9V23.9z"/>
		<path class="st1" d="M30.4,23.9h-0.9v1.9h0.9V23.9z"/>
		<path class="st1" d="M28.3,22.8h-0.9v3h0.9V22.8z"/>
		<path class="st1" d="M34.6,22.8h-0.9v3h0.9V22.8z"/>
		<path class="st1" d="M26.2,23.9h-0.9v1.9h0.9V23.9z"/>
		<path class="st1" d="M38.8,23.9h-0.9v1.9h0.9V23.9z"/>
		<path class="st1" d="M77,30.4c-3.7-3.7-7.8-3.7-7.9-3.7h-0.9v-0.9v-5.7H70V25c1.6,0.2,5.1,1,8.2,4.1L77,30.4z"/>
		<path class="st1" d="M49.1,45.7c0,0-0.1,0-0.1,0c-0.4,0-0.8-0.4-0.8-0.9V20.1H50v20.3c0.4-0.8,0.9-1.6,1.5-2.4
			c3.1-4.4,7.5-6.6,12.7-6.6c7.3,0,9.9,3.3,10,3.4l-1.4,1c0,0-2.2-2.7-8.6-2.7C53.1,33.1,50,44.9,50,45
			C49.9,45.4,49.6,45.7,49.1,45.7z"/>
		<path class="st1" d="M65.5,61.6c-6.1,0-11-4.9-11-11c0-6.1,4.9-11,11-11c6.1,0,11,4.9,11,11C76.5,56.7,71.5,61.6,65.5,61.6z
			 M65.5,41.3c-5.1,0-9.3,4.2-9.3,9.3s4.2,9.3,9.3,9.3s9.3-4.2,9.3-9.3S70.6,41.3,65.5,41.3z"/>
		<path class="st1" d="M65.5,56.9c-0.3,0-0.5-0.2-0.5-0.5s0.2-0.5,0.5-0.5c3.1,0,5.6-2.5,5.6-5.6c0-0.3,0.2-0.5,0.5-0.5
			c0.3,0,0.5,0.2,0.5,0.5C72.2,53.9,69.2,56.9,65.5,56.9z"/>
		<path class="st1" d="M65.5,65.6c-8.3,0-15-6.7-15-15s6.7-15,15-15c2.9,0,5.7,0.8,8.1,2.4l4.8-5.9c0.9-1.2,2.3-1.9,3.8-1.9
			c2.6,0,4.6,2.1,4.6,4.6c0,1.6-0.8,3-2.1,3.9l-5.9,4.7c1.1,2.1,1.7,4.5,1.7,7.2C80.5,58.9,73.7,65.6,65.5,65.6z M65.5,37.3
			c-7.3,0-13.3,6-13.3,13.3c0,7.3,6,13.3,13.3,13.3s13.3-6,13.3-13.3c0-2.4-0.5-4.6-1.6-6.5l-0.2-0.3c-0.2-0.4-0.2-0.9,0.2-1.2
			l6.5-5.2c0,0,0.1,0,0.1-0.1c0.9-0.5,1.4-1.4,1.4-2.4c0-1.6-1.3-2.9-2.9-2.9c-0.9,0-1.8,0.5-2.4,1.2c0,0,0,0,0,0l-5.3,6.5
			c-0.3,0.3-0.7,0.4-1.1,0.2l-0.2-0.1c0,0,0,0-0.1,0C70.8,38.2,68.2,37.3,65.5,37.3z"/>
		<path class="st1" d="M85.4,61.7c-0.3,0-0.5,0-0.8-0.1c-2.4-0.5-4-2.6-3.8-4.8c0.1-0.7,0.2-1.2,0.3-1.7c0.2-0.8,0.4-1.6,0.5-3.6
			c0.2-3.2-1.2-7.5-1.3-7.5l1.7-0.5c0.1,0.2,1.5,4.6,1.4,8.1c-0.1,2.2-0.3,3.1-0.6,4c-0.1,0.5-0.2,0.9-0.3,1.5
			c-0.2,1.3,0.9,2.6,2.4,2.9c0.4,0.1,0.8,0,1.2-0.1c0.4-0.2,0.7-0.6,0.9-1.1c3.1-10.7-0.7-19.2-0.8-19.3l1.6-0.7
			c0.2,0.4,4.2,9.1,0.9,20.5c-0.3,1-0.9,1.8-1.8,2.2C86.5,61.6,85.9,61.7,85.4,61.7z"/>
		<path class="st1" d="M76.7,34.7c-0.1,0-0.2,0-0.3-0.1l-5.6-3.8c-0.2-0.2-0.3-0.5-0.2-0.8l0.9-1.3c0.2-0.2,0.5-0.3,0.8-0.2
			c0.2,0.2,0.3,0.5,0.2,0.8l-0.5,0.8l5.1,3.5c0.2,0.2,0.3,0.5,0.2,0.8C77.1,34.6,76.9,34.7,76.7,34.7z"/>
		<path class="st1" d="M86.1,56.3C86,56.3,86,56.3,86.1,56.3l-1.4-0.1c-0.2,0-0.3-0.1-0.4-0.2c-0.1-0.1-0.1-0.3-0.1-0.4
			c0,0,0.7-4.3,0.5-8.1c-0.3-3.7-2.5-7.1-2.5-7.1c-0.2-0.2-0.1-0.6,0.2-0.8c0.2-0.2,0.6-0.1,0.8,0.2c0.1,0.2,2.4,3.6,2.7,7.6
			c0.2,3.1-0.2,6.5-0.4,7.8l0.7,0.1c0.3,0,0.5,0.3,0.5,0.6C86.6,56.1,86.3,56.3,86.1,56.3z"/>
		<path class="st1" d="M66.8,23.9h-0.9v1.9h0.9V23.9z"/>
		<path class="st1" d="M54.2,23.9h-0.9v1.9h0.9V23.9z"/>
		<path class="st1" d="M58.4,23.9h-0.9v1.9h0.9V23.9z"/>
		<path class="st1" d="M60.5,23.9h-0.9v1.9h0.9V23.9z"/>
		<path class="st1" d="M62.6,22.8h-0.9v3h0.9V22.8z"/>
		<path class="st1" d="M56.3,22.8h-0.9v3h0.9V22.8z"/>
		<path class="st1" d="M64.7,23.9h-0.9v1.9h0.9V23.9z"/>
		<path class="st1" d="M52.1,23.9h-0.9v1.9h0.9V23.9z"/>
		<path class="st1" d="M49.9,52.5c-0.5,0-0.9-0.4-0.9-0.9c0-1.7-1.8-3.1-4-3.1c-2.2,0-4,1.4-4,3.1c0,0.5-0.4,0.9-0.9,0.9
			c-0.5,0-0.9-0.4-0.9-0.9c0-2.7,2.6-4.9,5.8-4.9s5.8,2.2,5.8,4.9C50.8,52.1,50.4,52.5,49.9,52.5z"/>
		<path class="st1" d="M44.9,48.5c-0.5,0-0.9-0.4-0.9-0.9V21.1c0-0.5,0.4-0.9,0.9-0.9s0.9,0.4,0.9,0.9v26.5
			C45.8,48.1,45.4,48.5,44.9,48.5z"/>
	</g>
</g>
</svg>
