<?xml version="1.0" encoding="utf-8"?>
<!-- Generator: Adobe Illustrator 25.0.1, SVG Export Plug-In . SVG Version: 6.00 Build 0)  -->
<svg version="1.1" id="圖層_1" xmlns="http://www.w3.org/2000/svg" xmlns:xlink="http://www.w3.org/1999/xlink" x="0px" y="0px"
	 viewBox="0 0 90 90" style="enable-background:new 0 0 90 90;" xml:space="preserve">
<style type="text/css">
	.st0{clip-path:url(#SVGID_2_);}
	.st1{fill:#FF614C;}
</style>
<g>
	<defs>
		<rect id="SVGID_1_" x="0" y="4.7" width="90" height="80.7"/>
	</defs>
	<clipPath id="SVGID_2_">
		<use xlink:href="#SVGID_1_"  style="overflow:visible;"/>
	</clipPath>
	<g class="st0">
		<path class="st1" d="M17.6,7.8c0.2,0.2,0.5,0.3,1,0.5c0.1,0,0.2,0.1,0.3,0.1c0.3,0.1,0.5,0.2,0.7,0.4c0.1,0.1,0.2,0.3,0.2,0.5
			c0,0.2-0.1,0.3-0.2,0.5c-0.1,0.1-0.3,0.2-0.5,0.2c-0.2,0-0.4-0.1-0.5-0.2c-0.1-0.1-0.2-0.4-0.2-0.7V8.8H17v1.6
			c0.3,0.2,0.6,0.4,1,0.5c0.3,0.1,0.7,0.2,1.1,0.2c0.6,0,1.1-0.2,1.5-0.5c0.4-0.3,0.6-0.8,0.6-1.4c0-0.5-0.1-0.9-0.3-1.2
			c-0.2-0.3-0.7-0.5-1.3-0.7c-0.5-0.2-0.8-0.3-0.9-0.4c-0.1-0.1-0.2-0.2-0.2-0.4c0-0.2,0.1-0.3,0.2-0.4c0.1-0.1,0.3-0.2,0.5-0.2
			c0.2,0,0.4,0.1,0.5,0.2c0.1,0.1,0.2,0.3,0.2,0.6v0.1h1.4V5.3c-0.3-0.2-0.6-0.4-1-0.5c-0.3-0.1-0.7-0.2-1.1-0.2
			c-0.6,0-1.2,0.2-1.5,0.5C17.2,5.5,17,5.9,17,6.5c0,0.3,0,0.5,0.2,0.7C17.2,7.4,17.4,7.6,17.6,7.8z M23.8,9.9c-0.1,0-0.2,0-0.3-0.1
			c0,0-0.1-0.1-0.1-0.2c0,0,0,0,0-0.1c0,0,0-0.1,0-0.1l0-0.2h1.2l0,0.3c0,0,0,0.1,0,0.1c0,0,0,0.1,0,0.1c0,0.1,0,0.2-0.1,0.2
			c-0.1,0-0.1,0.1-0.2,0.1v1h2.1v-1c-0.1,0-0.2-0.1-0.2-0.2s-0.1-0.2-0.1-0.4l-1-4.6h-2.1l-0.9,4.5c0,0.2-0.1,0.4-0.2,0.5
			c0,0.1-0.1,0.1-0.2,0.2v1h1.9V9.9L23.8,9.9z M24.1,6l0.4,2.4h-0.9L24.1,6z M28.1,6.7c0-0.2,0-0.4,0.1-0.5C28.3,6,28.5,6,28.7,6
			v3.3c0,0.3,0,0.4-0.1,0.5c0,0.1-0.1,0.1-0.2,0.2v1h2.1v-1c-0.1,0-0.2-0.1-0.2-0.2c0-0.1-0.1-0.2-0.1-0.5V6c0.2,0,0.3,0.1,0.4,0.2
			c0.1,0.1,0.1,0.3,0.1,0.5v0.6h1.1V4.8h-4.9v2.5h1.2V6.7L28.1,6.7z M34.6,9.9c-0.1,0-0.2-0.1-0.2-0.2s-0.1-0.2-0.1-0.5V6.4
			c0-0.3,0-0.4,0.1-0.5c0-0.1,0.1-0.1,0.2-0.2v-1h-2.1v1c0.1,0,0.2,0.1,0.2,0.2c0,0.1,0.1,0.2,0.1,0.5v2.9c0,0.3,0,0.4-0.1,0.5
			c0,0.1-0.1,0.1-0.2,0.2v1h2.1V9.9z M38.1,7.3c-0.5-0.2-0.8-0.3-0.9-0.4C37.1,6.7,37,6.6,37,6.4c0-0.2,0.1-0.3,0.2-0.4
			c0.1-0.1,0.3-0.2,0.5-0.2c0.2,0,0.4,0.1,0.5,0.2c0.1,0.1,0.2,0.3,0.2,0.6v0.1h1.4V5.3c-0.3-0.2-0.6-0.4-1-0.5
			c-0.3-0.1-0.7-0.2-1.1-0.2c-0.6,0-1.2,0.2-1.5,0.5c-0.4,0.3-0.6,0.8-0.6,1.3c0,0.3,0,0.5,0.2,0.7c0.1,0.2,0.2,0.4,0.5,0.5
			c0.2,0.2,0.5,0.3,1,0.5c0.1,0,0.2,0.1,0.3,0.1c0.3,0.1,0.5,0.2,0.7,0.4c0.1,0.1,0.2,0.3,0.2,0.5c0,0.2-0.1,0.3-0.2,0.5
			c-0.1,0.1-0.3,0.2-0.5,0.2c-0.2,0-0.4-0.1-0.5-0.2C37.1,9.5,37,9.2,37,9V8.8h-1.4v1.6c0.3,0.2,0.6,0.4,1,0.5
			c0.3,0.1,0.7,0.2,1.1,0.2c0.6,0,1.1-0.2,1.5-0.5c0.4-0.3,0.6-0.8,0.6-1.4c0-0.5-0.1-0.9-0.3-1.2C39.2,7.8,38.8,7.5,38.1,7.3z
			 M42.8,9.9c-0.1,0-0.2-0.1-0.2-0.2c0-0.1-0.1-0.3-0.1-0.5v-1h1.6v-1h-1.6V6H43c0.3,0,0.4,0,0.5,0.2c0.1,0.1,0.2,0.3,0.2,0.5v0.1
			H45V4.8h-4.3v1c0.1,0,0.2,0.1,0.2,0.2C41,6,41,6.2,41,6.4v2.9c0,0.3,0,0.4-0.1,0.5c0,0.1-0.1,0.1-0.2,0.2v1h2.1L42.8,9.9L42.8,9.9
			z M47,9.6C47,9.6,47,9.6,47,9.6c0-0.1,0-0.2,0-0.2l0-0.2h1.2l0,0.3c0,0,0,0.1,0,0.1c0,0,0,0.1,0,0.1c0,0.1,0,0.2-0.1,0.2
			c-0.1,0-0.1,0.1-0.2,0.1v1h2.1v-1c-0.1,0-0.2-0.1-0.2-0.2c0-0.1-0.1-0.2-0.1-0.4l-1-4.6h-2.1l-0.9,4.5c0,0.2-0.1,0.4-0.2,0.5
			c0,0.1-0.1,0.1-0.2,0.2v1h1.9v-1c-0.1,0-0.2,0-0.3-0.1C47.1,9.8,47,9.7,47,9.6z M47.7,6l0.4,2.4h-0.9L47.7,6z M52.8,4.7
			c-0.5,0-0.9,0.1-1.2,0.2C51.4,5,51.1,5.2,51,5.4c-0.1,0.2-0.2,0.3-0.2,0.5c0,0.2-0.1,0.5-0.1,1v2c0,0.5,0,0.9,0.1,1
			c0,0.2,0.1,0.4,0.3,0.5c0.2,0.2,0.4,0.3,0.7,0.5c0.3,0.1,0.7,0.2,1.1,0.2c0.3,0,0.7,0,1-0.1c0.3-0.1,0.7-0.2,1-0.3V8.5h-1.3v0.4
			c0,0.3,0,0.6-0.2,0.7c-0.1,0.1-0.3,0.2-0.5,0.2c-0.2,0-0.4-0.1-0.5-0.2c-0.1-0.1-0.2-0.4-0.2-0.7V6.8c0-0.3,0-0.5,0.2-0.7
			c0.1-0.1,0.3-0.2,0.5-0.2c0.2,0,0.4,0.1,0.5,0.2c0.1,0.1,0.2,0.3,0.2,0.6v0.1h1.4V5.1c-0.3-0.2-0.7-0.3-1-0.3
			C53.5,4.7,53.2,4.7,52.8,4.7z M56.8,6.7c0-0.2,0-0.4,0.1-0.5C57,6,57.2,6,57.4,6v3.3c0,0.3,0,0.4-0.1,0.5c0,0.1-0.1,0.1-0.2,0.2v1
			h2.1v-1c-0.1,0-0.2-0.1-0.2-0.2c0-0.1-0.1-0.2-0.1-0.5V6C59,6,59.2,6,59.3,6.1c0.1,0.1,0.1,0.3,0.1,0.5v0.6h1.1V4.8h-4.9v2.5h1.2
			V6.7L56.8,6.7z M63.4,9.9c-0.1,0-0.2-0.1-0.2-0.2c0-0.1-0.1-0.2-0.1-0.5V6.4c0-0.3,0-0.4,0.1-0.5c0-0.1,0.1-0.1,0.2-0.2v-1h-2.1v1
			c0.1,0,0.2,0.1,0.2,0.2c0,0.1,0.1,0.2,0.1,0.5v2.9c0,0.3,0,0.4-0.1,0.5c0,0.1-0.1,0.1-0.2,0.2v1h2.1V9.9z M64.7,10.5
			c0.2,0.2,0.4,0.3,0.7,0.5c0.3,0.1,0.7,0.2,1.1,0.2c0.4,0,0.8,0,1.1-0.2c0.3-0.1,0.5-0.2,0.7-0.5c0.1-0.2,0.2-0.3,0.3-0.5
			c0-0.2,0.1-0.6,0.1-1v-2c0-0.5,0-0.8-0.1-1c0-0.2-0.1-0.4-0.3-0.5c-0.2-0.2-0.4-0.3-0.7-0.5c-0.3-0.1-0.6-0.2-1.1-0.2
			c-0.4,0-0.8,0-1.1,0.2c-0.3,0.1-0.5,0.2-0.7,0.5c-0.1,0.2-0.2,0.3-0.3,0.5c0,0.2-0.1,0.6-0.1,1.1v2c0,0.5,0,0.9,0.1,1.1
			C64.5,10.2,64.5,10.3,64.7,10.5z M65.8,6.8c0-0.3,0-0.5,0.2-0.7C66,6,66.2,5.9,66.4,5.9c0.2,0,0.4,0.1,0.5,0.2
			c0.1,0.1,0.2,0.4,0.2,0.7V9c0,0.3,0,0.6-0.2,0.7c-0.1,0.1-0.3,0.2-0.5,0.2c-0.2,0-0.4-0.1-0.5-0.2c-0.1-0.1-0.2-0.4-0.2-0.7V6.8z
			 M69.7,9.8c0,0.1-0.1,0.1-0.2,0.2v1h1.9v-1c-0.1,0-0.2-0.1-0.3-0.2c0-0.1-0.1-0.2-0.1-0.5V7.5l1.6,3.5h1.3V6.5
			c0-0.3,0-0.4,0.1-0.5c0-0.1,0.1-0.1,0.3-0.2v-1h-2v1c0.1,0,0.2,0.1,0.3,0.2c0,0.1,0.1,0.2,0.1,0.5v1.9L71,4.8h-1.6v1
			c0.1,0,0.2,0.1,0.2,0.2c0,0.1,0.1,0.2,0.1,0.4v3C69.7,9.6,69.7,9.7,69.7,9.8z M22.6,14.3c0.1,0,0.2,0.1,0.3,0.2
			c0,0.1,0.1,0.2,0.1,0.3c0,0,0,0.1,0,0.2c0,0.1,0,0.2,0,0.2L22.4,19l-1.1-6.1h-1.5l-1,6.1l-0.7-4c0-0.1,0-0.1,0-0.2s0-0.1,0-0.2
			c0-0.2,0-0.2,0.1-0.3c0-0.1,0.2-0.1,0.3-0.1v-1.4h-2.8v1.4c0.1,0,0.2,0.1,0.3,0.2c0.1,0.1,0.1,0.3,0.2,0.5l1.2,6.4h2.3l0.7-4.7
			l0.9,4.7h2.3l1-6.3c0-0.3,0.1-0.5,0.2-0.6c0.1-0.1,0.2-0.2,0.3-0.2v-1.4h-2.5L22.6,14.3L22.6,14.3z M31.8,19.7
			c-0.1-0.1-0.1-0.3-0.2-0.5l-1.3-6.3h-2.9l-1.2,6.2c-0.1,0.3-0.1,0.5-0.2,0.7s-0.2,0.2-0.3,0.2v1.4h2.6V20c-0.2,0-0.3,0-0.3-0.1
			c-0.1-0.1-0.1-0.2-0.1-0.3c0,0,0-0.1,0-0.1c0,0,0-0.1,0-0.2l0.1-0.3h1.6l0.1,0.3c0,0,0,0.1,0,0.1c0,0,0,0.1,0,0.1
			c0,0.1,0,0.2-0.1,0.3c-0.1,0.1-0.2,0.1-0.3,0.1v1.4h2.9V20C32,19.9,31.9,19.8,31.8,19.7z M28.1,17.7l0.6-3.3l0.6,3.3H28.1z
			 M38.9,19.7c0-0.1-0.1-0.3-0.1-0.7v-0.5c0-0.4-0.1-0.7-0.2-0.9c-0.2-0.2-0.4-0.3-0.9-0.4c0.4-0.1,0.7-0.3,1-0.7
			c0.2-0.3,0.3-0.8,0.3-1.3c0-0.9-0.2-1.5-0.7-1.9c-0.4-0.4-1.2-0.6-2.1-0.6h-3.3v1.4c0.2,0,0.3,0.1,0.3,0.2
			c0.1,0.1,0.1,0.3,0.1,0.7v3.9c0,0.3,0,0.6-0.1,0.7c-0.1,0.1-0.2,0.2-0.3,0.2v1.4h2.8V20c-0.2,0-0.3-0.1-0.3-0.2
			c-0.1-0.1-0.1-0.3-0.1-0.7V18h0.6c0.4,0,0.7,0.1,0.8,0.2c0.1,0.1,0.2,0.4,0.2,0.9v1.1c0,0.4,0,0.6,0,0.8c0,0.2,0.1,0.3,0.1,0.4
			h2.1V20C39.1,19.9,39,19.8,38.9,19.7z M36.9,16.3c-0.2,0.2-0.4,0.2-0.8,0.2h-0.8v-2h0.8c0.3,0,0.6,0.1,0.8,0.3
			c0.2,0.2,0.2,0.4,0.2,0.8C37.1,15.9,37,16.1,36.9,16.3z M46.5,19.7c0-0.1-0.1-0.3-0.1-0.7v-0.5c0-0.4-0.1-0.7-0.2-0.9
			c-0.2-0.2-0.4-0.3-0.9-0.4c0.4-0.1,0.7-0.3,1-0.7c0.2-0.3,0.3-0.8,0.3-1.3c0-0.9-0.2-1.5-0.7-1.9c-0.4-0.4-1.2-0.6-2.1-0.6h-3.3
			v1.4c0.2,0,0.3,0.1,0.3,0.2c0.1,0.1,0.1,0.3,0.1,0.7v3.9c0,0.3,0,0.6-0.1,0.7c-0.1,0.1-0.2,0.2-0.3,0.2v1.4h2.8V20
			c-0.2,0-0.3-0.1-0.3-0.2c-0.1-0.1-0.1-0.3-0.1-0.7V18h0.6c0.4,0,0.7,0.1,0.8,0.2c0.1,0.1,0.2,0.4,0.2,0.9v1.1c0,0.4,0,0.6,0,0.8
			c0,0.2,0.1,0.3,0.1,0.4h2.1V20C46.6,19.9,46.5,19.8,46.5,19.7z M44.4,16.3c-0.2,0.2-0.4,0.2-0.8,0.2h-0.8v-2h0.8
			c0.3,0,0.6,0.1,0.8,0.3c0.2,0.2,0.2,0.4,0.2,0.8C44.7,15.9,44.6,16.1,44.4,16.3z M53.8,19.7c-0.1-0.1-0.1-0.3-0.2-0.5l-1.3-6.3
			h-2.9l-1.2,6.2c-0.1,0.3-0.1,0.5-0.2,0.7c-0.1,0.1-0.2,0.2-0.3,0.2v1.4h2.6V20c-0.2,0-0.3,0-0.3-0.1c-0.1-0.1-0.1-0.2-0.1-0.3
			c0,0,0-0.1,0-0.1c0,0,0-0.1,0-0.2l0.1-0.3h1.6l0.1,0.3c0,0,0,0.1,0,0.1c0,0,0,0.1,0,0.1c0,0.1,0,0.2-0.1,0.3
			c-0.1,0.1-0.2,0.1-0.3,0.1v1.4h2.9V20C54,19.9,53.9,19.8,53.8,19.7z M50.1,17.7l0.6-3.3l0.6,3.3H50.1z M58.8,14.3
			c0.2,0,0.3,0.1,0.3,0.2c0.1,0.1,0.1,0.3,0.1,0.6v2.6l-2.1-4.8h-2.2v1.4c0.2,0,0.3,0.1,0.3,0.2c0.1,0.1,0.1,0.3,0.1,0.5v4.1
			c0,0.3,0,0.6-0.1,0.7c-0.1,0.1-0.2,0.2-0.3,0.2v1.4h2.7v-1.4c-0.2,0-0.3-0.1-0.3-0.2c-0.1-0.1-0.1-0.3-0.1-0.7v-2.5l2.1,4.8h1.8
			v-6.2c0-0.4,0-0.6,0.1-0.7c0.1-0.1,0.2-0.2,0.4-0.2v-1.4h-2.7V14.3z M62.5,16.3H64v-0.9c0-0.3,0.1-0.6,0.2-0.7
			c0.1-0.2,0.3-0.2,0.6-0.2v4.6c0,0.3,0,0.6-0.1,0.7c-0.1,0.1-0.2,0.2-0.3,0.2v1.4h2.8V20c-0.2,0-0.3-0.1-0.3-0.2
			c-0.1-0.1-0.1-0.3-0.1-0.7v-4.6c0.3,0,0.5,0.1,0.6,0.2c0.1,0.2,0.2,0.4,0.2,0.7v0.9h1.6v-3.4h-6.7V16.3z M73.7,12.9v1
			c0,0.2,0,0.4,0,0.5c0,0.2-0.1,0.3-0.1,0.4L72.9,16l-0.6-1.2c-0.1-0.1-0.1-0.2-0.1-0.4c0-0.1,0-0.3,0-0.5v-1h-2.5v1.4
			c0.1,0,0.2,0.1,0.2,0.2c0.1,0.1,0.2,0.2,0.2,0.3l1.7,3.4v1c0,0.3,0,0.4-0.1,0.6c-0.1,0.1-0.2,0.2-0.3,0.2v1.4h2.8V20
			c-0.2,0-0.3-0.1-0.3-0.2c-0.1-0.1-0.1-0.3-0.1-0.6V18l1.6-3.3c0.1-0.2,0.2-0.3,0.2-0.3c0.1-0.1,0.2-0.1,0.2-0.2v-1.4H73.7
			L73.7,12.9z"/>
		<path class="st1" d="M47.5,85.3l-2.9-1.2l-2.9,1.3L42,82l-2.1-2.5l3.1-0.8l1.6-2.8l1.7,2.8l3,0.8l-2,2.5L47.5,85.3z"/>
		<path class="st1" d="M57.6,84.9c-0.6,0-1.1-0.1-1.7-0.3c-1.5-0.6-2.6-1.9-3.2-4c-0.7-2.3-0.5-4.1,0.4-5.6c1.3-2,3.8-2.3,3.9-2.3
			c0.2,0,0.5,0.1,0.6,0.3c0.7,1.2,1.5,3.6-0.2,5.8c0.8,0.1,1.5,0.4,2.2,0.8c1.7,1.2,2.1,3.4,2.1,3.5c0,0.3-0.1,0.5-0.3,0.7
			C61.3,83.8,59.6,84.9,57.6,84.9z M56.7,74.1c-0.6,0.2-1.8,0.6-2.5,1.7c-0.7,1.1-0.8,2.6-0.2,4.5c0.5,1.7,1.3,2.7,2.4,3.1
			c1.5,0.6,3.2-0.1,4-0.5c-0.2-0.6-0.6-1.6-1.5-2.2c-0.8-0.5-1.7-0.7-2.9-0.5c-0.3,0-0.6-0.1-0.7-0.4c-0.1-0.3,0-0.6,0.2-0.8
			C57.8,77.2,57.1,75,56.7,74.1z M31.7,84.8c-2.1,0-4-1.1-4.1-1.1c-0.2-0.1-0.4-0.4-0.3-0.7c0-0.1,0.4-2.2,2.1-3.5
			c0.6-0.5,1.4-0.7,2.2-0.8c-1.6-2.2-0.9-4.7-0.2-5.8c0.1-0.2,0.4-0.3,0.6-0.3c0.1,0,2.4,0.3,3.8,2.3c1,1.4,1.2,3.3,0.7,5.6
			c-0.5,2-1.4,3.3-2.8,3.9C33.1,84.7,32.4,84.8,31.7,84.8z M28.7,82.8c0.9,0.4,2.9,1.2,4.5,0.4c1-0.5,1.7-1.5,2.1-3
			c0.4-1.9,0.3-3.4-0.5-4.5c-0.7-1.1-1.9-1.5-2.5-1.7c-0.4,0.9-1,3.1,1.3,4.9c0.2,0.2,0.3,0.5,0.2,0.8c-0.1,0.3-0.4,0.4-0.7,0.4
			c-1.2-0.2-2.1,0-2.9,0.5C29.3,81.2,28.9,82.2,28.7,82.8z M22.2,80.4c-2.8,0-5.1-2.7-5.2-2.8c-0.2-0.2-0.2-0.5-0.1-0.7
			c0-0.1,1.1-2,3.2-2.6c0.7-0.2,1.5-0.2,2.3,0c-0.8-2.6,0.7-4.7,1.8-5.5c0.2-0.2,0.5-0.2,0.7-0.1c0.1,0,2.2,1.1,2.8,3.5
			c0.5,1.7,0,3.5-1.2,5.5c-1.1,1.7-2.4,2.6-4,2.7C22.4,80.4,22.3,80.4,22.2,80.4z M18.3,77.1c0.7,0.7,2.4,2.1,4.1,2
			c1.1-0.1,2.1-0.8,2.9-2.1c1-1.7,1.4-3.1,1-4.5c-0.3-1.3-1.3-2.1-1.8-2.4c-0.7,0.7-2,2.5-0.5,5c0.2,0.3,0.1,0.6-0.1,0.8
			c-0.2,0.2-0.5,0.3-0.8,0.1c-1-0.6-2-0.8-2.9-0.5C19.4,75.9,18.7,76.7,18.3,77.1z M66.9,80c-1.4,0-2.9-0.5-4.3-2
			c-1.2-1.2-1.7-2.6-1.6-4c0.2-2.9,2.9-5,3.1-5.1c0.2-0.2,0.6-0.2,0.8,0c1.1,0.8,2.6,2.9,1.8,5.5c0.8-0.2,1.6-0.2,2.3,0
			c2.1,0.6,3.1,2.5,3.2,2.6c0.2,0.3,0.1,0.6-0.1,0.8C70.9,78.8,69,80,66.9,80z M64.4,70.3c-0.7,0.6-2,2.1-2.1,3.8
			c-0.1,1.1,0.3,2.1,1.3,3c2.8,2.9,6,1,7.2,0.1c-0.4-0.5-1.1-1.2-2.1-1.5c-0.9-0.3-1.9-0.1-2.9,0.5c-0.3,0.2-0.6,0.1-0.8-0.1
			c-0.2-0.2-0.2-0.5-0.1-0.8C66.3,72.8,65.1,71,64.4,70.3z M14.1,73.5c-0.3,0-0.7,0-1-0.1c-2.9-0.7-4.3-4.2-4.4-4.4
			c-0.1-0.3,0-0.5,0.2-0.7c0.1-0.1,1.7-1.5,3.8-1.4c0.8,0,1.5,0.3,2.2,0.7c0.1-2.7,2.2-4.2,3.5-4.7c0.2-0.1,0.5,0,0.7,0.2
			c0.1,0.1,1.7,1.8,1.6,4.2c-0.1,1.7-1.1,3.4-2.9,4.8C16.5,73,15.3,73.5,14.1,73.5z M10.1,68.9c0.5,0.9,1.6,2.8,3.3,3.2
			c1.1,0.3,2.2-0.1,3.5-1.1c1.5-1.2,2.3-2.5,2.4-3.9c0.1-1.3-0.6-2.4-0.9-2.9c-0.9,0.4-2.7,1.8-2,4.7c0.1,0.3-0.1,0.6-0.3,0.7
			c-0.3,0.1-0.6,0.1-0.8-0.1c-0.8-0.9-1.7-1.4-2.6-1.4C11.5,68.1,10.6,68.6,10.1,68.9z M75.7,73.1c-1,0-2.1-0.3-3.2-0.8
			c-1.7-0.8-2.8-2-3.2-3.5c-0.7-2.8,1.5-5.6,1.6-5.7c0.2-0.2,0.5-0.3,0.7-0.2c1.3,0.4,3.4,1.9,3.5,4.7c0.7-0.4,1.4-0.7,2.2-0.7
			c2.1-0.1,3.7,1.4,3.8,1.4c0.2,0.2,0.3,0.5,0.2,0.7c0,0.1-1.1,2.7-3.6,3.7C77.1,73,76.4,73.1,75.7,73.1z M71.7,64.4
			c-0.5,0.8-1.5,2.6-1.1,4.2c0.3,1.1,1.1,1.9,2.4,2.6c1.6,0.7,2.9,0.9,4.2,0.4c1.4-0.6,2.3-1.8,2.7-2.5c-0.5-0.3-1.4-0.9-2.5-0.8
			c-0.9,0-1.8,0.5-2.6,1.4c-0.2,0.2-0.5,0.3-0.8,0.1c-0.3-0.1-0.4-0.4-0.3-0.7C74.4,66.2,72.6,64.8,71.7,64.4z M80.7,64.4
			c-0.3,0-0.7,0-1-0.1c-1.9-0.2-3.3-1-4.1-2.3c-1.5-2.4-0.4-5.6-0.4-5.7c0.1-0.3,0.3-0.4,0.6-0.4c1.4,0,3.8,0.7,4.8,3.2
			c0.5-0.6,1.1-1.1,1.8-1.4c2-0.8,4,0,4.1,0.1c0.3,0.1,0.4,0.4,0.4,0.7c0,0.1-0.3,3-2.4,4.7C83.6,64,82.3,64.4,80.7,64.4z
			 M76.4,57.2c-0.2,0.9-0.5,2.8,0.4,4.1c0.6,0.9,1.6,1.5,3.1,1.7c1.6,0.2,2.9-0.1,3.9-0.9c1.2-1,1.7-2.5,1.8-3.3
			C85,58.7,84,58.5,83,58.9c-0.9,0.3-1.5,1.1-2,2.2c-0.1,0.3-0.4,0.4-0.7,0.4c-0.3,0-0.5-0.3-0.6-0.6C79.5,58,77.3,57.4,76.4,57.2z
			 M9,64.4c-1.2,0-2.2-0.3-3.1-1c-2.4-1.7-2.8-4.9-2.8-5.1c0-0.3,0.1-0.6,0.4-0.7c0.1,0,2.1-0.9,4.1-0.1c0.7,0.3,1.3,0.8,1.8,1.4
			c1-2.5,3.5-3.2,4.8-3.2c0.3,0,0.5,0.2,0.6,0.5c0,0.1,0.9,3.1-0.5,5.5c-0.8,1.3-2.1,2.1-3.9,2.5C9.9,64.3,9.5,64.4,9,64.4z
			 M4.5,58.7c0.2,0.9,0.8,2.7,2.2,3.6c0.9,0.7,2.1,0.9,3.5,0.6c1.4-0.3,2.4-0.9,3-1.9c0.8-1.4,0.7-3.1,0.5-3.9
			c-1,0.2-3.1,0.8-3.4,3.7c0,0.3-0.3,0.5-0.6,0.6c-0.3,0-0.6-0.1-0.7-0.4c-0.5-1.1-1.1-1.8-2-2.2C6.1,58.4,5,58.6,4.5,58.7z
			 M84.4,55.2c-0.3,0-0.6,0-1,0c-2.1-0.2-3.7-1-4.6-2.4c-1.6-2.3-0.7-5.3-0.7-5.5c0.1-0.3,0.3-0.5,0.6-0.5c1.4-0.1,3.9,0.5,5,3
			c0.5-0.7,1.1-1.2,1.8-1.5c1.9-0.9,4-0.2,4.1-0.1c0.2,0.1,0.4,0.3,0.4,0.5c0,0.1,0.4,3.1-1.5,5C87.5,54.7,86.1,55.2,84.4,55.2z
			 M79.2,48.1c-0.1,0.8-0.3,2.6,0.6,3.9c0.7,1,1.9,1.6,3.7,1.8c1.8,0.2,3.1-0.2,4-1c1-1.1,1.2-2.7,1.1-3.5C88.1,49.1,87,49,86,49.5
			c-0.9,0.4-1.5,1.2-1.9,2.3c-0.1,0.3-0.4,0.5-0.7,0.4c-0.3,0-0.5-0.3-0.6-0.5C82.4,48.7,80.2,48.2,79.2,48.1z M7.1,55
			c-1.6,0-2.9-0.5-3.9-1.4c-2.1-1.9-2.1-4.9-2.1-5c0-0.3,0.2-0.5,0.4-0.6c0.1,0,2.1-0.8,4.1,0.1c0.7,0.3,1.3,0.8,1.8,1.5
			c1.1-2.5,3.6-3.1,5-3c0.3,0,0.5,0.2,0.6,0.4c0,0.1,1.1,3.1-0.3,5.4c-0.8,1.4-2.3,2.2-4.4,2.4C7.8,55,7.5,55,7.1,55z M2.5,49.1
			c0.1,0.8,0.4,2.5,1.6,3.5c0.9,0.8,2.3,1.2,4,0.9c1.7-0.2,2.8-0.8,3.4-1.8c0.8-1.3,0.5-3,0.3-3.8c-1,0.1-3.2,0.6-3.6,3.5
			C8.2,51.8,8,52,7.7,52c-0.3,0-0.6-0.2-0.7-0.4c-0.4-1.1-1-1.9-1.9-2.3C4.1,48.9,3.1,49,2.5,49.1z M83.5,44.9
			c-1.6,0-2.9-0.4-3.8-1.3c-1.9-1.7-1.8-4.5-1.8-4.6c0-0.3,0.2-0.5,0.4-0.6c1.3-0.5,3.8-0.9,5.7,1.1c0.2-0.8,0.6-1.5,1.2-2
			c1.5-1.5,3.7-1.5,3.8-1.5c0.3,0,0.5,0.2,0.6,0.4c0,0.1,1.3,3.3-0.2,5.8c-0.8,1.4-2.3,2.3-4.4,2.6C84.4,44.9,83.9,44.9,83.5,44.9z
			 M79.1,39.5c0.1,0.7,0.3,2.2,1.4,3.1c0.9,0.9,2.4,1.1,4.2,0.9c1.7-0.2,2.8-0.9,3.4-1.9c0.9-1.4,0.5-3.3,0.2-4.2
			c-0.6,0.1-1.6,0.3-2.4,1.1c-0.7,0.7-1,1.6-1,2.8c0,0.3-0.2,0.6-0.5,0.6c-0.3,0.1-0.6-0.1-0.7-0.3C82.4,39,80.1,39.3,79.1,39.5z
			 M6.8,44.9c-0.5,0-1.1,0-1.7-0.2c-2.2-0.4-3.7-1.3-4.5-2.8c-1.3-2.4-0.1-5.4,0-5.5C0.7,36.1,0.9,36,1.2,36c0.1,0,2.3,0,3.8,1.5
			c0.5,0.5,0.9,1.2,1.2,2c1.9-2,4.4-1.7,5.7-1.1c0.2,0.1,0.4,0.3,0.4,0.6c0,0.1,0.2,3-1.8,4.7C9.5,44.5,8.3,44.9,6.8,44.9z
			 M1.6,37.3c-0.2,0.8-0.6,2.6,0.1,4c0.6,1.1,1.8,1.8,3.6,2.1c1.9,0.3,3.3,0.1,4.2-0.8c1.1-1,1.3-2.5,1.3-3.3
			c-0.9-0.3-3.2-0.5-4.7,2.1c-0.2,0.3-0.4,0.4-0.7,0.3C5.2,41.7,5,41.5,5,41.2c0-1.2-0.3-2.1-1-2.8C3.3,37.6,2.2,37.4,1.6,37.3z
			 M9.2,36.1c-1,0-2.2-0.3-3.4-0.9c-1.9-0.9-3-2.2-3.3-3.8c-0.6-2.8,1.5-5.4,1.6-5.5c0.2-0.2,0.5-0.3,0.7-0.2c0.1,0,2.2,0.7,3.1,2.6
			c0.3,0.7,0.5,1.5,0.5,2.3c2.4-1.3,4.7-0.2,5.8,0.7c0.2,0.2,0.3,0.4,0.2,0.7c0,0.1-0.9,2.8-3.2,3.8C10.6,36,9.9,36.1,9.2,36.1z
			 M4.9,27.1c-0.5,0.7-1.4,2.4-1,4.1C4.1,32.3,5,33.3,6.5,34c1.6,0.8,3,1,4.2,0.5C12,34,12.7,32.6,13,32c-0.8-0.5-2.9-1.5-5,0.5
			c-0.2,0.2-0.5,0.2-0.8,0.1c-0.3-0.2-0.4-0.5-0.3-0.8c0.4-1.1,0.3-2.1-0.1-3C6.3,27.9,5.4,27.3,4.9,27.1z M80,36
			c-0.7,0-1.4-0.1-2.1-0.4c-2.4-1-3.3-3.5-3.3-3.6c-0.1-0.2,0-0.5,0.2-0.7c1-0.9,3.3-2,5.8-0.7c0-0.8,0.1-1.6,0.5-2.3
			c1-1.9,3-2.6,3.1-2.6c0.3-0.1,0.6,0,0.7,0.2c0.1,0.1,2.2,3.1,1.4,5.9c-0.4,1.5-1.5,2.6-3.2,3.4C82,35.8,81,36,80,36z M76,32.1
			c0.3,0.6,1.1,1.8,2.4,2.4c1.2,0.5,2.6,0.4,4.1-0.3c1.4-0.6,2.2-1.5,2.5-2.6c0.5-1.7-0.5-3.6-1-4.4c-0.5,0.3-1.4,0.8-1.9,1.8
			c-0.4,0.8-0.4,1.8-0.1,2.9c0.1,0.3,0,0.6-0.3,0.8c-0.3,0.2-0.6,0.1-0.8-0.1C78.9,30.6,76.9,31.5,76,32.1z"/>
		<path class="st1" d="M37.6,63.3H25.3V39.4h12.3V63.3z M27.3,61.3h8.3v-20h-8.3V61.3z"/>
		<path class="st1" d="M34.7,58.3h-1.9v1.9h1.9V58.3z"/>
		<path class="st1" d="M60.7,63.3H47.3c-1.5,0-3-0.6-4-1.7l-4.7-5.2c-0.2-0.3-0.5-0.4-0.8-0.5l-1.5-0.5l0.6-1.9l1.5,0.5
			c0.6,0.2,1.2,0.6,1.7,1.1l4.7,5.2c0.7,0.7,1.6,1.1,2.5,1.1h12.8l0,0c0.3-0.2,0.4-0.6,0.3-0.9l-0.2-0.6c-0.4-1.1-0.3-2.3,0.5-3.2
			l1-1.2c0.2-0.3,0.3-0.6,0.1-1l-0.4-0.8c-0.5-1-0.3-2.2,0.5-3l0.6-0.6c0.2-0.2,0.3-0.5,0.1-0.8l-0.2-0.4c-0.5-0.9-0.4-2,0.2-2.8
			l1-1.3c0.3-0.3,0.3-0.8,0-1.2L63,42.9c-0.2-0.2-0.5-0.3-0.7-0.3h-9.9v-8.8c0-2.6-1.3-4.4-3.7-5c-0.4-0.1-0.6-0.1-0.7-0.1
			c-0.1,0.3-0.1,1.3-0.2,2.2c0,1.1-0.1,2.4-0.2,4.1c-0.4,4.6-2.6,7.1-4.2,8.5c-0.9,0.8-2,1.2-3.2,1.2h-3.4v-2h3.4
			c0.7,0,1.4-0.3,1.9-0.7c1.5-1.4,3.2-3.4,3.6-7.3c0.2-1.7,0.2-3,0.2-4c0.1-2,0.1-3.1,0.9-3.8c0.7-0.5,1.6-0.4,2.4-0.2
			c3.2,0.9,5.1,3.4,5.1,6.9v6.9h7.9c0.9,0,1.7,0.4,2.3,1.1l0.5,0.7c0.8,1,0.9,2.5,0,3.6l-1,1.3c-0.2,0.2-0.2,0.5-0.1,0.7l0.2,0.4
			c0.5,1,0.3,2.3-0.5,3.1l-0.6,0.6c-0.2,0.2-0.2,0.5-0.1,0.7l0.4,0.8c0.5,1,0.4,2.2-0.3,3.1l-1,1.2c-0.3,0.3-0.3,0.8-0.2,1.2
			l0.2,0.6c0.5,1.2,0,2.7-1.1,3.4L60.7,63.3z"/>
		<path class="st1" d="M17.6,7.8c0.2,0.2,0.5,0.3,1,0.5c0.1,0,0.2,0.1,0.3,0.1c0.3,0.1,0.5,0.2,0.7,0.4c0.1,0.1,0.2,0.3,0.2,0.5
			c0,0.2-0.1,0.3-0.2,0.5c-0.1,0.1-0.3,0.2-0.5,0.2c-0.2,0-0.4-0.1-0.5-0.2c-0.1-0.1-0.2-0.4-0.2-0.7V8.8H17v1.6
			c0.3,0.2,0.6,0.4,1,0.5c0.3,0.1,0.7,0.2,1.1,0.2c0.6,0,1.1-0.2,1.5-0.5c0.4-0.3,0.6-0.8,0.6-1.4c0-0.5-0.1-0.9-0.3-1.2
			c-0.2-0.3-0.7-0.5-1.3-0.7c-0.5-0.2-0.8-0.3-0.9-0.4c-0.1-0.1-0.2-0.2-0.2-0.4c0-0.2,0.1-0.3,0.2-0.4c0.1-0.1,0.3-0.2,0.5-0.2
			c0.2,0,0.4,0.1,0.5,0.2c0.1,0.1,0.2,0.3,0.2,0.6v0.1h1.4V5.3c-0.3-0.2-0.6-0.4-1-0.5c-0.3-0.1-0.7-0.2-1.1-0.2
			c-0.6,0-1.2,0.2-1.5,0.5C17.2,5.5,17,5.9,17,6.5c0,0.3,0,0.5,0.2,0.7C17.2,7.4,17.4,7.6,17.6,7.8z M23.8,9.9c-0.1,0-0.2,0-0.3-0.1
			c0,0-0.1-0.1-0.1-0.2c0,0,0,0,0-0.1c0,0,0-0.1,0-0.1l0-0.2h1.2l0,0.3c0,0,0,0.1,0,0.1c0,0,0,0.1,0,0.1c0,0.1,0,0.2-0.1,0.2
			c-0.1,0-0.1,0.1-0.2,0.1v1h2.1v-1c-0.1,0-0.2-0.1-0.2-0.2s-0.1-0.2-0.1-0.4l-1-4.6h-2.1l-0.9,4.5c0,0.2-0.1,0.4-0.2,0.5
			c0,0.1-0.1,0.1-0.2,0.2v1h1.9V9.9L23.8,9.9z M24.1,6l0.4,2.4h-0.9L24.1,6z M28.1,6.7c0-0.2,0-0.4,0.1-0.5C28.3,6,28.5,6,28.7,6
			v3.3c0,0.3,0,0.4-0.1,0.5c0,0.1-0.1,0.1-0.2,0.2v1h2.1v-1c-0.1,0-0.2-0.1-0.2-0.2c0-0.1-0.1-0.2-0.1-0.5V6c0.2,0,0.3,0.1,0.4,0.2
			c0.1,0.1,0.1,0.3,0.1,0.5v0.6h1.1V4.8h-4.9v2.5h1.2V6.7L28.1,6.7z M34.6,9.9c-0.1,0-0.2-0.1-0.2-0.2s-0.1-0.2-0.1-0.5V6.4
			c0-0.3,0-0.4,0.1-0.5c0-0.1,0.1-0.1,0.2-0.2v-1h-2.1v1c0.1,0,0.2,0.1,0.2,0.2c0,0.1,0.1,0.2,0.1,0.5v2.9c0,0.3,0,0.4-0.1,0.5
			c0,0.1-0.1,0.1-0.2,0.2v1h2.1V9.9z M38.1,7.3c-0.5-0.2-0.8-0.3-0.9-0.4C37.1,6.7,37,6.6,37,6.4c0-0.2,0.1-0.3,0.2-0.4
			c0.1-0.1,0.3-0.2,0.5-0.2c0.2,0,0.4,0.1,0.5,0.2c0.1,0.1,0.2,0.3,0.2,0.6v0.1h1.4V5.3c-0.3-0.2-0.6-0.4-1-0.5
			c-0.3-0.1-0.7-0.2-1.1-0.2c-0.6,0-1.2,0.2-1.5,0.5c-0.4,0.3-0.6,0.8-0.6,1.3c0,0.3,0,0.5,0.2,0.7c0.1,0.2,0.2,0.4,0.5,0.5
			c0.2,0.2,0.5,0.3,1,0.5c0.1,0,0.2,0.1,0.3,0.1c0.3,0.1,0.5,0.2,0.7,0.4c0.1,0.1,0.2,0.3,0.2,0.5c0,0.2-0.1,0.3-0.2,0.5
			c-0.1,0.1-0.3,0.2-0.5,0.2c-0.2,0-0.4-0.1-0.5-0.2C37.1,9.5,37,9.2,37,9V8.8h-1.4v1.6c0.3,0.2,0.6,0.4,1,0.5
			c0.3,0.1,0.7,0.2,1.1,0.2c0.6,0,1.1-0.2,1.5-0.5c0.4-0.3,0.6-0.8,0.6-1.4c0-0.5-0.1-0.9-0.3-1.2C39.2,7.8,38.8,7.5,38.1,7.3z
			 M42.8,9.9c-0.1,0-0.2-0.1-0.2-0.2c0-0.1-0.1-0.3-0.1-0.5v-1h1.6v-1h-1.6V6H43c0.3,0,0.4,0,0.5,0.2c0.1,0.1,0.2,0.3,0.2,0.5v0.1
			H45V4.8h-4.3v1c0.1,0,0.2,0.1,0.2,0.2C41,6,41,6.2,41,6.4v2.9c0,0.3,0,0.4-0.1,0.5c0,0.1-0.1,0.1-0.2,0.2v1h2.1L42.8,9.9L42.8,9.9
			z M47,9.6C47,9.6,47,9.6,47,9.6c0-0.1,0-0.2,0-0.2l0-0.2h1.2l0,0.3c0,0,0,0.1,0,0.1c0,0,0,0.1,0,0.1c0,0.1,0,0.2-0.1,0.2
			c-0.1,0-0.1,0.1-0.2,0.1v1h2.1v-1c-0.1,0-0.2-0.1-0.2-0.2c0-0.1-0.1-0.2-0.1-0.4l-1-4.6h-2.1l-0.9,4.5c0,0.2-0.1,0.4-0.2,0.5
			c0,0.1-0.1,0.1-0.2,0.2v1h1.9v-1c-0.1,0-0.2,0-0.3-0.1C47.1,9.8,47,9.7,47,9.6z M47.7,6l0.4,2.4h-0.9L47.7,6z M52.8,4.7
			c-0.5,0-0.9,0.1-1.2,0.2C51.4,5,51.1,5.2,51,5.4c-0.1,0.2-0.2,0.3-0.2,0.5c0,0.2-0.1,0.5-0.1,1v2c0,0.5,0,0.9,0.1,1
			c0,0.2,0.1,0.4,0.3,0.5c0.2,0.2,0.4,0.3,0.7,0.5c0.3,0.1,0.7,0.2,1.1,0.2c0.3,0,0.7,0,1-0.1c0.3-0.1,0.7-0.2,1-0.3V8.5h-1.3v0.4
			c0,0.3,0,0.6-0.2,0.7c-0.1,0.1-0.3,0.2-0.5,0.2c-0.2,0-0.4-0.1-0.5-0.2c-0.1-0.1-0.2-0.4-0.2-0.7V6.8c0-0.3,0-0.5,0.2-0.7
			c0.1-0.1,0.3-0.2,0.5-0.2c0.2,0,0.4,0.1,0.5,0.2c0.1,0.1,0.2,0.3,0.2,0.6v0.1h1.4V5.1c-0.3-0.2-0.7-0.3-1-0.3
			C53.5,4.7,53.2,4.7,52.8,4.7z M56.8,6.7c0-0.2,0-0.4,0.1-0.5C57,6,57.2,6,57.4,6v3.3c0,0.3,0,0.4-0.1,0.5c0,0.1-0.1,0.1-0.2,0.2v1
			h2.1v-1c-0.1,0-0.2-0.1-0.2-0.2c0-0.1-0.1-0.2-0.1-0.5V6C59,6,59.2,6,59.3,6.1c0.1,0.1,0.1,0.3,0.1,0.5v0.6h1.1V4.8h-4.9v2.5h1.2
			V6.7L56.8,6.7z M63.4,9.9c-0.1,0-0.2-0.1-0.2-0.2c0-0.1-0.1-0.2-0.1-0.5V6.4c0-0.3,0-0.4,0.1-0.5c0-0.1,0.1-0.1,0.2-0.2v-1h-2.1v1
			c0.1,0,0.2,0.1,0.2,0.2c0,0.1,0.1,0.2,0.1,0.5v2.9c0,0.3,0,0.4-0.1,0.5c0,0.1-0.1,0.1-0.2,0.2v1h2.1V9.9z M64.7,10.5
			c0.2,0.2,0.4,0.3,0.7,0.5c0.3,0.1,0.7,0.2,1.1,0.2c0.4,0,0.8,0,1.1-0.2c0.3-0.1,0.5-0.2,0.7-0.5c0.1-0.2,0.2-0.3,0.3-0.5
			c0-0.2,0.1-0.6,0.1-1v-2c0-0.5,0-0.8-0.1-1c0-0.2-0.1-0.4-0.3-0.5c-0.2-0.2-0.4-0.3-0.7-0.5c-0.3-0.1-0.6-0.2-1.1-0.2
			c-0.4,0-0.8,0-1.1,0.2c-0.3,0.1-0.5,0.2-0.7,0.5c-0.1,0.2-0.2,0.3-0.3,0.5c0,0.2-0.1,0.6-0.1,1.1v2c0,0.5,0,0.9,0.1,1.1
			C64.5,10.2,64.5,10.3,64.7,10.5z M65.8,6.8c0-0.3,0-0.5,0.2-0.7C66,6,66.2,5.9,66.4,5.9c0.2,0,0.4,0.1,0.5,0.2
			c0.1,0.1,0.2,0.4,0.2,0.7V9c0,0.3,0,0.6-0.2,0.7c-0.1,0.1-0.3,0.2-0.5,0.2c-0.2,0-0.4-0.1-0.5-0.2c-0.1-0.1-0.2-0.4-0.2-0.7V6.8z
			 M69.7,9.8c0,0.1-0.1,0.1-0.2,0.2v1h1.9v-1c-0.1,0-0.2-0.1-0.3-0.2c0-0.1-0.1-0.2-0.1-0.5V7.5l1.6,3.5h1.3V6.5
			c0-0.3,0-0.4,0.1-0.5c0-0.1,0.1-0.1,0.3-0.2v-1h-2v1c0.1,0,0.2,0.1,0.3,0.2c0,0.1,0.1,0.2,0.1,0.5v1.9L71,4.8h-1.6v1
			c0.1,0,0.2,0.1,0.2,0.2c0,0.1,0.1,0.2,0.1,0.4v3C69.7,9.6,69.7,9.7,69.7,9.8z M22.6,14.3c0.1,0,0.2,0.1,0.3,0.2
			c0,0.1,0.1,0.2,0.1,0.3c0,0,0,0.1,0,0.2c0,0.1,0,0.2,0,0.2L22.4,19l-1.1-6.1h-1.5l-1,6.1l-0.7-4c0-0.1,0-0.1,0-0.2s0-0.1,0-0.2
			c0-0.2,0-0.2,0.1-0.3c0-0.1,0.2-0.1,0.3-0.1v-1.4h-2.8v1.4c0.1,0,0.2,0.1,0.3,0.2c0.1,0.1,0.1,0.3,0.2,0.5l1.2,6.4h2.3l0.7-4.7
			l0.9,4.7h2.3l1-6.3c0-0.3,0.1-0.5,0.2-0.6c0.1-0.1,0.2-0.2,0.3-0.2v-1.4h-2.5L22.6,14.3L22.6,14.3z M31.8,19.7
			c-0.1-0.1-0.1-0.3-0.2-0.5l-1.3-6.3h-2.9l-1.2,6.2c-0.1,0.3-0.1,0.5-0.2,0.7s-0.2,0.2-0.3,0.2v1.4h2.6V20c-0.2,0-0.3,0-0.3-0.1
			c-0.1-0.1-0.1-0.2-0.1-0.3c0,0,0-0.1,0-0.1c0,0,0-0.1,0-0.2l0.1-0.3h1.6l0.1,0.3c0,0,0,0.1,0,0.1c0,0,0,0.1,0,0.1
			c0,0.1,0,0.2-0.1,0.3c-0.1,0.1-0.2,0.1-0.3,0.1v1.4h2.9V20C32,19.9,31.9,19.8,31.8,19.7z M28.1,17.7l0.6-3.3l0.6,3.3H28.1z
			 M38.9,19.7c0-0.1-0.1-0.3-0.1-0.7v-0.5c0-0.4-0.1-0.7-0.2-0.9c-0.2-0.2-0.4-0.3-0.9-0.4c0.4-0.1,0.7-0.3,1-0.7
			c0.2-0.3,0.3-0.8,0.3-1.3c0-0.9-0.2-1.5-0.7-1.9c-0.4-0.4-1.2-0.6-2.1-0.6h-3.3v1.4c0.2,0,0.3,0.1,0.3,0.2
			c0.1,0.1,0.1,0.3,0.1,0.7v3.9c0,0.3,0,0.6-0.1,0.7c-0.1,0.1-0.2,0.2-0.3,0.2v1.4h2.8V20c-0.2,0-0.3-0.1-0.3-0.2
			c-0.1-0.1-0.1-0.3-0.1-0.7V18h0.6c0.4,0,0.7,0.1,0.8,0.2c0.1,0.1,0.2,0.4,0.2,0.9v1.1c0,0.4,0,0.6,0,0.8c0,0.2,0.1,0.3,0.1,0.4
			h2.1V20C39.1,19.9,39,19.8,38.9,19.7z M36.9,16.3c-0.2,0.2-0.4,0.2-0.8,0.2h-0.8v-2h0.8c0.3,0,0.6,0.1,0.8,0.3
			c0.2,0.2,0.2,0.4,0.2,0.8C37.1,15.9,37,16.1,36.9,16.3z M46.5,19.7c0-0.1-0.1-0.3-0.1-0.7v-0.5c0-0.4-0.1-0.7-0.2-0.9
			c-0.2-0.2-0.4-0.3-0.9-0.4c0.4-0.1,0.7-0.3,1-0.7c0.2-0.3,0.3-0.8,0.3-1.3c0-0.9-0.2-1.5-0.7-1.9c-0.4-0.4-1.2-0.6-2.1-0.6h-3.3
			v1.4c0.2,0,0.3,0.1,0.3,0.2c0.1,0.1,0.1,0.3,0.1,0.7v3.9c0,0.3,0,0.6-0.1,0.7c-0.1,0.1-0.2,0.2-0.3,0.2v1.4h2.8V20
			c-0.2,0-0.3-0.1-0.3-0.2c-0.1-0.1-0.1-0.3-0.1-0.7V18h0.6c0.4,0,0.7,0.1,0.8,0.2c0.1,0.1,0.2,0.4,0.2,0.9v1.1c0,0.4,0,0.6,0,0.8
			c0,0.2,0.1,0.3,0.1,0.4h2.1V20C46.6,19.9,46.5,19.8,46.5,19.7z M44.4,16.3c-0.2,0.2-0.4,0.2-0.8,0.2h-0.8v-2h0.8
			c0.3,0,0.6,0.1,0.8,0.3c0.2,0.2,0.2,0.4,0.2,0.8C44.7,15.9,44.6,16.1,44.4,16.3z M53.8,19.7c-0.1-0.1-0.1-0.3-0.2-0.5l-1.3-6.3
			h-2.9l-1.2,6.2c-0.1,0.3-0.1,0.5-0.2,0.7c-0.1,0.1-0.2,0.2-0.3,0.2v1.4h2.6V20c-0.2,0-0.3,0-0.3-0.1c-0.1-0.1-0.1-0.2-0.1-0.3
			c0,0,0-0.1,0-0.1c0,0,0-0.1,0-0.2l0.1-0.3h1.6l0.1,0.3c0,0,0,0.1,0,0.1c0,0,0,0.1,0,0.1c0,0.1,0,0.2-0.1,0.3
			c-0.1,0.1-0.2,0.1-0.3,0.1v1.4h2.9V20C54,19.9,53.9,19.8,53.8,19.7z M50.1,17.7l0.6-3.3l0.6,3.3H50.1z M58.8,14.3
			c0.2,0,0.3,0.1,0.3,0.2c0.1,0.1,0.1,0.3,0.1,0.6v2.6l-2.1-4.8h-2.2v1.4c0.2,0,0.3,0.1,0.3,0.2c0.1,0.1,0.1,0.3,0.1,0.5v4.1
			c0,0.3,0,0.6-0.1,0.7c-0.1,0.1-0.2,0.2-0.3,0.2v1.4h2.7v-1.4c-0.2,0-0.3-0.1-0.3-0.2c-0.1-0.1-0.1-0.3-0.1-0.7v-2.5l2.1,4.8h1.8
			v-6.2c0-0.4,0-0.6,0.1-0.7c0.1-0.1,0.2-0.2,0.4-0.2v-1.4h-2.7V14.3z M62.5,16.3H64v-0.9c0-0.3,0.1-0.6,0.2-0.7
			c0.1-0.2,0.3-0.2,0.6-0.2v4.6c0,0.3,0,0.6-0.1,0.7c-0.1,0.1-0.2,0.2-0.3,0.2v1.4h2.8V20c-0.2,0-0.3-0.1-0.3-0.2
			c-0.1-0.1-0.1-0.3-0.1-0.7v-4.6c0.3,0,0.5,0.1,0.6,0.2c0.1,0.2,0.2,0.4,0.2,0.7v0.9h1.6v-3.4h-6.7V16.3z M73.7,12.9v1
			c0,0.2,0,0.4,0,0.5c0,0.2-0.1,0.3-0.1,0.4L72.9,16l-0.6-1.2c-0.1-0.1-0.1-0.2-0.1-0.4c0-0.1,0-0.3,0-0.5v-1h-2.5v1.4
			c0.1,0,0.2,0.1,0.2,0.2c0.1,0.1,0.2,0.2,0.2,0.3l1.7,3.4v1c0,0.3,0,0.4-0.1,0.6c-0.1,0.1-0.2,0.2-0.3,0.2v1.4h2.8V20
			c-0.2,0-0.3-0.1-0.3-0.2c-0.1-0.1-0.1-0.3-0.1-0.6V18l1.6-3.3c0.1-0.2,0.2-0.3,0.2-0.3c0.1-0.1,0.2-0.1,0.2-0.2v-1.4H73.7
			L73.7,12.9z"/>
		<path class="st1" d="M34.7,58.3h-1.9v1.9h1.9V58.3z"/>
	</g>
</g>
</svg>
