<svg width="15" height="16" viewBox="0 0 15 16" fill="none" xmlns="http://www.w3.org/2000/svg">
<g clip-path="url(#clip0)">
<path d="M5.17479 3.17918C5.20892 3.09386 5.24305 3.00853 5.27718 2.94027C5.7038 2.06997 6.53998 1.52389 7.49561 1.52389C8.53657 1.52389 9.47514 2.20648 9.8335 3.21331L9.88469 3.36689L10.8574 3.04266L10.8062 2.88908C10.3113 1.45563 8.98026 0.5 7.49561 0.5C6.14749 0.5 4.93589 1.26792 4.35568 2.49659C4.30449 2.61604 4.25329 2.71843 4.21916 2.83788L4.16797 2.99147L5.14066 3.33276L5.17479 3.17918Z" fill="#006DC9"/>
<path d="M12.3242 14.4931V11.4044C12.3242 9.27129 10.2765 7.59893 7.66553 7.59893C7.64846 7.59893 7.61433 7.59893 7.59727 7.59893C8.79181 7.5648 9.90102 6.89927 10.5154 5.84125C10.5495 5.77299 10.6007 5.68767 10.6348 5.61941L10.7031 5.46583L9.78157 5.02214L9.71331 5.17573C9.67918 5.22692 9.66212 5.27811 9.62799 5.32931C9.1843 6.09723 8.36519 6.57504 7.49488 6.57504C6.60751 6.57504 5.7884 6.09723 5.36177 5.31224L5.25939 4.97095L4.26962 5.24398L4.38908 5.65354L4.42321 5.75593C5.03754 6.89927 6.19795 7.59893 7.46075 7.59893C4.95222 7.68426 2.93857 9.35661 2.93857 11.4044L2.95563 14.4761H2V15.5H13.2628V14.4761H12.3242V14.4931ZM3.96246 11.575C3.96246 11.558 3.96246 11.5409 3.96246 11.5068V11.4044C3.96246 9.86856 5.61775 8.62282 7.66553 8.62282C9.69625 8.62282 11.3003 9.83443 11.3003 11.4044V14.4931H3.97952L3.96246 11.575Z" fill="#006DC9"/>
<path d="M8.43 3.46978C8.4812 3.40152 8.54946 3.35032 8.63478 3.35032H10.9044C11.058 3.35032 11.1774 3.48684 11.1604 3.64043L10.9897 4.80084C10.9727 4.92029 10.8703 5.02268 10.7338 5.02268H8.68598C8.58359 5.02268 8.49826 4.97148 8.46413 4.88616L8.08871 4.16944C8.03751 4.08411 8.05458 3.98172 8.10577 3.91346L8.43 3.46978ZM8.46413 2.83838C8.32762 2.83838 8.1911 2.90664 8.10577 3.02609L7.59383 3.77695C7.5085 3.91346 7.49144 4.08411 7.5597 4.22063L8.12284 5.29572C8.1911 5.43224 8.34468 5.53462 8.49826 5.53462H11.0409C11.2628 5.53462 11.4334 5.38104 11.4675 5.1592L11.7406 3.33326C11.7747 3.07729 11.5699 2.83838 11.314 2.83838H8.46413Z" fill="#006DC9"/>
<path d="M11.0419 5.70529H8.49922C8.27738 5.70529 8.0726 5.58584 7.97021 5.38106L7.40707 4.30597C7.30469 4.1012 7.32175 3.87935 7.4412 3.69164L7.95315 2.94079C8.0726 2.77014 8.26032 2.68481 8.44803 2.68481H11.2979C11.4685 2.68481 11.6392 2.75307 11.7586 2.88959C11.8781 3.02611 11.9293 3.19676 11.8951 3.36741L11.6221 5.19335C11.588 5.48345 11.332 5.70529 11.0419 5.70529ZM8.4651 3.00905C8.37977 3.00905 8.29445 3.04318 8.24325 3.1285L7.73131 3.87935C7.68011 3.96468 7.66305 4.06707 7.71424 4.15239L8.27738 5.22748C8.32858 5.3128 8.4139 5.364 8.51629 5.364H11.0419C11.1613 5.364 11.2808 5.26161 11.2979 5.14215L11.5709 3.31621C11.588 3.24795 11.5538 3.16263 11.5026 3.11144C11.4514 3.06024 11.3832 3.02611 11.2979 3.02611H8.4651V3.00905ZM10.7518 5.19335H8.704C8.55042 5.19335 8.39684 5.10802 8.32858 4.9715L7.97021 4.25478C7.90195 4.11826 7.90195 3.94761 8.00434 3.82816L8.31151 3.38447C8.39684 3.26502 8.51629 3.19676 8.66987 3.19676H10.9395C11.059 3.19676 11.1784 3.24795 11.2637 3.35034C11.3491 3.43567 11.3832 3.57219 11.3661 3.69164L11.1955 4.85205C11.1443 5.03976 10.9566 5.19335 10.7518 5.19335ZM8.65281 3.52099C8.61868 3.52099 8.60161 3.53806 8.58455 3.55512L8.27738 3.99881C8.26032 4.01587 8.26032 4.05 8.27738 4.08413L8.65281 4.80086C8.66987 4.83499 8.68694 4.85205 8.72107 4.85205H10.7688C10.803 4.85205 10.8371 4.81792 10.8542 4.78379L11.0248 3.62338C11.0248 3.58925 11.0078 3.57219 11.0078 3.55512C11.0078 3.53806 10.9736 3.52099 10.9395 3.52099H8.65281Z" fill="#006DC9"/>
<path d="M6.65859 3.91322C6.70978 3.99854 6.70978 4.08387 6.67565 4.16919L6.30022 4.88592C6.24903 4.97124 6.1637 5.02243 6.07838 5.02243H4.0306C3.91114 5.02243 3.79169 4.93711 3.77463 4.80059L3.60398 3.64018C3.58691 3.4866 3.70637 3.35008 3.85995 3.35008H6.12958C6.2149 3.35008 6.30022 3.38421 6.33435 3.46953L6.65859 3.91322ZM3.46746 2.83813C3.21149 2.83813 3.00671 3.07704 3.04084 3.33302L3.31388 5.15895C3.348 5.36373 3.51865 5.53438 3.7405 5.53438H6.28316C6.43674 5.53438 6.59033 5.44906 6.65859 5.29547L7.22173 4.22039C7.28998 4.08387 7.28998 3.91322 7.1876 3.7767L6.67565 3.02585C6.59033 2.90639 6.45381 2.83813 6.31729 2.83813H3.46746Z" fill="#006DC9"/>
<path d="M6.28284 5.7048H3.74017C3.45007 5.7048 3.1941 5.48296 3.14291 5.19286L2.88693 3.36692C2.86987 3.19627 2.904 3.02562 3.02345 2.8891C3.14291 2.75259 3.29649 2.68433 3.4842 2.68433H6.33403C6.53881 2.68433 6.72652 2.78672 6.82891 2.9403L7.34086 3.69115C7.46031 3.87887 7.47738 4.11777 7.37499 4.30549L6.81185 5.38057C6.70946 5.58535 6.50468 5.7048 6.28284 5.7048ZM3.46714 3.00856C3.39888 3.00856 3.31355 3.04269 3.26236 3.09388C3.21116 3.14508 3.1941 3.2304 3.1941 3.29866L3.46714 5.1246C3.4842 5.24405 3.60366 5.34644 3.72311 5.34644H6.26577C6.36816 5.34644 6.45349 5.29525 6.50468 5.20992L7.06782 4.13484C7.11901 4.04951 7.10195 3.94712 7.05076 3.8618L6.53881 3.11095C6.48762 3.04269 6.40229 2.99149 6.31697 2.99149H3.46714V3.00856ZM6.07806 5.19286H4.03028C3.8255 5.19286 3.63779 5.03927 3.60366 4.8345L3.43301 3.67409C3.41594 3.55463 3.45007 3.43518 3.5354 3.33279C3.62072 3.24747 3.74017 3.17921 3.85963 3.17921H6.12925C6.26577 3.17921 6.40229 3.24747 6.48762 3.36692L6.79478 3.81061C6.88011 3.94712 6.89717 4.10071 6.82891 4.23723L6.45349 4.95395C6.38523 5.10753 6.23164 5.19286 6.07806 5.19286ZM3.85963 3.5205C3.8255 3.5205 3.80843 3.53757 3.79137 3.55463C3.7743 3.5717 3.7743 3.58876 3.7743 3.62289L3.94495 4.7833C3.94495 4.81743 3.97908 4.85156 4.03028 4.85156H6.07806C6.11219 4.85156 6.12925 4.8345 6.14632 4.80037L6.52175 4.08364C6.53881 4.04951 6.53881 4.03245 6.52175 3.99832L6.21458 3.55463C6.19751 3.53757 6.18045 3.5205 6.14632 3.5205H3.85963Z" fill="#006DC9"/>
<path d="M7 4.22037V3.82788H7.78498V4.22037H7Z" fill="#006DC9"/>
</g>
<defs>
<clipPath id="clip0">
<rect width="15" height="15" fill="white" transform="translate(0 0.5)"/>
</clipPath>
</defs>
</svg>
