<?xml version="1.0" encoding="utf-8"?>
<!-- Generator: Adobe Illustrator 26.0.1, SVG Export Plug-In . SVG Version: 6.00 Build 0)  -->
<svg version="1.1" id="圖層_2" xmlns="http://www.w3.org/2000/svg" xmlns:xlink="http://www.w3.org/1999/xlink" x="0px" y="0px"
	 viewBox="0 0 35 35" style="enable-background:new 0 0 35 35;" xml:space="preserve">
<style type="text/css">
	.st0{fill:#006DC9;}
	.st1{fill:#EF3D3B;}
</style>
<g id="人氣推薦_1_">
	<g>
		<path class="st0" d="M4.1,28.8h1.8v1.8H4.1V28.8z"/>
	</g>
	<path class="st0" d="M29.4,33.8H9.4v-2.5h19.9c1.4,0,1.4-0.2,1.5-0.7c0,0-0.2-0.2-0.4-0.2c-0.4-0.2-1.3-0.8-1.1-1.9
		c0.2-0.9,1-1.2,1.5-1.4c0.7-0.2,0.7-0.3,0.7-0.5c0-0.3,0-0.3,0-0.3c0,0-0.1-0.1-0.2-0.1c-0.8-0.5-1.1-1.1-1-1.9
		c0.2-0.9,1-1.3,1.4-1.4c0.6-0.2,0.7-0.3,0.7-0.9c0-0.6-0.1-0.7-0.5-0.9c-0.3-0.2-1.3-0.7-1.1-1.8c0.1-0.6,0.5-1.1,0.8-1.5
		c0.4-0.5,0.8-1,0.8-1.8c0-1-0.8-1.2-1-1.3H26c-1.1,0-1.7-0.5-2.1-0.9c-1.2-1.4-0.7-3.9-0.2-6.3c0.1-0.3,0.1-0.7,0.2-1
		c0.3-1.7-0.4-2.8-0.7-3.1c-0.3-0.4-0.6-0.5-0.7-0.5c-1,0-1.3,1.8-1.3,1.8l0,0.1c0,0.1-0.7,3.2-2.2,6.2c-3.7,7.5-9.5,7-9.8,7
		l0.2-2.5c0.2,0,4.4,0.3,7.3-5.6c1.3-2.5,1.9-5.2,2-5.6c0.2-1.4,1.2-4,3.8-4c0.9,0,1.9,0.5,2.6,1.4c1.1,1.3,1.5,3.3,1.2,5.1
		c-0.1,0.3-0.1,0.7-0.2,1c-0.2,1.1-0.8,3.8-0.3,4.2c0,0,0,0,0.2,0h5.5c1,0,3.4,1.1,3.4,3.8c0,1.5-0.7,2.5-1.2,3.2
		c0.6,0.4,1.3,1.2,1.3,2.8c0,1.6-0.7,2.3-1.4,2.8c0.3,0.4,0.6,1,0.6,1.9c0,1.2-0.6,1.9-1.2,2.4c0.4,0.4,0.7,1.1,0.6,2
		C32.9,33.8,30.4,33.8,29.4,33.8z M31.4,14.8C31.4,14.8,31.4,14.8,31.4,14.8L31.4,14.8z"/>
	<path class="st0" d="M7.2,16.3v15.5H2.6V16.3H7.2 M9.7,13.8H0.1v20.5h9.6V13.8L9.7,13.8z"/>
</g>
<g>
	<path class="st1" d="M27.3,19.8h-2.9v-0.4c0,0-0.2-0.2-0.3-0.3c0-0.1,0-0.3,0-0.3c0-0.3-0.1-0.7-0.2-0.9c-0.1-0.2-0.2-0.5-0.3-0.6
		c0-0.1,0-0.6,0-0.6l-0.2-0.2C23,16.3,22.3,16.1,22,16L21.7,16l-0.2,0.2c-0.3,0.4-0.7,0.8-1.1,1.2c-0.5,0.5-1,1-1.3,1.5l0,0.1
		l-0.3,0.9h-3.2c-0.2,0-0.5,0.1-0.6,0.3c-0.1,0.2-0.2,0.4-0.1,0.7c0,0,0.6,2.8,0.6,2.8c0.1,0.4,0.5,0.7,0.9,0.7h1.4v0.1l1.8,2.6
		c0,0,0.5,0.3,0.7,0.3c0.1,0.3,0.7,1.6,0.7,1.6s0.2,0,0.3,0c0,0.1,0,0.4,0,0.4h1.7c0,0,0-1.7,0-2c0.1-0.2,1.4-2.4,1.8-3h2
		c0.4,0,0.9-0.4,0.9-0.8l0,0.1l0.6-2.9v-0.1C28.1,20.2,27.8,19.8,27.3,19.8z M19.9,19.4c0.3-0.4,0.7-0.9,1.2-1.3
		c0.3-0.3,0.6-0.6,0.9-1c0.2,0.1,0.4,0.1,0.6,0.2c0,0,0,0.3,0,0.3l0.1,0.1c0.1,0.2,0.2,0.4,0.2,0.5l0,0.1l0,0.1
		c0.1,0.2,0.1,0.4,0.1,0.5v0.6c0,0,0.2,0.2,0.3,0.3v0.1c-0.4,0-0.8,0.4-0.9,0.6l0-0.1l-0.7,0.9c-0.3,0-0.6,0-0.8,0
		c-0.2-0.3-0.7-0.9-0.7-0.9l0,0.1c-0.1-0.2-0.3-0.4-0.6-0.5C19.8,19.7,19.9,19.5,19.9,19.4z M16.3,23.3c0-0.1-0.4-2-0.5-2.5h3.6
		c0,0,0.1,0.1,0.1,0.1l0,0c0,0,0.4,0.5,0.6,0.9c-0.1,0.1-0.2,0.3-0.2,0.3s-0.7,1.1-0.8,1.2c0,0,0,0,0,0S16.4,23.3,16.3,23.3z
		 M21.8,27.1c0,0,0,0.5,0,0.9h-0.4c-0.2-0.4-0.6-1.3-0.6-1.3s-0.6-0.3-0.8-0.4c-0.1-0.2-0.9-1.4-1.3-1.9h0.4c0.4,0,0.6-0.2,0.7-0.3
		l0.1,0l0-0.1l0.8-1.3c0,0,0.1-0.2,0.2-0.3c0.2,0,0.6,0,0.8,0l0,0l1,1.6l0,0c0.1,0.1,0.3,0.2,0.6,0.3L21.8,27.1z M26.5,23.3
		c-0.1,0-2.8,0-2.8,0s0,0,0,0c-0.1-0.1-0.9-1.5-0.9-1.5c0.2-0.3,0.6-0.9,0.6-0.9l0,0c0,0,0.1-0.1,0.1-0.1h3.6
		C27,21.3,26.5,23.2,26.5,23.3z"/>
</g>
</svg>
