<?xml version="1.0" encoding="utf-8"?>
<!-- Generator: Adobe Illustrator 25.0.1, SVG Export Plug-In . SVG Version: 6.00 Build 0)  -->
<svg version="1.1" id="圖層_1" xmlns="http://www.w3.org/2000/svg" xmlns:xlink="http://www.w3.org/1999/xlink" x="0px" y="0px"
	 viewBox="0 0 65 65" style="enable-background:new 0 0 65 65;" xml:space="preserve">
<style type="text/css">
	.st0{fill:#9E9E9E;}
</style>
<g>
	<path class="st0" d="M65,32.5c0,14.5-9.5,26.8-22.7,31V41.8h8c0.7,0,1.3-0.5,1.4-1.3l0.9-7.5c0.1-0.8-0.6-1.6-1.4-1.6h-9v-6.3
		c0-2.8,0.8-4.8,4.9-4.8H51c0.8,0,1.4-0.7,1.4-1.4v-6.3c0-0.8-0.7-1.4-1.4-1.4h-6.1c-7.5,0-12.6,4.6-12.6,13v7.2h-6
		c-0.8,0-1.4,0.6-1.4,1.4v7.5c0,0.8,0.6,1.4,1.4,1.4h6v23.2C14.4,64.8,0,50.3,0,32.5C0,14.5,14.5,0,32.5,0S65,14.5,65,32.5z"/>
</g>
</svg>
