<?xml version="1.0" encoding="utf-8"?>
<!-- Generator: Adobe Illustrator 25.0.1, SVG Export Plug-In . SVG Version: 6.00 Build 0)  -->
<svg version="1.1" id="圖層_1" xmlns="http://www.w3.org/2000/svg" xmlns:xlink="http://www.w3.org/1999/xlink" x="0px" y="0px"
	 viewBox="0 0 20 20" style="enable-background:new 0 0 20 20;" xml:space="preserve">
<style type="text/css">
	.st0{clip-path:url(#SVGID_2_);}
	.st1{fill:#424242;}
</style>
<g>
	<g>
		<defs>
			<rect id="SVGID_1_" width="20" height="20"/>
		</defs>
		<clipPath id="SVGID_2_">
			<use xlink:href="#SVGID_1_"  style="overflow:visible;"/>
		</clipPath>
		<g class="st0">
			<path class="st1" d="M5.7,16.2h8.5v-12H5.7V16.2z M6.5,5h6.9v10.3H6.5V5z"/>
			<path class="st1" d="M7.4,12h5.1V5.9H7.4V12z M8.2,6.7h3.5v4.5H8.2V6.7z"/>
			<path class="st1" d="M10.9,12.5H9v1.9h1.9V12.5z"/>
			<path class="st1" d="M10,0C7.3,0,4.8,1.1,2.9,2.9C1.1,4.8,0,7.3,0,10c0,2.7,1.1,5.2,2.9,7.1C4.8,18.9,7.3,20,10,20
				c2.7,0,5.2-1.1,7.1-2.9c1.9-1.9,2.9-4.4,2.9-7.1c0-2.6-1.1-5.2-3-7C15.2,1.1,12.6,0,10,0z M10,19.2c-2.4,0-4.8-1-6.5-2.7
				c-1.7-1.7-2.7-4.1-2.7-6.5c0-1.2,0.2-2.4,0.7-3.5c0.5-1.1,1.1-2.1,2-3c0.9-0.9,1.9-1.5,3-2C7.6,1.1,8.8,0.8,10,0.9
				c2.4,0,4.8,1,6.5,2.7c1.7,1.7,2.7,4,2.7,6.5c0,2.4-1,4.8-2.7,6.5C14.8,18.2,12.4,19.2,10,19.2z"/>
		</g>
	</g>
</g>
</svg>
